%!PS-Adobe-2.0 EPSF-2.0
%%Title: Diagrama1.dia
%%Creator: Dia v0.97
%%CreationDate: Fri Aug 21 01:33:28 2009
%%For: peris
%%Orientation: Portrait
%%Magnification: 1.0000
%%BoundingBox: 0 0 485 728
%%BeginSetup
%%EndSetup
%%EndComments
%%BeginProlog
[ /.notdef /.notdef /.notdef /.notdef /.notdef /.notdef /.notdef /.notdef /.notdef /.notdef
/.notdef /.notdef /.notdef /.notdef /.notdef /.notdef /.notdef /.notdef /.notdef /.notdef
/.notdef /.notdef /.notdef /.notdef /.notdef /.notdef /.notdef /.notdef /.notdef /.notdef
/.notdef /.notdef /space /exclam /quotedbl /numbersign /dollar /percent /ampersand /quoteright
/parenleft /parenright /asterisk /plus /comma /hyphen /period /slash /zero /one
/two /three /four /five /six /seven /eight /nine /colon /semicolon
/less /equal /greater /question /at /A /B /C /D /E
/F /G /H /I /J /K /L /M /N /O
/P /Q /R /S /T /U /V /W /X /Y
/Z /bracketleft /backslash /bracketright /asciicircum /underscore /quoteleft /a /b /c
/d /e /f /g /h /i /j /k /l /m
/n /o /p /q /r /s /t /u /v /w
/x /y /z /braceleft /bar /braceright /asciitilde /.notdef /.notdef /.notdef
/.notdef /.notdef /.notdef /.notdef /.notdef /.notdef /.notdef /.notdef /.notdef /.notdef
/.notdef /.notdef /.notdef /.notdef /.notdef /.notdef /.notdef /.notdef /.notdef /.notdef
/.notdef /.notdef /.notdef /.notdef /.notdef /.notdef /.notdef /.notdef /.notdef /.notdef
/space /exclamdown /cent /sterling /currency /yen /brokenbar /section /dieresis /copyright
/ordfeminine /guillemotleft /logicalnot /hyphen /registered /macron /degree /plusminus /twosuperior /threesuperior
/acute /mu /paragraph /periodcentered /cedilla /onesuperior /ordmasculine /guillemotright /onequarter /onehalf
/threequarters /questiondown /Agrave /Aacute /Acircumflex /Atilde /Adieresis /Aring /AE /Ccedilla
/Egrave /Eacute /Ecircumflex /Edieresis /Igrave /Iacute /Icircumflex /Idieresis /Eth /Ntilde
/Ograve /Oacute /Ocircumflex /Otilde /Odieresis /multiply /Oslash /Ugrave /Uacute /Ucircumflex
/Udieresis /Yacute /Thorn /germandbls /agrave /aacute /acircumflex /atilde /adieresis /aring
/ae /ccedilla /egrave /eacute /ecircumflex /edieresis /igrave /iacute /icircumflex /idieresis
/eth /ntilde /ograve /oacute /ocircumflex /otilde /odieresis /divide /oslash /ugrave
/uacute /ucircumflex /udieresis /yacute /thorn /ydieresis] /isolatin1encoding exch def
/cp {closepath} bind def
/c {curveto} bind def
/f {fill} bind def
/a {arc} bind def
/ef {eofill} bind def
/ex {exch} bind def
/gr {grestore} bind def
/gs {gsave} bind def
/sa {save} bind def
/rs {restore} bind def
/l {lineto} bind def
/m {moveto} bind def
/rm {rmoveto} bind def
/n {newpath} bind def
/s {stroke} bind def
/sh {show} bind def
/slc {setlinecap} bind def
/slj {setlinejoin} bind def
/slw {setlinewidth} bind def
/srgb {setrgbcolor} bind def
/rot {rotate} bind def
/sc {scale} bind def
/sd {setdash} bind def
/ff {findfont} bind def
/sf {setfont} bind def
/scf {scalefont} bind def
/sw {stringwidth pop} bind def
/tr {translate} bind def

/ellipsedict 8 dict def
ellipsedict /mtrx matrix put
/ellipse
{ ellipsedict begin
   /endangle exch def
   /startangle exch def
   /yrad exch def
   /xrad exch def
   /y exch def
   /x exch def   /savematrix mtrx currentmatrix def
   x y tr xrad yrad sc
   0 0 1 startangle endangle arc
   savematrix setmatrix
   end
} def

/mergeprocs {
dup length
3 -1 roll
dup
length
dup
5 1 roll
3 -1 roll
add
array cvx
dup
3 -1 roll
0 exch
putinterval
dup
4 2 roll
putinterval
} bind def
/dpi_x 300 def
/dpi_y 300 def
/conicto {
    /to_y exch def
    /to_x exch def
    /conic_cntrl_y exch def
    /conic_cntrl_x exch def
    currentpoint
    /p0_y exch def
    /p0_x exch def
    /p1_x p0_x conic_cntrl_x p0_x sub 2 3 div mul add def
    /p1_y p0_y conic_cntrl_y p0_y sub 2 3 div mul add def
    /p2_x p1_x to_x p0_x sub 1 3 div mul add def
    /p2_y p1_y to_y p0_y sub 1 3 div mul add def
    p1_x p1_y p2_x p2_y to_x to_y curveto
} bind def
/start_ol { gsave 1.1 dpi_x div dup scale} bind def
/end_ol { closepath fill grestore } bind def
28.346000 -28.346000 scale
-26.334100 -27.650000 translate
%%EndProlog


0.100000 slw
[] 0 sd
[] 0 sd
0 slc
0.000000 0.000000 0.000000 srgb
n 31.226800 6.458840 m 35.752297 6.451039 l s
[] 0 sd
0 slj
0 slc
n 36.127297 6.450393 m 35.627728 6.701254 l 35.752297 6.451039 l 35.626867 6.201255 l ef
n 36.127297 6.450393 m 35.627728 6.701254 l 35.752297 6.451039 l 35.626867 6.201255 l cp s
0.100000 slw
[] 0 sd
[] 0 sd
0 slc
n 31.226800 18.290000 m 35.752297 18.291264 l s
[] 0 sd
0 slj
0 slc
n 36.127297 18.291369 m 35.627227 18.541229 l 35.752297 18.291264 l 35.627366 18.041229 l ef
n 36.127297 18.291369 m 35.627227 18.541229 l 35.752297 18.291264 l 35.627366 18.041229 l cp s
0.100000 slw
[] 0 sd
[] 0 sd
0 slc
n 31.226800 10.282200 m 35.720797 10.281208 l s
[] 0 sd
0 slj
0 slc
n 36.095797 10.281125 m 35.595852 10.531235 l 35.720797 10.281208 l 35.595741 10.031235 l ef
n 36.095797 10.281125 m 35.595852 10.531235 l 35.720797 10.281208 l 35.595741 10.031235 l cp s
0.100000 slw
[] 0 sd
[] 0 sd
0 slc
n 31.226800 14.600000 m 35.727297 14.596120 l s
[] 0 sd
0 slj
0 slc
n 36.102297 14.595796 m 35.602512 14.846227 l 35.727297 14.596120 l 35.602081 14.346228 l ef
n 36.102297 14.595796 m 35.602512 14.846227 l 35.727297 14.596120 l 35.602081 14.346228 l cp s
0.100000 slw
[] 0 sd
[] 0 sd
0 slc
n 31.226800 22.065000 m 35.752297 22.066264 l s
[] 0 sd
0 slj
0 slc
n 36.127297 22.066369 m 35.627227 22.316229 l 35.752297 22.066264 l 35.627366 21.816229 l ef
n 36.127297 22.066369 m 35.627227 22.316229 l 35.752297 22.066264 l 35.627366 21.816229 l cp s
gsave 26.454100 3.475000 translate 0.035278 -0.035278 scale
start_ol
3424 0 moveto
64 8832 lineto
1308 8832 lineto
4096 1396 lineto
6890 8832 lineto
8128 8832 lineto
4774 0 lineto
3424 0 lineto
end_ol grestore 
gsave 27.513103 3.475000 translate 0.035278 -0.035278 scale
start_ol
1152 6592 moveto
2240 6592 lineto
2240 0 lineto
1152 0 lineto
1152 6592 lineto
1152 9216 moveto
2240 9216 lineto
2240 7808 lineto
1152 7808 lineto
1152 9216 lineto
end_ol grestore 
gsave 27.957686 3.475000 translate 0.035278 -0.035278 scale
start_ol
5312 6464 moveto
5312 5440 lineto
4862 5664 4377 5776 conicto
3892 5888 3373 5888 conicto
2583 5888 2187 5639 conicto
1792 5391 1792 4895 conicto
1792 4517 2079 4301 conicto
2366 4085 3232 3890 conicto
3601 3806 lineto
4738 3555 5217 3098 conicto
5696 2642 5696 1825 conicto
5696 894 4966 351 conicto
4237 -192 2961 -192 conicto
2430 -192 1854 -96 conicto
1278 0 640 192 conicto
640 1344 lineto
1247 1024 1836 864 conicto
2425 704 3002 704 conicto
3775 704 4191 971 conicto
4608 1239 4608 1727 conicto
4608 2178 4312 2418 conicto
4017 2659 3016 2882 conicto
2641 2972 lineto
1616 3185 1160 3625 conicto
704 4065 704 4834 conicto
704 5767 1359 6275 conicto
2014 6784 3219 6784 conicto
3815 6784 4341 6704 conicto
4868 6624 5312 6464 conicto
end_ol grestore 
gsave 28.789403 3.475000 translate 0.035278 -0.035278 scale
start_ol
2240 8448 moveto
2240 6592 lineto
4480 6592 lineto
4480 5760 lineto
2240 5760 lineto
2240 2167 lineto
2240 1357 2461 1126 conicto
2683 896 3363 896 conicto
4480 896 lineto
4480 0 lineto
3363 0 lineto
2107 0 1629 467 conicto
1152 934 1152 2167 conicto
1152 5760 lineto
384 5760 lineto
384 6592 lineto
1152 6592 lineto
1152 8448 lineto
2240 8448 lineto
end_ol grestore 
gsave 29.416317 3.475000 translate 0.035278 -0.035278 scale
start_ol
4110 3328 moveto
2801 3328 2296 3022 conicto
1792 2717 1792 1980 conicto
1792 1393 2170 1048 conicto
2549 704 3200 704 conicto
4098 704 4641 1353 conicto
5184 2003 5184 3081 conicto
5184 3328 lineto
4110 3328 lineto
6272 3767 moveto
6272 0 lineto
5184 0 lineto
5184 960 lineto
4814 370 4261 89 conicto
3708 -192 2909 -192 conicto
1897 -192 1300 378 conicto
704 949 704 1907 conicto
704 3025 1448 3592 conicto
2193 4160 3670 4160 conicto
5184 4160 lineto
5184 4274 lineto
5184 5045 4697 5466 conicto
4210 5888 3328 5888 conicto
2768 5888 2237 5760 conicto
1706 5632 1216 5376 conicto
1216 6400 lineto
1807 6592 2363 6688 conicto
2919 6784 3446 6784 conicto
4868 6784 5570 6035 conicto
6272 5287 6272 3767 conicto
end_ol grestore 
gsave 36.664700 3.475000 translate 0.035278 -0.035278 scale
start_ol
2368 7872 moveto
2368 4544 lineto
3878 4544 lineto
4716 4544 5174 4977 conicto
5632 5410 5632 6211 conicto
5632 7006 5174 7439 conicto
4716 7872 3878 7872 conicto
2368 7872 lineto
1152 8832 moveto
3878 8832 lineto
5345 8832 6096 8165 conicto
6848 7498 6848 6211 conicto
6848 4912 6096 4248 conicto
5345 3584 3878 3584 conicto
2368 3584 lineto
2368 0 lineto
1152 0 lineto
1152 8832 lineto
end_ol grestore 
gsave 37.628792 3.475000 translate 0.035278 -0.035278 scale
start_ol
1152 9216 moveto
2240 9216 lineto
2240 0 lineto
1152 0 lineto
1152 9216 lineto
end_ol grestore 
gsave 38.073375 3.475000 translate 0.035278 -0.035278 scale
start_ol
4110 3328 moveto
2801 3328 2296 3022 conicto
1792 2717 1792 1980 conicto
1792 1393 2170 1048 conicto
2549 704 3200 704 conicto
4098 704 4641 1353 conicto
5184 2003 5184 3081 conicto
5184 3328 lineto
4110 3328 lineto
6272 3767 moveto
6272 0 lineto
5184 0 lineto
5184 960 lineto
4814 370 4261 89 conicto
3708 -192 2909 -192 conicto
1897 -192 1300 378 conicto
704 949 704 1907 conicto
704 3025 1448 3592 conicto
2193 4160 3670 4160 conicto
5184 4160 lineto
5184 4274 lineto
5184 5045 4697 5466 conicto
4210 5888 3328 5888 conicto
2768 5888 2237 5760 conicto
1706 5632 1216 5376 conicto
1216 6400 lineto
1807 6592 2363 6688 conicto
2919 6784 3446 6784 conicto
4868 6784 5570 6035 conicto
6272 5287 6272 3767 conicto
end_ol grestore 
gsave 39.052457 3.475000 translate 0.035278 -0.035278 scale
start_ol
6656 3979 moveto
6656 0 lineto
5568 0 lineto
5568 3944 lineto
5568 4887 5198 5355 conicto
4829 5824 4090 5824 conicto
3201 5824 2688 5261 conicto
2176 4698 2176 3726 conicto
2176 0 lineto
1088 0 lineto
1088 6592 lineto
2176 6592 lineto
2176 5568 lineto
2569 6179 3101 6481 conicto
3634 6784 4330 6784 conicto
5478 6784 6067 6072 conicto
6656 5361 6656 3979 conicto
end_ol grestore 
gsave 40.066506 3.475000 translate 0.035278 -0.035278 scale
start_ol
2240 8448 moveto
2240 6592 lineto
4480 6592 lineto
4480 5760 lineto
2240 5760 lineto
2240 2167 lineto
2240 1357 2461 1126 conicto
2683 896 3363 896 conicto
4480 896 lineto
4480 0 lineto
3363 0 lineto
2107 0 1629 467 conicto
1152 934 1152 2167 conicto
1152 5760 lineto
384 5760 lineto
384 6592 lineto
1152 6592 lineto
1152 8448 lineto
2240 8448 lineto
end_ol grestore 
gsave 40.693419 3.475000 translate 0.035278 -0.035278 scale
start_ol
1152 6592 moveto
2240 6592 lineto
2240 0 lineto
1152 0 lineto
1152 6592 lineto
1152 9216 moveto
2240 9216 lineto
2240 7808 lineto
1152 7808 lineto
1152 9216 lineto
end_ol grestore 
gsave 41.138002 3.475000 translate 0.035278 -0.035278 scale
start_ol
1152 9216 moveto
2240 9216 lineto
2240 0 lineto
1152 0 lineto
1152 9216 lineto
end_ol grestore 
gsave 41.582585 3.475000 translate 0.035278 -0.035278 scale
start_ol
1152 9216 moveto
2240 9216 lineto
2240 0 lineto
1152 0 lineto
1152 9216 lineto
end_ol grestore 
gsave 42.027168 3.475000 translate 0.035278 -0.035278 scale
start_ol
4110 3328 moveto
2801 3328 2296 3022 conicto
1792 2717 1792 1980 conicto
1792 1393 2170 1048 conicto
2549 704 3200 704 conicto
4098 704 4641 1353 conicto
5184 2003 5184 3081 conicto
5184 3328 lineto
4110 3328 lineto
6272 3767 moveto
6272 0 lineto
5184 0 lineto
5184 960 lineto
4814 370 4261 89 conicto
3708 -192 2909 -192 conicto
1897 -192 1300 378 conicto
704 949 704 1907 conicto
704 3025 1448 3592 conicto
2193 4160 3670 4160 conicto
5184 4160 lineto
5184 4274 lineto
5184 5045 4697 5466 conicto
4210 5888 3328 5888 conicto
2768 5888 2237 5760 conicto
1706 5632 1216 5376 conicto
1216 6400 lineto
1807 6592 2363 6688 conicto
2919 6784 3446 6784 conicto
4868 6784 5570 6035 conicto
6272 5287 6272 3767 conicto
end_ol grestore 
0.100000 slw
[] 0 sd
[] 0 sd
0 slc
n 31.232800 26.012500 m 35.758297 26.013764 l s
[] 0 sd
0 slj
0 slc
n 36.133297 26.013869 m 35.633227 26.263729 l 35.758297 26.013764 l 35.633366 25.763729 l ef
n 36.133297 26.013869 m 35.633227 26.263729 l 35.758297 26.013764 l 35.633366 25.763729 l cp s
gsave 28.739100 6.672500 translate 0.035278 -0.035278 scale
start_ol
2752 1480 moveto
2752 1280 lineto
704 1280 lineto
733 811 978 565 conicto
1223 320 1660 320 conicto
1914 320 2152 384 conicto
2390 448 2624 576 conicto
2624 192 lineto
2388 67 2140 1 conicto
1893 -64 1639 -64 conicto
1001 -64 628 309 conicto
256 683 256 1320 conicto
256 1979 613 2365 conicto
970 2752 1576 2752 conicto
2120 2752 2436 2410 conicto
2752 2068 2752 1480 conicto
2304 1600 moveto
2299 1950 2099 2159 conicto
1900 2368 1572 2368 conicto
1200 2368 976 2166 conicto
753 1964 719 1597 conicto
2304 1600 lineto
end_ol grestore 
gsave 29.123738 6.672500 translate 0.035278 -0.035278 scale
start_ol
2624 2688 moveto
1666 1380 lineto
2688 0 lineto
2169 0 lineto
1389 1056 lineto
632 0 lineto
128 0 lineto
1134 1406 lineto
192 2688 lineto
705 2688 lineto
1408 1730 lineto
2111 2688 lineto
2624 2688 lineto
end_ol grestore 
gsave 29.503382 6.672500 translate 0.035278 -0.035278 scale
start_ol
1622 1344 moveto
1104 1344 904 1225 conicto
704 1106 704 818 conicto
704 589 854 454 conicto
1004 320 1262 320 conicto
1618 320 1833 572 conicto
2048 825 2048 1244 conicto
2048 1344 lineto
1622 1344 lineto
2496 1513 moveto
2496 0 lineto
2048 0 lineto
2048 384 lineto
1900 154 1679 45 conicto
1458 -64 1138 -64 conicto
733 -64 494 162 conicto
256 389 256 769 conicto
256 1213 555 1438 conicto
854 1664 1448 1664 conicto
2048 1664 lineto
2048 1712 lineto
2048 2025 1851 2196 conicto
1655 2368 1300 2368 conicto
1074 2368 860 2320 conicto
646 2272 448 2176 conicto
448 2560 lineto
687 2656 912 2704 conicto
1138 2752 1351 2752 conicto
1927 2752 2211 2444 conicto
2496 2137 2496 1513 conicto
end_ol grestore 
gsave 29.895511 6.672500 translate 0.035278 -0.035278 scale
start_ol
2549 2204 moveto
2714 2485 2942 2618 conicto
3171 2752 3482 2752 conicto
3899 2752 4125 2464 conicto
4352 2177 4352 1646 conicto
4352 0 lineto
3904 0 lineto
3904 1632 lineto
3904 2006 3769 2187 conicto
3634 2368 3356 2368 conicto
3017 2368 2820 2146 conicto
2624 1925 2624 1542 conicto
2624 0 lineto
2176 0 lineto
2176 1632 lineto
2176 2008 2041 2188 conicto
1906 2368 1624 2368 conicto
1289 2368 1092 2145 conicto
896 1922 896 1542 conicto
896 0 lineto
448 0 lineto
448 2688 lineto
896 2688 lineto
896 2304 lineto
1046 2534 1255 2643 conicto
1465 2752 1753 2752 conicto
2044 2752 2247 2611 conicto
2451 2471 2549 2204 conicto
end_ol grestore 
gsave 28.406600 18.512500 translate 0.035278 -0.035278 scale
start_ol
2752 1480 moveto
2752 1280 lineto
704 1280 lineto
733 811 978 565 conicto
1223 320 1660 320 conicto
1914 320 2152 384 conicto
2390 448 2624 576 conicto
2624 192 lineto
2388 67 2140 1 conicto
1893 -64 1639 -64 conicto
1001 -64 628 309 conicto
256 683 256 1320 conicto
256 1979 613 2365 conicto
970 2752 1576 2752 conicto
2120 2752 2436 2410 conicto
2752 2068 2752 1480 conicto
2304 1600 moveto
2299 1950 2099 2159 conicto
1900 2368 1572 2368 conicto
1200 2368 976 2166 conicto
753 1964 719 1597 conicto
2304 1600 lineto
end_ol grestore 
gsave 28.791238 18.512500 translate 0.035278 -0.035278 scale
start_ol
2624 2688 moveto
1666 1380 lineto
2688 0 lineto
2169 0 lineto
1389 1056 lineto
632 0 lineto
128 0 lineto
1134 1406 lineto
192 2688 lineto
705 2688 lineto
1408 1730 lineto
2111 2688 lineto
2624 2688 lineto
end_ol grestore 
gsave 29.170882 18.512500 translate 0.035278 -0.035278 scale
start_ol
1622 1344 moveto
1104 1344 904 1225 conicto
704 1106 704 818 conicto
704 589 854 454 conicto
1004 320 1262 320 conicto
1618 320 1833 572 conicto
2048 825 2048 1244 conicto
2048 1344 lineto
1622 1344 lineto
2496 1513 moveto
2496 0 lineto
2048 0 lineto
2048 384 lineto
1900 154 1679 45 conicto
1458 -64 1138 -64 conicto
733 -64 494 162 conicto
256 389 256 769 conicto
256 1213 555 1438 conicto
854 1664 1448 1664 conicto
2048 1664 lineto
2048 1712 lineto
2048 2025 1851 2196 conicto
1655 2368 1300 2368 conicto
1074 2368 860 2320 conicto
646 2272 448 2176 conicto
448 2560 lineto
687 2656 912 2704 conicto
1138 2752 1351 2752 conicto
1927 2752 2211 2444 conicto
2496 2137 2496 1513 conicto
end_ol grestore 
gsave 29.563011 18.512500 translate 0.035278 -0.035278 scale
start_ol
2549 2204 moveto
2714 2485 2942 2618 conicto
3171 2752 3482 2752 conicto
3899 2752 4125 2464 conicto
4352 2177 4352 1646 conicto
4352 0 lineto
3904 0 lineto
3904 1632 lineto
3904 2006 3769 2187 conicto
3634 2368 3356 2368 conicto
3017 2368 2820 2146 conicto
2624 1925 2624 1542 conicto
2624 0 lineto
2176 0 lineto
2176 1632 lineto
2176 2008 2041 2188 conicto
1906 2368 1624 2368 conicto
1289 2368 1092 2145 conicto
896 1922 896 1542 conicto
896 0 lineto
448 0 lineto
448 2688 lineto
896 2688 lineto
896 2304 lineto
1046 2534 1255 2643 conicto
1465 2752 1753 2752 conicto
2044 2752 2247 2611 conicto
2451 2471 2549 2204 conicto
end_ol grestore 
gsave 30.184922 18.512500 translate 0.035278 -0.035278 scale
start_ol
2112 2560 moveto
2112 2176 lineto
1932 2272 1738 2320 conicto
1544 2368 1336 2368 conicto
1020 2368 862 2269 conicto
704 2170 704 1972 conicto
704 1821 814 1735 conicto
925 1649 1260 1571 conicto
1403 1538 lineto
1857 1438 2048 1255 conicto
2240 1072 2240 744 conicto
2240 371 1954 153 conicto
1668 -64 1167 -64 conicto
958 -64 732 -16 conicto
506 32 256 128 conicto
256 576 lineto
491 448 719 384 conicto
947 320 1170 320 conicto
1470 320 1631 425 conicto
1792 531 1792 722 conicto
1792 900 1678 994 conicto
1564 1089 1177 1177 conicto
1032 1212 lineto
621 1298 438 1476 conicto
256 1654 256 1964 conicto
256 2341 520 2546 conicto
784 2752 1269 2752 conicto
1509 2752 1721 2704 conicto
1933 2656 2112 2560 conicto
end_ol grestore 
gsave 27.416600 10.502500 translate 0.035278 -0.035278 scale
start_ol
2549 2204 moveto
2714 2485 2942 2618 conicto
3171 2752 3482 2752 conicto
3899 2752 4125 2464 conicto
4352 2177 4352 1646 conicto
4352 0 lineto
3904 0 lineto
3904 1632 lineto
3904 2006 3769 2187 conicto
3634 2368 3356 2368 conicto
3017 2368 2820 2146 conicto
2624 1925 2624 1542 conicto
2624 0 lineto
2176 0 lineto
2176 1632 lineto
2176 2008 2041 2188 conicto
1906 2368 1624 2368 conicto
1289 2368 1092 2145 conicto
896 1922 896 1542 conicto
896 0 lineto
448 0 lineto
448 2688 lineto
896 2688 lineto
896 2304 lineto
1046 2534 1255 2643 conicto
1465 2752 1753 2752 conicto
2044 2752 2247 2611 conicto
2451 2471 2549 2204 conicto
end_ol grestore 
gsave 28.038511 10.502500 translate 0.035278 -0.035278 scale
start_ol
1542 -238 moveto
1360 -726 1187 -875 conicto
1015 -1024 726 -1024 conicto
384 -1024 lineto
384 -640 lineto
636 -640 lineto
813 -640 910 -555 conicto
1008 -470 1127 -155 conicto
1204 46 lineto
128 2688 lineto
603 2688 lineto
1418 586 lineto
2234 2688 lineto
2688 2688 lineto
1542 -238 lineto
end_ol grestore 
gsave 28.418155 10.502500 translate 0.035278 -0.035278 scale
start_ol
2496 -832 moveto
2496 -1152 lineto
-64 -1152 lineto
-64 -832 lineto
2496 -832 lineto
end_ol grestore 
gsave 28.737855 10.502500 translate 0.035278 -0.035278 scale
start_ol
2752 1480 moveto
2752 1280 lineto
704 1280 lineto
733 811 978 565 conicto
1223 320 1660 320 conicto
1914 320 2152 384 conicto
2390 448 2624 576 conicto
2624 192 lineto
2388 67 2140 1 conicto
1893 -64 1639 -64 conicto
1001 -64 628 309 conicto
256 683 256 1320 conicto
256 1979 613 2365 conicto
970 2752 1576 2752 conicto
2120 2752 2436 2410 conicto
2752 2068 2752 1480 conicto
2304 1600 moveto
2299 1950 2099 2159 conicto
1900 2368 1572 2368 conicto
1200 2368 976 2166 conicto
753 1964 719 1597 conicto
2304 1600 lineto
end_ol grestore 
gsave 29.122493 10.502500 translate 0.035278 -0.035278 scale
start_ol
2624 2688 moveto
1666 1380 lineto
2688 0 lineto
2169 0 lineto
1389 1056 lineto
632 0 lineto
128 0 lineto
1134 1406 lineto
192 2688 lineto
705 2688 lineto
1408 1730 lineto
2111 2688 lineto
2624 2688 lineto
end_ol grestore 
gsave 29.502137 10.502500 translate 0.035278 -0.035278 scale
start_ol
1622 1344 moveto
1104 1344 904 1225 conicto
704 1106 704 818 conicto
704 589 854 454 conicto
1004 320 1262 320 conicto
1618 320 1833 572 conicto
2048 825 2048 1244 conicto
2048 1344 lineto
1622 1344 lineto
2496 1513 moveto
2496 0 lineto
2048 0 lineto
2048 384 lineto
1900 154 1679 45 conicto
1458 -64 1138 -64 conicto
733 -64 494 162 conicto
256 389 256 769 conicto
256 1213 555 1438 conicto
854 1664 1448 1664 conicto
2048 1664 lineto
2048 1712 lineto
2048 2025 1851 2196 conicto
1655 2368 1300 2368 conicto
1074 2368 860 2320 conicto
646 2272 448 2176 conicto
448 2560 lineto
687 2656 912 2704 conicto
1138 2752 1351 2752 conicto
1927 2752 2211 2444 conicto
2496 2137 2496 1513 conicto
end_ol grestore 
gsave 29.894266 10.502500 translate 0.035278 -0.035278 scale
start_ol
2549 2204 moveto
2714 2485 2942 2618 conicto
3171 2752 3482 2752 conicto
3899 2752 4125 2464 conicto
4352 2177 4352 1646 conicto
4352 0 lineto
3904 0 lineto
3904 1632 lineto
3904 2006 3769 2187 conicto
3634 2368 3356 2368 conicto
3017 2368 2820 2146 conicto
2624 1925 2624 1542 conicto
2624 0 lineto
2176 0 lineto
2176 1632 lineto
2176 2008 2041 2188 conicto
1906 2368 1624 2368 conicto
1289 2368 1092 2145 conicto
896 1922 896 1542 conicto
896 0 lineto
448 0 lineto
448 2688 lineto
896 2688 lineto
896 2304 lineto
1046 2534 1255 2643 conicto
1465 2752 1753 2752 conicto
2044 2752 2247 2611 conicto
2451 2471 2549 2204 conicto
end_ol grestore 
gsave 26.334100 14.817500 translate 0.035278 -0.035278 scale
start_ol
2112 2560 moveto
2112 2176 lineto
1932 2272 1738 2320 conicto
1544 2368 1336 2368 conicto
1020 2368 862 2269 conicto
704 2170 704 1972 conicto
704 1821 814 1735 conicto
925 1649 1260 1571 conicto
1403 1538 lineto
1857 1438 2048 1255 conicto
2240 1072 2240 744 conicto
2240 371 1954 153 conicto
1668 -64 1167 -64 conicto
958 -64 732 -16 conicto
506 32 256 128 conicto
256 576 lineto
491 448 719 384 conicto
947 320 1170 320 conicto
1470 320 1631 425 conicto
1792 531 1792 722 conicto
1792 900 1678 994 conicto
1564 1089 1177 1177 conicto
1032 1212 lineto
621 1298 438 1476 conicto
256 1654 256 1964 conicto
256 2341 520 2546 conicto
784 2752 1269 2752 conicto
1509 2752 1721 2704 conicto
1933 2656 2112 2560 conicto
end_ol grestore 
gsave 26.666284 14.817500 translate 0.035278 -0.035278 scale
start_ol
1473 2368 moveto
1117 2368 910 2094 conicto
704 1820 704 1344 conicto
704 868 909 594 conicto
1115 320 1473 320 conicto
1827 320 2033 595 conicto
2240 870 2240 1344 conicto
2240 1816 2033 2092 conicto
1827 2368 1473 2368 conicto
1472 2752 moveto
2040 2752 2364 2378 conicto
2688 2005 2688 1344 conicto
2688 685 2364 310 conicto
2040 -64 1472 -64 conicto
902 -64 579 310 conicto
256 685 256 1344 conicto
256 2005 579 2378 conicto
902 2752 1472 2752 conicto
end_ol grestore 
gsave 27.058413 14.817500 translate 0.035278 -0.035278 scale
start_ol
448 3712 moveto
896 3712 lineto
896 0 lineto
448 0 lineto
448 3712 lineto
end_ol grestore 
gsave 27.235742 14.817500 translate 0.035278 -0.035278 scale
start_ol
128 2688 moveto
586 2688 lineto
1408 432 lineto
2230 2688 lineto
2688 2688 lineto
1702 0 lineto
1114 0 lineto
128 2688 lineto
end_ol grestore 
gsave 27.615386 14.817500 translate 0.035278 -0.035278 scale
start_ol
2752 1480 moveto
2752 1280 lineto
704 1280 lineto
733 811 978 565 conicto
1223 320 1660 320 conicto
1914 320 2152 384 conicto
2390 448 2624 576 conicto
2624 192 lineto
2388 67 2140 1 conicto
1893 -64 1639 -64 conicto
1001 -64 628 309 conicto
256 683 256 1320 conicto
256 1979 613 2365 conicto
970 2752 1576 2752 conicto
2120 2752 2436 2410 conicto
2752 2068 2752 1480 conicto
2304 1600 moveto
2299 1950 2099 2159 conicto
1900 2368 1572 2368 conicto
1200 2368 976 2166 conicto
753 1964 719 1597 conicto
2304 1600 lineto
end_ol grestore 
gsave 28.010012 14.817500 translate 0.035278 -0.035278 scale
start_ol
2176 2304 moveto
2176 3712 lineto
2624 3712 lineto
2624 0 lineto
2176 0 lineto
2176 384 lineto
2040 157 1832 46 conicto
1624 -64 1332 -64 conicto
855 -64 555 324 conicto
256 712 256 1344 conicto
256 1976 555 2364 conicto
855 2752 1332 2752 conicto
1624 2752 1832 2641 conicto
2040 2531 2176 2304 conicto
704 1344 moveto
704 865 900 592 conicto
1096 320 1439 320 conicto
1782 320 1979 592 conicto
2176 865 2176 1344 conicto
2176 1823 1979 2095 conicto
1782 2368 1439 2368 conicto
1096 2368 900 2095 conicto
704 1823 704 1344 conicto
end_ol grestore 
gsave 28.417132 14.817500 translate 0.035278 -0.035278 scale
start_ol
2496 -832 moveto
2496 -1152 lineto
-64 -1152 lineto
-64 -832 lineto
2496 -832 lineto
end_ol grestore 
gsave 28.736831 14.817500 translate 0.035278 -0.035278 scale
start_ol
2752 1480 moveto
2752 1280 lineto
704 1280 lineto
733 811 978 565 conicto
1223 320 1660 320 conicto
1914 320 2152 384 conicto
2390 448 2624 576 conicto
2624 192 lineto
2388 67 2140 1 conicto
1893 -64 1639 -64 conicto
1001 -64 628 309 conicto
256 683 256 1320 conicto
256 1979 613 2365 conicto
970 2752 1576 2752 conicto
2120 2752 2436 2410 conicto
2752 2068 2752 1480 conicto
2304 1600 moveto
2299 1950 2099 2159 conicto
1900 2368 1572 2368 conicto
1200 2368 976 2166 conicto
753 1964 719 1597 conicto
2304 1600 lineto
end_ol grestore 
gsave 29.121469 14.817500 translate 0.035278 -0.035278 scale
start_ol
2624 2688 moveto
1666 1380 lineto
2688 0 lineto
2169 0 lineto
1389 1056 lineto
632 0 lineto
128 0 lineto
1134 1406 lineto
192 2688 lineto
705 2688 lineto
1408 1730 lineto
2111 2688 lineto
2624 2688 lineto
end_ol grestore 
gsave 29.501113 14.817500 translate 0.035278 -0.035278 scale
start_ol
1622 1344 moveto
1104 1344 904 1225 conicto
704 1106 704 818 conicto
704 589 854 454 conicto
1004 320 1262 320 conicto
1618 320 1833 572 conicto
2048 825 2048 1244 conicto
2048 1344 lineto
1622 1344 lineto
2496 1513 moveto
2496 0 lineto
2048 0 lineto
2048 384 lineto
1900 154 1679 45 conicto
1458 -64 1138 -64 conicto
733 -64 494 162 conicto
256 389 256 769 conicto
256 1213 555 1438 conicto
854 1664 1448 1664 conicto
2048 1664 lineto
2048 1712 lineto
2048 2025 1851 2196 conicto
1655 2368 1300 2368 conicto
1074 2368 860 2320 conicto
646 2272 448 2176 conicto
448 2560 lineto
687 2656 912 2704 conicto
1138 2752 1351 2752 conicto
1927 2752 2211 2444 conicto
2496 2137 2496 1513 conicto
end_ol grestore 
gsave 29.893242 14.817500 translate 0.035278 -0.035278 scale
start_ol
2549 2204 moveto
2714 2485 2942 2618 conicto
3171 2752 3482 2752 conicto
3899 2752 4125 2464 conicto
4352 2177 4352 1646 conicto
4352 0 lineto
3904 0 lineto
3904 1632 lineto
3904 2006 3769 2187 conicto
3634 2368 3356 2368 conicto
3017 2368 2820 2146 conicto
2624 1925 2624 1542 conicto
2624 0 lineto
2176 0 lineto
2176 1632 lineto
2176 2008 2041 2188 conicto
1906 2368 1624 2368 conicto
1289 2368 1092 2145 conicto
896 1922 896 1542 conicto
896 0 lineto
448 0 lineto
448 2688 lineto
896 2688 lineto
896 2304 lineto
1046 2534 1255 2643 conicto
1465 2752 1753 2752 conicto
2044 2752 2247 2611 conicto
2451 2471 2549 2204 conicto
end_ol grestore 
gsave 28.539100 22.287500 translate 0.035278 -0.035278 scale
start_ol
2549 2204 moveto
2714 2485 2942 2618 conicto
3171 2752 3482 2752 conicto
3899 2752 4125 2464 conicto
4352 2177 4352 1646 conicto
4352 0 lineto
3904 0 lineto
3904 1632 lineto
3904 2006 3769 2187 conicto
3634 2368 3356 2368 conicto
3017 2368 2820 2146 conicto
2624 1925 2624 1542 conicto
2624 0 lineto
2176 0 lineto
2176 1632 lineto
2176 2008 2041 2188 conicto
1906 2368 1624 2368 conicto
1289 2368 1092 2145 conicto
896 1922 896 1542 conicto
896 0 lineto
448 0 lineto
448 2688 lineto
896 2688 lineto
896 2304 lineto
1046 2534 1255 2643 conicto
1465 2752 1753 2752 conicto
2044 2752 2247 2611 conicto
2451 2471 2549 2204 conicto
end_ol grestore 
gsave 29.161011 22.287500 translate 0.035278 -0.035278 scale
start_ol
1622 1344 moveto
1104 1344 904 1225 conicto
704 1106 704 818 conicto
704 589 854 454 conicto
1004 320 1262 320 conicto
1618 320 1833 572 conicto
2048 825 2048 1244 conicto
2048 1344 lineto
1622 1344 lineto
2496 1513 moveto
2496 0 lineto
2048 0 lineto
2048 384 lineto
1900 154 1679 45 conicto
1458 -64 1138 -64 conicto
733 -64 494 162 conicto
256 389 256 769 conicto
256 1213 555 1438 conicto
854 1664 1448 1664 conicto
2048 1664 lineto
2048 1712 lineto
2048 2025 1851 2196 conicto
1655 2368 1300 2368 conicto
1074 2368 860 2320 conicto
646 2272 448 2176 conicto
448 2560 lineto
687 2656 912 2704 conicto
1138 2752 1351 2752 conicto
1927 2752 2211 2444 conicto
2496 2137 2496 1513 conicto
end_ol grestore 
gsave 29.553140 22.287500 translate 0.035278 -0.035278 scale
start_ol
1984 2304 moveto
1912 2337 1828 2352 conicto
1744 2368 1642 2368 conicto
1282 2368 1089 2127 conicto
896 1887 896 1437 conicto
896 0 lineto
448 0 lineto
448 2688 lineto
896 2688 lineto
896 2304 lineto
1030 2531 1245 2641 conicto
1460 2752 1767 2752 conicto
1811 2752 1864 2752 conicto
1917 2752 1982 2752 conicto
1984 2304 lineto
end_ol grestore 
gsave 29.815392 22.287500 translate 0.035278 -0.035278 scale
start_ol
448 3712 moveto
896 3712 lineto
896 1529 lineto
2196 2688 lineto
2752 2688 lineto
1346 1430 lineto
2816 0 lineto
2246 0 lineto
896 1313 lineto
896 0 lineto
448 0 lineto
448 3712 lineto
end_ol grestore 
gsave 30.185040 22.287500 translate 0.035278 -0.035278 scale
start_ol
2112 2560 moveto
2112 2176 lineto
1932 2272 1738 2320 conicto
1544 2368 1336 2368 conicto
1020 2368 862 2269 conicto
704 2170 704 1972 conicto
704 1821 814 1735 conicto
925 1649 1260 1571 conicto
1403 1538 lineto
1857 1438 2048 1255 conicto
2240 1072 2240 744 conicto
2240 371 1954 153 conicto
1668 -64 1167 -64 conicto
958 -64 732 -16 conicto
506 32 256 128 conicto
256 576 lineto
491 448 719 384 conicto
947 320 1170 320 conicto
1470 320 1631 425 conicto
1792 531 1792 722 conicto
1792 900 1678 994 conicto
1564 1089 1177 1177 conicto
1032 1212 lineto
621 1298 438 1476 conicto
256 1654 256 1964 conicto
256 2341 520 2546 conicto
784 2752 1269 2752 conicto
1509 2752 1721 2704 conicto
1933 2656 2112 2560 conicto
end_ol grestore 
gsave 28.564100 26.235000 translate 0.035278 -0.035278 scale
start_ol
1984 2304 moveto
1912 2337 1828 2352 conicto
1744 2368 1642 2368 conicto
1282 2368 1089 2127 conicto
896 1887 896 1437 conicto
896 0 lineto
448 0 lineto
448 2688 lineto
896 2688 lineto
896 2304 lineto
1030 2531 1245 2641 conicto
1460 2752 1767 2752 conicto
1811 2752 1864 2752 conicto
1917 2752 1982 2752 conicto
1984 2304 lineto
end_ol grestore 
gsave 28.811361 26.235000 translate 0.035278 -0.035278 scale
start_ol
2752 1480 moveto
2752 1280 lineto
704 1280 lineto
733 811 978 565 conicto
1223 320 1660 320 conicto
1914 320 2152 384 conicto
2390 448 2624 576 conicto
2624 192 lineto
2388 67 2140 1 conicto
1893 -64 1639 -64 conicto
1001 -64 628 309 conicto
256 683 256 1320 conicto
256 1979 613 2365 conicto
970 2752 1576 2752 conicto
2120 2752 2436 2410 conicto
2752 2068 2752 1480 conicto
2304 1600 moveto
2299 1950 2099 2159 conicto
1900 2368 1572 2368 conicto
1200 2368 976 2166 conicto
753 1964 719 1597 conicto
2304 1600 lineto
end_ol grestore 
gsave 29.205987 26.235000 translate 0.035278 -0.035278 scale
start_ol
896 384 moveto
896 -1024 lineto
448 -1024 lineto
448 2688 lineto
896 2688 lineto
896 2304 lineto
1032 2531 1240 2641 conicto
1448 2752 1737 2752 conicto
2217 2752 2516 2364 conicto
2816 1976 2816 1344 conicto
2816 712 2516 324 conicto
2217 -64 1737 -64 conicto
1448 -64 1240 46 conicto
1032 157 896 384 conicto
2368 1344 moveto
2368 1823 2171 2095 conicto
1975 2368 1632 2368 conicto
1289 2368 1092 2095 conicto
896 1823 896 1344 conicto
896 865 1092 592 conicto
1289 320 1632 320 conicto
1975 320 2171 592 conicto
2368 865 2368 1344 conicto
end_ol grestore 
gsave 29.613107 26.235000 translate 0.035278 -0.035278 scale
start_ol
1473 2368 moveto
1117 2368 910 2094 conicto
704 1820 704 1344 conicto
704 868 909 594 conicto
1115 320 1473 320 conicto
1827 320 2033 595 conicto
2240 870 2240 1344 conicto
2240 1816 2033 2092 conicto
1827 2368 1473 2368 conicto
1472 2752 moveto
2040 2752 2364 2378 conicto
2688 2005 2688 1344 conicto
2688 685 2364 310 conicto
2040 -64 1472 -64 conicto
902 -64 579 310 conicto
256 685 256 1344 conicto
256 2005 579 2378 conicto
902 2752 1472 2752 conicto
end_ol grestore 
gsave 30.005236 26.235000 translate 0.035278 -0.035278 scale
start_ol
1984 2304 moveto
1912 2337 1828 2352 conicto
1744 2368 1642 2368 conicto
1282 2368 1089 2127 conicto
896 1887 896 1437 conicto
896 0 lineto
448 0 lineto
448 2688 lineto
896 2688 lineto
896 2304 lineto
1030 2531 1245 2641 conicto
1460 2752 1767 2752 conicto
1811 2752 1864 2752 conicto
1917 2752 1982 2752 conicto
1984 2304 lineto
end_ol grestore 
gsave 30.267487 26.235000 translate 0.035278 -0.035278 scale
start_ol
896 3456 moveto
896 2688 lineto
1792 2688 lineto
1792 2368 lineto
896 2368 lineto
896 902 lineto
896 572 984 478 conicto
1073 384 1345 384 conicto
1792 384 lineto
1792 0 lineto
1345 0 lineto
836 0 642 194 conicto
448 389 448 902 conicto
448 2368 lineto
128 2368 lineto
128 2688 lineto
448 2688 lineto
448 3456 lineto
896 3456 lineto
end_ol grestore 
0.100000 slw
[] 0 sd
[] 0 sd
0 slc
0 slj
0.100000 slw
0 slc
0 slj
[] 0 sd
1.000000 1.000000 1.000000 srgb
n 39.028100 24.427500 m 40.228100 24.427500 l 40.628100 24.827500 l 40.628100 26.427500 l 39.028100 26.427500 l ef
0.000000 0.000000 0.000000 srgb
n 39.028100 24.427500 m 40.228100 24.427500 l 40.628100 24.827500 l 40.628100 26.427500 l 39.028100 26.427500 l cp s
0 slc
0 slj
[] 0 sd
n 40.228100 24.427500 m 40.228100 24.827500 l 40.628100 24.827500 l 40.628100 24.827500 l s
gsave 36.259700 27.497500 translate 0.035278 -0.035278 scale
start_ol
2752 1480 moveto
2752 1280 lineto
704 1280 lineto
733 811 978 565 conicto
1223 320 1660 320 conicto
1914 320 2152 384 conicto
2390 448 2624 576 conicto
2624 192 lineto
2388 67 2140 1 conicto
1893 -64 1639 -64 conicto
1001 -64 628 309 conicto
256 683 256 1320 conicto
256 1979 613 2365 conicto
970 2752 1576 2752 conicto
2120 2752 2436 2410 conicto
2752 2068 2752 1480 conicto
2304 1600 moveto
2299 1950 2099 2159 conicto
1900 2368 1572 2368 conicto
1200 2368 976 2166 conicto
753 1964 719 1597 conicto
2304 1600 lineto
end_ol grestore 
gsave 36.644338 27.497500 translate 0.035278 -0.035278 scale
start_ol
2624 2688 moveto
1666 1380 lineto
2688 0 lineto
2169 0 lineto
1389 1056 lineto
632 0 lineto
128 0 lineto
1134 1406 lineto
192 2688 lineto
705 2688 lineto
1408 1730 lineto
2111 2688 lineto
2624 2688 lineto
end_ol grestore 
gsave 37.023982 27.497500 translate 0.035278 -0.035278 scale
start_ol
1622 1344 moveto
1104 1344 904 1225 conicto
704 1106 704 818 conicto
704 589 854 454 conicto
1004 320 1262 320 conicto
1618 320 1833 572 conicto
2048 825 2048 1244 conicto
2048 1344 lineto
1622 1344 lineto
2496 1513 moveto
2496 0 lineto
2048 0 lineto
2048 384 lineto
1900 154 1679 45 conicto
1458 -64 1138 -64 conicto
733 -64 494 162 conicto
256 389 256 769 conicto
256 1213 555 1438 conicto
854 1664 1448 1664 conicto
2048 1664 lineto
2048 1712 lineto
2048 2025 1851 2196 conicto
1655 2368 1300 2368 conicto
1074 2368 860 2320 conicto
646 2272 448 2176 conicto
448 2560 lineto
687 2656 912 2704 conicto
1138 2752 1351 2752 conicto
1927 2752 2211 2444 conicto
2496 2137 2496 1513 conicto
end_ol grestore 
gsave 37.416111 27.497500 translate 0.035278 -0.035278 scale
start_ol
2549 2204 moveto
2714 2485 2942 2618 conicto
3171 2752 3482 2752 conicto
3899 2752 4125 2464 conicto
4352 2177 4352 1646 conicto
4352 0 lineto
3904 0 lineto
3904 1632 lineto
3904 2006 3769 2187 conicto
3634 2368 3356 2368 conicto
3017 2368 2820 2146 conicto
2624 1925 2624 1542 conicto
2624 0 lineto
2176 0 lineto
2176 1632 lineto
2176 2008 2041 2188 conicto
1906 2368 1624 2368 conicto
1289 2368 1092 2145 conicto
896 1922 896 1542 conicto
896 0 lineto
448 0 lineto
448 2688 lineto
896 2688 lineto
896 2304 lineto
1046 2534 1255 2643 conicto
1465 2752 1753 2752 conicto
2044 2752 2247 2611 conicto
2451 2471 2549 2204 conicto
end_ol grestore 
gsave 38.038022 27.497500 translate 0.035278 -0.035278 scale
start_ol
2496 -832 moveto
2496 -1152 lineto
-64 -1152 lineto
-64 -832 lineto
2496 -832 lineto
end_ol grestore 
gsave 38.357722 27.497500 translate 0.035278 -0.035278 scale
start_ol
2368 2560 moveto
2368 2176 lineto
2180 2272 1991 2320 conicto
1803 2368 1611 2368 conicto
1180 2368 942 2099 conicto
704 1830 704 1344 conicto
704 858 942 589 conicto
1180 320 1611 320 conicto
1803 320 1991 368 conicto
2180 416 2368 512 conicto
2368 128 lineto
2184 32 1987 -16 conicto
1791 -64 1569 -64 conicto
966 -64 611 316 conicto
256 697 256 1344 conicto
256 2000 615 2376 conicto
974 2752 1598 2752 conicto
1801 2752 1994 2704 conicto
2187 2656 2368 2560 conicto
end_ol grestore 
gsave 38.709890 27.497500 translate 0.035278 -0.035278 scale
start_ol
1473 2368 moveto
1117 2368 910 2094 conicto
704 1820 704 1344 conicto
704 868 909 594 conicto
1115 320 1473 320 conicto
1827 320 2033 595 conicto
2240 870 2240 1344 conicto
2240 1816 2033 2092 conicto
1827 2368 1473 2368 conicto
1472 2752 moveto
2040 2752 2364 2378 conicto
2688 2005 2688 1344 conicto
2688 685 2364 310 conicto
2040 -64 1472 -64 conicto
902 -64 579 310 conicto
256 685 256 1344 conicto
256 2005 579 2378 conicto
902 2752 1472 2752 conicto
end_ol grestore 
gsave 39.102020 27.497500 translate 0.035278 -0.035278 scale
start_ol
2549 2204 moveto
2714 2485 2942 2618 conicto
3171 2752 3482 2752 conicto
3899 2752 4125 2464 conicto
4352 2177 4352 1646 conicto
4352 0 lineto
3904 0 lineto
3904 1632 lineto
3904 2006 3769 2187 conicto
3634 2368 3356 2368 conicto
3017 2368 2820 2146 conicto
2624 1925 2624 1542 conicto
2624 0 lineto
2176 0 lineto
2176 1632 lineto
2176 2008 2041 2188 conicto
1906 2368 1624 2368 conicto
1289 2368 1092 2145 conicto
896 1922 896 1542 conicto
896 0 lineto
448 0 lineto
448 2688 lineto
896 2688 lineto
896 2304 lineto
1046 2534 1255 2643 conicto
1465 2752 1753 2752 conicto
2044 2752 2247 2611 conicto
2451 2471 2549 2204 conicto
end_ol grestore 
gsave 39.723931 27.497500 translate 0.035278 -0.035278 scale
start_ol
896 384 moveto
896 -1024 lineto
448 -1024 lineto
448 2688 lineto
896 2688 lineto
896 2304 lineto
1032 2531 1240 2641 conicto
1448 2752 1737 2752 conicto
2217 2752 2516 2364 conicto
2816 1976 2816 1344 conicto
2816 712 2516 324 conicto
2217 -64 1737 -64 conicto
1448 -64 1240 46 conicto
1032 157 896 384 conicto
2368 1344 moveto
2368 1823 2171 2095 conicto
1975 2368 1632 2368 conicto
1289 2368 1092 2095 conicto
896 1823 896 1344 conicto
896 865 1092 592 conicto
1289 320 1632 320 conicto
1975 320 2171 592 conicto
2368 865 2368 1344 conicto
end_ol grestore 
gsave 40.131050 27.497500 translate 0.035278 -0.035278 scale
start_ol
448 3712 moveto
896 3712 lineto
896 0 lineto
448 0 lineto
448 3712 lineto
end_ol grestore 
gsave 40.308379 27.497500 translate 0.035278 -0.035278 scale
start_ol
2752 1480 moveto
2752 1280 lineto
704 1280 lineto
733 811 978 565 conicto
1223 320 1660 320 conicto
1914 320 2152 384 conicto
2390 448 2624 576 conicto
2624 192 lineto
2388 67 2140 1 conicto
1893 -64 1639 -64 conicto
1001 -64 628 309 conicto
256 683 256 1320 conicto
256 1979 613 2365 conicto
970 2752 1576 2752 conicto
2120 2752 2436 2410 conicto
2752 2068 2752 1480 conicto
2304 1600 moveto
2299 1950 2099 2159 conicto
1900 2368 1572 2368 conicto
1200 2368 976 2166 conicto
753 1964 719 1597 conicto
2304 1600 lineto
end_ol grestore 
gsave 40.703005 27.497500 translate 0.035278 -0.035278 scale
start_ol
896 3456 moveto
896 2688 lineto
1792 2688 lineto
1792 2368 lineto
896 2368 lineto
896 902 lineto
896 572 984 478 conicto
1073 384 1345 384 conicto
1792 384 lineto
1792 0 lineto
1345 0 lineto
836 0 642 194 conicto
448 389 448 902 conicto
448 2368 lineto
128 2368 lineto
128 2688 lineto
448 2688 lineto
448 3456 lineto
896 3456 lineto
end_ol grestore 
gsave 40.952772 27.497500 translate 0.035278 -0.035278 scale
start_ol
2752 1480 moveto
2752 1280 lineto
704 1280 lineto
733 811 978 565 conicto
1223 320 1660 320 conicto
1914 320 2152 384 conicto
2390 448 2624 576 conicto
2624 192 lineto
2388 67 2140 1 conicto
1893 -64 1639 -64 conicto
1001 -64 628 309 conicto
256 683 256 1320 conicto
256 1979 613 2365 conicto
970 2752 1576 2752 conicto
2120 2752 2436 2410 conicto
2752 2068 2752 1480 conicto
2304 1600 moveto
2299 1950 2099 2159 conicto
1900 2368 1572 2368 conicto
1200 2368 976 2166 conicto
753 1964 719 1597 conicto
2304 1600 lineto
end_ol grestore 
gsave 41.347398 27.497500 translate 0.035278 -0.035278 scale
start_ol
2176 2304 moveto
2176 3712 lineto
2624 3712 lineto
2624 0 lineto
2176 0 lineto
2176 384 lineto
2040 157 1832 46 conicto
1624 -64 1332 -64 conicto
855 -64 555 324 conicto
256 712 256 1344 conicto
256 1976 555 2364 conicto
855 2752 1332 2752 conicto
1624 2752 1832 2641 conicto
2040 2531 2176 2304 conicto
704 1344 moveto
704 865 900 592 conicto
1096 320 1439 320 conicto
1782 320 1979 592 conicto
2176 865 2176 1344 conicto
2176 1823 1979 2095 conicto
1782 2368 1439 2368 conicto
1096 2368 900 2095 conicto
704 1823 704 1344 conicto
end_ol grestore 
gsave 41.754517 27.497500 translate 0.035278 -0.035278 scale
start_ol
576 576 moveto
1088 576 lineto
1088 0 lineto
576 0 lineto
576 576 lineto
end_ol grestore 
gsave 41.956824 27.497500 translate 0.035278 -0.035278 scale
start_ol
2688 1646 moveto
2688 0 lineto
2240 0 lineto
2240 1632 lineto
2240 2001 2093 2184 conicto
1947 2368 1654 2368 conicto
1302 2368 1099 2146 conicto
896 1925 896 1542 conicto
896 0 lineto
448 0 lineto
448 3712 lineto
896 3712 lineto
896 2304 lineto
1053 2529 1266 2640 conicto
1479 2752 1757 2752 conicto
2217 2752 2452 2471 conicto
2688 2191 2688 1646 conicto
end_ol grestore 
gsave 42.361438 27.497500 translate 0.035278 -0.035278 scale
start_ol
896 3456 moveto
896 2688 lineto
1792 2688 lineto
1792 2368 lineto
896 2368 lineto
896 902 lineto
896 572 984 478 conicto
1073 384 1345 384 conicto
1792 384 lineto
1792 0 lineto
1345 0 lineto
836 0 642 194 conicto
448 389 448 902 conicto
448 2368 lineto
128 2368 lineto
128 2688 lineto
448 2688 lineto
448 3456 lineto
896 3456 lineto
end_ol grestore 
gsave 42.611205 27.497500 translate 0.035278 -0.035278 scale
start_ol
2549 2204 moveto
2714 2485 2942 2618 conicto
3171 2752 3482 2752 conicto
3899 2752 4125 2464 conicto
4352 2177 4352 1646 conicto
4352 0 lineto
3904 0 lineto
3904 1632 lineto
3904 2006 3769 2187 conicto
3634 2368 3356 2368 conicto
3017 2368 2820 2146 conicto
2624 1925 2624 1542 conicto
2624 0 lineto
2176 0 lineto
2176 1632 lineto
2176 2008 2041 2188 conicto
1906 2368 1624 2368 conicto
1289 2368 1092 2145 conicto
896 1922 896 1542 conicto
896 0 lineto
448 0 lineto
448 2688 lineto
896 2688 lineto
896 2304 lineto
1046 2534 1255 2643 conicto
1465 2752 1753 2752 conicto
2044 2752 2247 2611 conicto
2451 2471 2549 2204 conicto
end_ol grestore 
gsave 43.233116 27.497500 translate 0.035278 -0.035278 scale
start_ol
448 3712 moveto
896 3712 lineto
896 0 lineto
448 0 lineto
448 3712 lineto
end_ol grestore 
0.100000 slw
[] 0 sd
[] 0 sd
0 slc
0 slj
0.100000 slw
0 slc
0 slj
[] 0 sd
1.000000 1.000000 1.000000 srgb
n 39.028100 20.480000 m 40.228100 20.480000 l 40.628100 20.880000 l 40.628100 22.480000 l 39.028100 22.480000 l ef
0.000000 0.000000 0.000000 srgb
n 39.028100 20.480000 m 40.228100 20.480000 l 40.628100 20.880000 l 40.628100 22.480000 l 39.028100 22.480000 l cp s
0 slc
0 slj
[] 0 sd
n 40.228100 20.480000 m 40.228100 20.880000 l 40.628100 20.880000 l 40.628100 20.880000 l s
gsave 38.019700 23.550000 translate 0.035278 -0.035278 scale
start_ol
2549 2204 moveto
2714 2485 2942 2618 conicto
3171 2752 3482 2752 conicto
3899 2752 4125 2464 conicto
4352 2177 4352 1646 conicto
4352 0 lineto
3904 0 lineto
3904 1632 lineto
3904 2006 3769 2187 conicto
3634 2368 3356 2368 conicto
3017 2368 2820 2146 conicto
2624 1925 2624 1542 conicto
2624 0 lineto
2176 0 lineto
2176 1632 lineto
2176 2008 2041 2188 conicto
1906 2368 1624 2368 conicto
1289 2368 1092 2145 conicto
896 1922 896 1542 conicto
896 0 lineto
448 0 lineto
448 2688 lineto
896 2688 lineto
896 2304 lineto
1046 2534 1255 2643 conicto
1465 2752 1753 2752 conicto
2044 2752 2247 2611 conicto
2451 2471 2549 2204 conicto
end_ol grestore 
gsave 38.641611 23.550000 translate 0.035278 -0.035278 scale
start_ol
1622 1344 moveto
1104 1344 904 1225 conicto
704 1106 704 818 conicto
704 589 854 454 conicto
1004 320 1262 320 conicto
1618 320 1833 572 conicto
2048 825 2048 1244 conicto
2048 1344 lineto
1622 1344 lineto
2496 1513 moveto
2496 0 lineto
2048 0 lineto
2048 384 lineto
1900 154 1679 45 conicto
1458 -64 1138 -64 conicto
733 -64 494 162 conicto
256 389 256 769 conicto
256 1213 555 1438 conicto
854 1664 1448 1664 conicto
2048 1664 lineto
2048 1712 lineto
2048 2025 1851 2196 conicto
1655 2368 1300 2368 conicto
1074 2368 860 2320 conicto
646 2272 448 2176 conicto
448 2560 lineto
687 2656 912 2704 conicto
1138 2752 1351 2752 conicto
1927 2752 2211 2444 conicto
2496 2137 2496 1513 conicto
end_ol grestore 
gsave 39.033740 23.550000 translate 0.035278 -0.035278 scale
start_ol
1984 2304 moveto
1912 2337 1828 2352 conicto
1744 2368 1642 2368 conicto
1282 2368 1089 2127 conicto
896 1887 896 1437 conicto
896 0 lineto
448 0 lineto
448 2688 lineto
896 2688 lineto
896 2304 lineto
1030 2531 1245 2641 conicto
1460 2752 1767 2752 conicto
1811 2752 1864 2752 conicto
1917 2752 1982 2752 conicto
1984 2304 lineto
end_ol grestore 
gsave 39.295992 23.550000 translate 0.035278 -0.035278 scale
start_ol
448 3712 moveto
896 3712 lineto
896 1529 lineto
2196 2688 lineto
2752 2688 lineto
1346 1430 lineto
2816 0 lineto
2246 0 lineto
896 1313 lineto
896 0 lineto
448 0 lineto
448 3712 lineto
end_ol grestore 
gsave 39.665640 23.550000 translate 0.035278 -0.035278 scale
start_ol
2112 2560 moveto
2112 2176 lineto
1932 2272 1738 2320 conicto
1544 2368 1336 2368 conicto
1020 2368 862 2269 conicto
704 2170 704 1972 conicto
704 1821 814 1735 conicto
925 1649 1260 1571 conicto
1403 1538 lineto
1857 1438 2048 1255 conicto
2240 1072 2240 744 conicto
2240 371 1954 153 conicto
1668 -64 1167 -64 conicto
958 -64 732 -16 conicto
506 32 256 128 conicto
256 576 lineto
491 448 719 384 conicto
947 320 1170 320 conicto
1470 320 1631 425 conicto
1792 531 1792 722 conicto
1792 900 1678 994 conicto
1564 1089 1177 1177 conicto
1032 1212 lineto
621 1298 438 1476 conicto
256 1654 256 1964 conicto
256 2341 520 2546 conicto
784 2752 1269 2752 conicto
1509 2752 1721 2704 conicto
1933 2656 2112 2560 conicto
end_ol grestore 
gsave 39.997824 23.550000 translate 0.035278 -0.035278 scale
start_ol
576 576 moveto
1088 576 lineto
1088 0 lineto
576 0 lineto
576 576 lineto
end_ol grestore 
gsave 40.200131 23.550000 translate 0.035278 -0.035278 scale
start_ol
2688 1646 moveto
2688 0 lineto
2240 0 lineto
2240 1632 lineto
2240 2001 2093 2184 conicto
1947 2368 1654 2368 conicto
1302 2368 1099 2146 conicto
896 1925 896 1542 conicto
896 0 lineto
448 0 lineto
448 3712 lineto
896 3712 lineto
896 2304 lineto
1053 2529 1266 2640 conicto
1479 2752 1757 2752 conicto
2217 2752 2452 2471 conicto
2688 2191 2688 1646 conicto
end_ol grestore 
gsave 40.604745 23.550000 translate 0.035278 -0.035278 scale
start_ol
896 3456 moveto
896 2688 lineto
1792 2688 lineto
1792 2368 lineto
896 2368 lineto
896 902 lineto
896 572 984 478 conicto
1073 384 1345 384 conicto
1792 384 lineto
1792 0 lineto
1345 0 lineto
836 0 642 194 conicto
448 389 448 902 conicto
448 2368 lineto
128 2368 lineto
128 2688 lineto
448 2688 lineto
448 3456 lineto
896 3456 lineto
end_ol grestore 
gsave 40.854512 23.550000 translate 0.035278 -0.035278 scale
start_ol
2549 2204 moveto
2714 2485 2942 2618 conicto
3171 2752 3482 2752 conicto
3899 2752 4125 2464 conicto
4352 2177 4352 1646 conicto
4352 0 lineto
3904 0 lineto
3904 1632 lineto
3904 2006 3769 2187 conicto
3634 2368 3356 2368 conicto
3017 2368 2820 2146 conicto
2624 1925 2624 1542 conicto
2624 0 lineto
2176 0 lineto
2176 1632 lineto
2176 2008 2041 2188 conicto
1906 2368 1624 2368 conicto
1289 2368 1092 2145 conicto
896 1922 896 1542 conicto
896 0 lineto
448 0 lineto
448 2688 lineto
896 2688 lineto
896 2304 lineto
1046 2534 1255 2643 conicto
1465 2752 1753 2752 conicto
2044 2752 2247 2611 conicto
2451 2471 2549 2204 conicto
end_ol grestore 
gsave 41.476423 23.550000 translate 0.035278 -0.035278 scale
start_ol
448 3712 moveto
896 3712 lineto
896 0 lineto
448 0 lineto
448 3712 lineto
end_ol grestore 
0.100000 slw
[] 0 sd
[] 0 sd
0 slc
0 slj
0.100000 slw
0 slc
0 slj
[] 0 sd
1.000000 1.000000 1.000000 srgb
n 39.028100 16.830000 m 40.228100 16.830000 l 40.628100 17.230000 l 40.628100 18.830000 l 39.028100 18.830000 l ef
0.000000 0.000000 0.000000 srgb
n 39.028100 16.830000 m 40.228100 16.830000 l 40.628100 17.230000 l 40.628100 18.830000 l 39.028100 18.830000 l cp s
0 slc
0 slj
[] 0 sd
n 40.228100 16.830000 m 40.228100 17.230000 l 40.628100 17.230000 l 40.628100 17.230000 l s
gsave 37.953500 19.650000 translate 0.035278 -0.035278 scale
start_ol
2752 1480 moveto
2752 1280 lineto
704 1280 lineto
733 811 978 565 conicto
1223 320 1660 320 conicto
1914 320 2152 384 conicto
2390 448 2624 576 conicto
2624 192 lineto
2388 67 2140 1 conicto
1893 -64 1639 -64 conicto
1001 -64 628 309 conicto
256 683 256 1320 conicto
256 1979 613 2365 conicto
970 2752 1576 2752 conicto
2120 2752 2436 2410 conicto
2752 2068 2752 1480 conicto
2304 1600 moveto
2299 1950 2099 2159 conicto
1900 2368 1572 2368 conicto
1200 2368 976 2166 conicto
753 1964 719 1597 conicto
2304 1600 lineto
end_ol grestore 
gsave 38.338138 19.650000 translate 0.035278 -0.035278 scale
start_ol
2624 2688 moveto
1666 1380 lineto
2688 0 lineto
2169 0 lineto
1389 1056 lineto
632 0 lineto
128 0 lineto
1134 1406 lineto
192 2688 lineto
705 2688 lineto
1408 1730 lineto
2111 2688 lineto
2624 2688 lineto
end_ol grestore 
gsave 38.717782 19.650000 translate 0.035278 -0.035278 scale
start_ol
1622 1344 moveto
1104 1344 904 1225 conicto
704 1106 704 818 conicto
704 589 854 454 conicto
1004 320 1262 320 conicto
1618 320 1833 572 conicto
2048 825 2048 1244 conicto
2048 1344 lineto
1622 1344 lineto
2496 1513 moveto
2496 0 lineto
2048 0 lineto
2048 384 lineto
1900 154 1679 45 conicto
1458 -64 1138 -64 conicto
733 -64 494 162 conicto
256 389 256 769 conicto
256 1213 555 1438 conicto
854 1664 1448 1664 conicto
2048 1664 lineto
2048 1712 lineto
2048 2025 1851 2196 conicto
1655 2368 1300 2368 conicto
1074 2368 860 2320 conicto
646 2272 448 2176 conicto
448 2560 lineto
687 2656 912 2704 conicto
1138 2752 1351 2752 conicto
1927 2752 2211 2444 conicto
2496 2137 2496 1513 conicto
end_ol grestore 
gsave 39.109911 19.650000 translate 0.035278 -0.035278 scale
start_ol
2549 2204 moveto
2714 2485 2942 2618 conicto
3171 2752 3482 2752 conicto
3899 2752 4125 2464 conicto
4352 2177 4352 1646 conicto
4352 0 lineto
3904 0 lineto
3904 1632 lineto
3904 2006 3769 2187 conicto
3634 2368 3356 2368 conicto
3017 2368 2820 2146 conicto
2624 1925 2624 1542 conicto
2624 0 lineto
2176 0 lineto
2176 1632 lineto
2176 2008 2041 2188 conicto
1906 2368 1624 2368 conicto
1289 2368 1092 2145 conicto
896 1922 896 1542 conicto
896 0 lineto
448 0 lineto
448 2688 lineto
896 2688 lineto
896 2304 lineto
1046 2534 1255 2643 conicto
1465 2752 1753 2752 conicto
2044 2752 2247 2611 conicto
2451 2471 2549 2204 conicto
end_ol grestore 
gsave 39.731822 19.650000 translate 0.035278 -0.035278 scale
start_ol
2112 2560 moveto
2112 2176 lineto
1932 2272 1738 2320 conicto
1544 2368 1336 2368 conicto
1020 2368 862 2269 conicto
704 2170 704 1972 conicto
704 1821 814 1735 conicto
925 1649 1260 1571 conicto
1403 1538 lineto
1857 1438 2048 1255 conicto
2240 1072 2240 744 conicto
2240 371 1954 153 conicto
1668 -64 1167 -64 conicto
958 -64 732 -16 conicto
506 32 256 128 conicto
256 576 lineto
491 448 719 384 conicto
947 320 1170 320 conicto
1470 320 1631 425 conicto
1792 531 1792 722 conicto
1792 900 1678 994 conicto
1564 1089 1177 1177 conicto
1032 1212 lineto
621 1298 438 1476 conicto
256 1654 256 1964 conicto
256 2341 520 2546 conicto
784 2752 1269 2752 conicto
1509 2752 1721 2704 conicto
1933 2656 2112 2560 conicto
end_ol grestore 
gsave 40.064007 19.650000 translate 0.035278 -0.035278 scale
start_ol
576 576 moveto
1088 576 lineto
1088 0 lineto
576 0 lineto
576 576 lineto
end_ol grestore 
gsave 40.266314 19.650000 translate 0.035278 -0.035278 scale
start_ol
2688 1646 moveto
2688 0 lineto
2240 0 lineto
2240 1632 lineto
2240 2001 2093 2184 conicto
1947 2368 1654 2368 conicto
1302 2368 1099 2146 conicto
896 1925 896 1542 conicto
896 0 lineto
448 0 lineto
448 3712 lineto
896 3712 lineto
896 2304 lineto
1053 2529 1266 2640 conicto
1479 2752 1757 2752 conicto
2217 2752 2452 2471 conicto
2688 2191 2688 1646 conicto
end_ol grestore 
gsave 40.670928 19.650000 translate 0.035278 -0.035278 scale
start_ol
896 3456 moveto
896 2688 lineto
1792 2688 lineto
1792 2368 lineto
896 2368 lineto
896 902 lineto
896 572 984 478 conicto
1073 384 1345 384 conicto
1792 384 lineto
1792 0 lineto
1345 0 lineto
836 0 642 194 conicto
448 389 448 902 conicto
448 2368 lineto
128 2368 lineto
128 2688 lineto
448 2688 lineto
448 3456 lineto
896 3456 lineto
end_ol grestore 
gsave 40.920695 19.650000 translate 0.035278 -0.035278 scale
start_ol
2549 2204 moveto
2714 2485 2942 2618 conicto
3171 2752 3482 2752 conicto
3899 2752 4125 2464 conicto
4352 2177 4352 1646 conicto
4352 0 lineto
3904 0 lineto
3904 1632 lineto
3904 2006 3769 2187 conicto
3634 2368 3356 2368 conicto
3017 2368 2820 2146 conicto
2624 1925 2624 1542 conicto
2624 0 lineto
2176 0 lineto
2176 1632 lineto
2176 2008 2041 2188 conicto
1906 2368 1624 2368 conicto
1289 2368 1092 2145 conicto
896 1922 896 1542 conicto
896 0 lineto
448 0 lineto
448 2688 lineto
896 2688 lineto
896 2304 lineto
1046 2534 1255 2643 conicto
1465 2752 1753 2752 conicto
2044 2752 2247 2611 conicto
2451 2471 2549 2204 conicto
end_ol grestore 
gsave 41.542606 19.650000 translate 0.035278 -0.035278 scale
start_ol
448 3712 moveto
896 3712 lineto
896 0 lineto
448 0 lineto
448 3712 lineto
end_ol grestore 
0.100000 slw
[] 0 sd
[] 0 sd
0 slc
0 slj
0.100000 slw
0 slc
0 slj
[] 0 sd
1.000000 1.000000 1.000000 srgb
n 39.028100 12.690000 m 40.228100 12.690000 l 40.628100 13.090000 l 40.628100 14.690000 l 39.028100 14.690000 l ef
0.000000 0.000000 0.000000 srgb
n 39.028100 12.690000 m 40.228100 12.690000 l 40.628100 13.090000 l 40.628100 14.690000 l 39.028100 14.690000 l cp s
0 slc
0 slj
[] 0 sd
n 40.228100 12.690000 m 40.228100 13.090000 l 40.628100 13.090000 l 40.628100 13.090000 l s
gsave 36.917200 15.600000 translate 0.035278 -0.035278 scale
start_ol
2752 1480 moveto
2752 1280 lineto
704 1280 lineto
733 811 978 565 conicto
1223 320 1660 320 conicto
1914 320 2152 384 conicto
2390 448 2624 576 conicto
2624 192 lineto
2388 67 2140 1 conicto
1893 -64 1639 -64 conicto
1001 -64 628 309 conicto
256 683 256 1320 conicto
256 1979 613 2365 conicto
970 2752 1576 2752 conicto
2120 2752 2436 2410 conicto
2752 2068 2752 1480 conicto
2304 1600 moveto
2299 1950 2099 2159 conicto
1900 2368 1572 2368 conicto
1200 2368 976 2166 conicto
753 1964 719 1597 conicto
2304 1600 lineto
end_ol grestore 
gsave 37.301838 15.600000 translate 0.035278 -0.035278 scale
start_ol
2624 2688 moveto
1666 1380 lineto
2688 0 lineto
2169 0 lineto
1389 1056 lineto
632 0 lineto
128 0 lineto
1134 1406 lineto
192 2688 lineto
705 2688 lineto
1408 1730 lineto
2111 2688 lineto
2624 2688 lineto
end_ol grestore 
gsave 37.681482 15.600000 translate 0.035278 -0.035278 scale
start_ol
1622 1344 moveto
1104 1344 904 1225 conicto
704 1106 704 818 conicto
704 589 854 454 conicto
1004 320 1262 320 conicto
1618 320 1833 572 conicto
2048 825 2048 1244 conicto
2048 1344 lineto
1622 1344 lineto
2496 1513 moveto
2496 0 lineto
2048 0 lineto
2048 384 lineto
1900 154 1679 45 conicto
1458 -64 1138 -64 conicto
733 -64 494 162 conicto
256 389 256 769 conicto
256 1213 555 1438 conicto
854 1664 1448 1664 conicto
2048 1664 lineto
2048 1712 lineto
2048 2025 1851 2196 conicto
1655 2368 1300 2368 conicto
1074 2368 860 2320 conicto
646 2272 448 2176 conicto
448 2560 lineto
687 2656 912 2704 conicto
1138 2752 1351 2752 conicto
1927 2752 2211 2444 conicto
2496 2137 2496 1513 conicto
end_ol grestore 
gsave 38.073611 15.600000 translate 0.035278 -0.035278 scale
start_ol
2549 2204 moveto
2714 2485 2942 2618 conicto
3171 2752 3482 2752 conicto
3899 2752 4125 2464 conicto
4352 2177 4352 1646 conicto
4352 0 lineto
3904 0 lineto
3904 1632 lineto
3904 2006 3769 2187 conicto
3634 2368 3356 2368 conicto
3017 2368 2820 2146 conicto
2624 1925 2624 1542 conicto
2624 0 lineto
2176 0 lineto
2176 1632 lineto
2176 2008 2041 2188 conicto
1906 2368 1624 2368 conicto
1289 2368 1092 2145 conicto
896 1922 896 1542 conicto
896 0 lineto
448 0 lineto
448 2688 lineto
896 2688 lineto
896 2304 lineto
1046 2534 1255 2643 conicto
1465 2752 1753 2752 conicto
2044 2752 2247 2611 conicto
2451 2471 2549 2204 conicto
end_ol grestore 
gsave 38.695522 15.600000 translate 0.035278 -0.035278 scale
start_ol
2496 -832 moveto
2496 -1152 lineto
-64 -1152 lineto
-64 -832 lineto
2496 -832 lineto
end_ol grestore 
gsave 39.015222 15.600000 translate 0.035278 -0.035278 scale
start_ol
2112 2560 moveto
2112 2176 lineto
1932 2272 1738 2320 conicto
1544 2368 1336 2368 conicto
1020 2368 862 2269 conicto
704 2170 704 1972 conicto
704 1821 814 1735 conicto
925 1649 1260 1571 conicto
1403 1538 lineto
1857 1438 2048 1255 conicto
2240 1072 2240 744 conicto
2240 371 1954 153 conicto
1668 -64 1167 -64 conicto
958 -64 732 -16 conicto
506 32 256 128 conicto
256 576 lineto
491 448 719 384 conicto
947 320 1170 320 conicto
1470 320 1631 425 conicto
1792 531 1792 722 conicto
1792 900 1678 994 conicto
1564 1089 1177 1177 conicto
1032 1212 lineto
621 1298 438 1476 conicto
256 1654 256 1964 conicto
256 2341 520 2546 conicto
784 2752 1269 2752 conicto
1509 2752 1721 2704 conicto
1933 2656 2112 2560 conicto
end_ol grestore 
gsave 39.347406 15.600000 translate 0.035278 -0.035278 scale
start_ol
1473 2368 moveto
1117 2368 910 2094 conicto
704 1820 704 1344 conicto
704 868 909 594 conicto
1115 320 1473 320 conicto
1827 320 2033 595 conicto
2240 870 2240 1344 conicto
2240 1816 2033 2092 conicto
1827 2368 1473 2368 conicto
1472 2752 moveto
2040 2752 2364 2378 conicto
2688 2005 2688 1344 conicto
2688 685 2364 310 conicto
2040 -64 1472 -64 conicto
902 -64 579 310 conicto
256 685 256 1344 conicto
256 2005 579 2378 conicto
902 2752 1472 2752 conicto
end_ol grestore 
gsave 39.739535 15.600000 translate 0.035278 -0.035278 scale
start_ol
448 3712 moveto
896 3712 lineto
896 0 lineto
448 0 lineto
448 3712 lineto
end_ol grestore 
gsave 39.916864 15.600000 translate 0.035278 -0.035278 scale
start_ol
128 2688 moveto
586 2688 lineto
1408 432 lineto
2230 2688 lineto
2688 2688 lineto
1702 0 lineto
1114 0 lineto
128 2688 lineto
end_ol grestore 
gsave 40.296508 15.600000 translate 0.035278 -0.035278 scale
start_ol
2752 1480 moveto
2752 1280 lineto
704 1280 lineto
733 811 978 565 conicto
1223 320 1660 320 conicto
1914 320 2152 384 conicto
2390 448 2624 576 conicto
2624 192 lineto
2388 67 2140 1 conicto
1893 -64 1639 -64 conicto
1001 -64 628 309 conicto
256 683 256 1320 conicto
256 1979 613 2365 conicto
970 2752 1576 2752 conicto
2120 2752 2436 2410 conicto
2752 2068 2752 1480 conicto
2304 1600 moveto
2299 1950 2099 2159 conicto
1900 2368 1572 2368 conicto
1200 2368 976 2166 conicto
753 1964 719 1597 conicto
2304 1600 lineto
end_ol grestore 
gsave 40.691134 15.600000 translate 0.035278 -0.035278 scale
start_ol
2176 2304 moveto
2176 3712 lineto
2624 3712 lineto
2624 0 lineto
2176 0 lineto
2176 384 lineto
2040 157 1832 46 conicto
1624 -64 1332 -64 conicto
855 -64 555 324 conicto
256 712 256 1344 conicto
256 1976 555 2364 conicto
855 2752 1332 2752 conicto
1624 2752 1832 2641 conicto
2040 2531 2176 2304 conicto
704 1344 moveto
704 865 900 592 conicto
1096 320 1439 320 conicto
1782 320 1979 592 conicto
2176 865 2176 1344 conicto
2176 1823 1979 2095 conicto
1782 2368 1439 2368 conicto
1096 2368 900 2095 conicto
704 1823 704 1344 conicto
end_ol grestore 
gsave 41.098253 15.600000 translate 0.035278 -0.035278 scale
start_ol
576 576 moveto
1088 576 lineto
1088 0 lineto
576 0 lineto
576 576 lineto
end_ol grestore 
gsave 41.300560 15.600000 translate 0.035278 -0.035278 scale
start_ol
2688 1646 moveto
2688 0 lineto
2240 0 lineto
2240 1632 lineto
2240 2001 2093 2184 conicto
1947 2368 1654 2368 conicto
1302 2368 1099 2146 conicto
896 1925 896 1542 conicto
896 0 lineto
448 0 lineto
448 3712 lineto
896 3712 lineto
896 2304 lineto
1053 2529 1266 2640 conicto
1479 2752 1757 2752 conicto
2217 2752 2452 2471 conicto
2688 2191 2688 1646 conicto
end_ol grestore 
gsave 41.705174 15.600000 translate 0.035278 -0.035278 scale
start_ol
896 3456 moveto
896 2688 lineto
1792 2688 lineto
1792 2368 lineto
896 2368 lineto
896 902 lineto
896 572 984 478 conicto
1073 384 1345 384 conicto
1792 384 lineto
1792 0 lineto
1345 0 lineto
836 0 642 194 conicto
448 389 448 902 conicto
448 2368 lineto
128 2368 lineto
128 2688 lineto
448 2688 lineto
448 3456 lineto
896 3456 lineto
end_ol grestore 
gsave 41.954941 15.600000 translate 0.035278 -0.035278 scale
start_ol
2549 2204 moveto
2714 2485 2942 2618 conicto
3171 2752 3482 2752 conicto
3899 2752 4125 2464 conicto
4352 2177 4352 1646 conicto
4352 0 lineto
3904 0 lineto
3904 1632 lineto
3904 2006 3769 2187 conicto
3634 2368 3356 2368 conicto
3017 2368 2820 2146 conicto
2624 1925 2624 1542 conicto
2624 0 lineto
2176 0 lineto
2176 1632 lineto
2176 2008 2041 2188 conicto
1906 2368 1624 2368 conicto
1289 2368 1092 2145 conicto
896 1922 896 1542 conicto
896 0 lineto
448 0 lineto
448 2688 lineto
896 2688 lineto
896 2304 lineto
1046 2534 1255 2643 conicto
1465 2752 1753 2752 conicto
2044 2752 2247 2611 conicto
2451 2471 2549 2204 conicto
end_ol grestore 
gsave 42.576852 15.600000 translate 0.035278 -0.035278 scale
start_ol
448 3712 moveto
896 3712 lineto
896 0 lineto
448 0 lineto
448 3712 lineto
end_ol grestore 
0.100000 slw
[] 0 sd
[] 0 sd
0 slc
0 slj
0.100000 slw
0 slc
0 slj
[] 0 sd
1.000000 1.000000 1.000000 srgb
n 39.028100 8.810000 m 40.228100 8.810000 l 40.628100 9.210000 l 40.628100 10.810000 l 39.028100 10.810000 l ef
0.000000 0.000000 0.000000 srgb
n 39.028100 8.810000 m 40.228100 8.810000 l 40.628100 9.210000 l 40.628100 10.810000 l 39.028100 10.810000 l cp s
0 slc
0 slj
[] 0 sd
n 40.228100 8.810000 m 40.228100 9.210000 l 40.628100 9.210000 l 40.628100 9.210000 l s
gsave 37.618500 11.650000 translate 0.035278 -0.035278 scale
start_ol
2549 2204 moveto
2714 2485 2942 2618 conicto
3171 2752 3482 2752 conicto
3899 2752 4125 2464 conicto
4352 2177 4352 1646 conicto
4352 0 lineto
3904 0 lineto
3904 1632 lineto
3904 2006 3769 2187 conicto
3634 2368 3356 2368 conicto
3017 2368 2820 2146 conicto
2624 1925 2624 1542 conicto
2624 0 lineto
2176 0 lineto
2176 1632 lineto
2176 2008 2041 2188 conicto
1906 2368 1624 2368 conicto
1289 2368 1092 2145 conicto
896 1922 896 1542 conicto
896 0 lineto
448 0 lineto
448 2688 lineto
896 2688 lineto
896 2304 lineto
1046 2534 1255 2643 conicto
1465 2752 1753 2752 conicto
2044 2752 2247 2611 conicto
2451 2471 2549 2204 conicto
end_ol grestore 
gsave 38.240411 11.650000 translate 0.035278 -0.035278 scale
start_ol
1542 -238 moveto
1360 -726 1187 -875 conicto
1015 -1024 726 -1024 conicto
384 -1024 lineto
384 -640 lineto
636 -640 lineto
813 -640 910 -555 conicto
1008 -470 1127 -155 conicto
1204 46 lineto
128 2688 lineto
603 2688 lineto
1418 586 lineto
2234 2688 lineto
2688 2688 lineto
1542 -238 lineto
end_ol grestore 
gsave 38.620055 11.650000 translate 0.035278 -0.035278 scale
start_ol
2752 1480 moveto
2752 1280 lineto
704 1280 lineto
733 811 978 565 conicto
1223 320 1660 320 conicto
1914 320 2152 384 conicto
2390 448 2624 576 conicto
2624 192 lineto
2388 67 2140 1 conicto
1893 -64 1639 -64 conicto
1001 -64 628 309 conicto
256 683 256 1320 conicto
256 1979 613 2365 conicto
970 2752 1576 2752 conicto
2120 2752 2436 2410 conicto
2752 2068 2752 1480 conicto
2304 1600 moveto
2299 1950 2099 2159 conicto
1900 2368 1572 2368 conicto
1200 2368 976 2166 conicto
753 1964 719 1597 conicto
2304 1600 lineto
end_ol grestore 
gsave 39.004693 11.650000 translate 0.035278 -0.035278 scale
start_ol
2624 2688 moveto
1666 1380 lineto
2688 0 lineto
2169 0 lineto
1389 1056 lineto
632 0 lineto
128 0 lineto
1134 1406 lineto
192 2688 lineto
705 2688 lineto
1408 1730 lineto
2111 2688 lineto
2624 2688 lineto
end_ol grestore 
gsave 39.384337 11.650000 translate 0.035278 -0.035278 scale
start_ol
1622 1344 moveto
1104 1344 904 1225 conicto
704 1106 704 818 conicto
704 589 854 454 conicto
1004 320 1262 320 conicto
1618 320 1833 572 conicto
2048 825 2048 1244 conicto
2048 1344 lineto
1622 1344 lineto
2496 1513 moveto
2496 0 lineto
2048 0 lineto
2048 384 lineto
1900 154 1679 45 conicto
1458 -64 1138 -64 conicto
733 -64 494 162 conicto
256 389 256 769 conicto
256 1213 555 1438 conicto
854 1664 1448 1664 conicto
2048 1664 lineto
2048 1712 lineto
2048 2025 1851 2196 conicto
1655 2368 1300 2368 conicto
1074 2368 860 2320 conicto
646 2272 448 2176 conicto
448 2560 lineto
687 2656 912 2704 conicto
1138 2752 1351 2752 conicto
1927 2752 2211 2444 conicto
2496 2137 2496 1513 conicto
end_ol grestore 
gsave 39.776466 11.650000 translate 0.035278 -0.035278 scale
start_ol
2549 2204 moveto
2714 2485 2942 2618 conicto
3171 2752 3482 2752 conicto
3899 2752 4125 2464 conicto
4352 2177 4352 1646 conicto
4352 0 lineto
3904 0 lineto
3904 1632 lineto
3904 2006 3769 2187 conicto
3634 2368 3356 2368 conicto
3017 2368 2820 2146 conicto
2624 1925 2624 1542 conicto
2624 0 lineto
2176 0 lineto
2176 1632 lineto
2176 2008 2041 2188 conicto
1906 2368 1624 2368 conicto
1289 2368 1092 2145 conicto
896 1922 896 1542 conicto
896 0 lineto
448 0 lineto
448 2688 lineto
896 2688 lineto
896 2304 lineto
1046 2534 1255 2643 conicto
1465 2752 1753 2752 conicto
2044 2752 2247 2611 conicto
2451 2471 2549 2204 conicto
end_ol grestore 
gsave 40.398378 11.650000 translate 0.035278 -0.035278 scale
start_ol
576 576 moveto
1088 576 lineto
1088 0 lineto
576 0 lineto
576 576 lineto
end_ol grestore 
gsave 40.600685 11.650000 translate 0.035278 -0.035278 scale
start_ol
2688 1646 moveto
2688 0 lineto
2240 0 lineto
2240 1632 lineto
2240 2001 2093 2184 conicto
1947 2368 1654 2368 conicto
1302 2368 1099 2146 conicto
896 1925 896 1542 conicto
896 0 lineto
448 0 lineto
448 3712 lineto
896 3712 lineto
896 2304 lineto
1053 2529 1266 2640 conicto
1479 2752 1757 2752 conicto
2217 2752 2452 2471 conicto
2688 2191 2688 1646 conicto
end_ol grestore 
gsave 41.005299 11.650000 translate 0.035278 -0.035278 scale
start_ol
896 3456 moveto
896 2688 lineto
1792 2688 lineto
1792 2368 lineto
896 2368 lineto
896 902 lineto
896 572 984 478 conicto
1073 384 1345 384 conicto
1792 384 lineto
1792 0 lineto
1345 0 lineto
836 0 642 194 conicto
448 389 448 902 conicto
448 2368 lineto
128 2368 lineto
128 2688 lineto
448 2688 lineto
448 3456 lineto
896 3456 lineto
end_ol grestore 
gsave 41.255066 11.650000 translate 0.035278 -0.035278 scale
start_ol
2549 2204 moveto
2714 2485 2942 2618 conicto
3171 2752 3482 2752 conicto
3899 2752 4125 2464 conicto
4352 2177 4352 1646 conicto
4352 0 lineto
3904 0 lineto
3904 1632 lineto
3904 2006 3769 2187 conicto
3634 2368 3356 2368 conicto
3017 2368 2820 2146 conicto
2624 1925 2624 1542 conicto
2624 0 lineto
2176 0 lineto
2176 1632 lineto
2176 2008 2041 2188 conicto
1906 2368 1624 2368 conicto
1289 2368 1092 2145 conicto
896 1922 896 1542 conicto
896 0 lineto
448 0 lineto
448 2688 lineto
896 2688 lineto
896 2304 lineto
1046 2534 1255 2643 conicto
1465 2752 1753 2752 conicto
2044 2752 2247 2611 conicto
2451 2471 2549 2204 conicto
end_ol grestore 
gsave 41.876977 11.650000 translate 0.035278 -0.035278 scale
start_ol
448 3712 moveto
896 3712 lineto
896 0 lineto
448 0 lineto
448 3712 lineto
end_ol grestore 
0.100000 slw
[] 0 sd
[] 0 sd
0 slc
0 slj
0.100000 slw
0 slc
0 slj
[] 0 sd
1.000000 1.000000 1.000000 srgb
n 39.028100 5.050000 m 40.228100 5.050000 l 40.628100 5.450000 l 40.628100 7.050000 l 39.028100 7.050000 l ef
0.000000 0.000000 0.000000 srgb
n 39.028100 5.050000 m 40.228100 5.050000 l 40.628100 5.450000 l 40.628100 7.050000 l 39.028100 7.050000 l cp s
0 slc
0 slj
[] 0 sd
n 40.228100 5.050000 m 40.228100 5.450000 l 40.628100 5.450000 l 40.628100 5.450000 l s
gsave 38.119700 7.750000 translate 0.035278 -0.035278 scale
start_ol
2752 1480 moveto
2752 1280 lineto
704 1280 lineto
733 811 978 565 conicto
1223 320 1660 320 conicto
1914 320 2152 384 conicto
2390 448 2624 576 conicto
2624 192 lineto
2388 67 2140 1 conicto
1893 -64 1639 -64 conicto
1001 -64 628 309 conicto
256 683 256 1320 conicto
256 1979 613 2365 conicto
970 2752 1576 2752 conicto
2120 2752 2436 2410 conicto
2752 2068 2752 1480 conicto
2304 1600 moveto
2299 1950 2099 2159 conicto
1900 2368 1572 2368 conicto
1200 2368 976 2166 conicto
753 1964 719 1597 conicto
2304 1600 lineto
end_ol grestore 
gsave 38.504338 7.750000 translate 0.035278 -0.035278 scale
start_ol
2624 2688 moveto
1666 1380 lineto
2688 0 lineto
2169 0 lineto
1389 1056 lineto
632 0 lineto
128 0 lineto
1134 1406 lineto
192 2688 lineto
705 2688 lineto
1408 1730 lineto
2111 2688 lineto
2624 2688 lineto
end_ol grestore 
gsave 38.883982 7.750000 translate 0.035278 -0.035278 scale
start_ol
1622 1344 moveto
1104 1344 904 1225 conicto
704 1106 704 818 conicto
704 589 854 454 conicto
1004 320 1262 320 conicto
1618 320 1833 572 conicto
2048 825 2048 1244 conicto
2048 1344 lineto
1622 1344 lineto
2496 1513 moveto
2496 0 lineto
2048 0 lineto
2048 384 lineto
1900 154 1679 45 conicto
1458 -64 1138 -64 conicto
733 -64 494 162 conicto
256 389 256 769 conicto
256 1213 555 1438 conicto
854 1664 1448 1664 conicto
2048 1664 lineto
2048 1712 lineto
2048 2025 1851 2196 conicto
1655 2368 1300 2368 conicto
1074 2368 860 2320 conicto
646 2272 448 2176 conicto
448 2560 lineto
687 2656 912 2704 conicto
1138 2752 1351 2752 conicto
1927 2752 2211 2444 conicto
2496 2137 2496 1513 conicto
end_ol grestore 
gsave 39.276111 7.750000 translate 0.035278 -0.035278 scale
start_ol
2549 2204 moveto
2714 2485 2942 2618 conicto
3171 2752 3482 2752 conicto
3899 2752 4125 2464 conicto
4352 2177 4352 1646 conicto
4352 0 lineto
3904 0 lineto
3904 1632 lineto
3904 2006 3769 2187 conicto
3634 2368 3356 2368 conicto
3017 2368 2820 2146 conicto
2624 1925 2624 1542 conicto
2624 0 lineto
2176 0 lineto
2176 1632 lineto
2176 2008 2041 2188 conicto
1906 2368 1624 2368 conicto
1289 2368 1092 2145 conicto
896 1922 896 1542 conicto
896 0 lineto
448 0 lineto
448 2688 lineto
896 2688 lineto
896 2304 lineto
1046 2534 1255 2643 conicto
1465 2752 1753 2752 conicto
2044 2752 2247 2611 conicto
2451 2471 2549 2204 conicto
end_ol grestore 
gsave 39.898022 7.750000 translate 0.035278 -0.035278 scale
start_ol
576 576 moveto
1088 576 lineto
1088 0 lineto
576 0 lineto
576 576 lineto
end_ol grestore 
gsave 40.100329 7.750000 translate 0.035278 -0.035278 scale
start_ol
2688 1646 moveto
2688 0 lineto
2240 0 lineto
2240 1632 lineto
2240 2001 2093 2184 conicto
1947 2368 1654 2368 conicto
1302 2368 1099 2146 conicto
896 1925 896 1542 conicto
896 0 lineto
448 0 lineto
448 3712 lineto
896 3712 lineto
896 2304 lineto
1053 2529 1266 2640 conicto
1479 2752 1757 2752 conicto
2217 2752 2452 2471 conicto
2688 2191 2688 1646 conicto
end_ol grestore 
gsave 40.504944 7.750000 translate 0.035278 -0.035278 scale
start_ol
896 3456 moveto
896 2688 lineto
1792 2688 lineto
1792 2368 lineto
896 2368 lineto
896 902 lineto
896 572 984 478 conicto
1073 384 1345 384 conicto
1792 384 lineto
1792 0 lineto
1345 0 lineto
836 0 642 194 conicto
448 389 448 902 conicto
448 2368 lineto
128 2368 lineto
128 2688 lineto
448 2688 lineto
448 3456 lineto
896 3456 lineto
end_ol grestore 
gsave 40.754710 7.750000 translate 0.035278 -0.035278 scale
start_ol
2549 2204 moveto
2714 2485 2942 2618 conicto
3171 2752 3482 2752 conicto
3899 2752 4125 2464 conicto
4352 2177 4352 1646 conicto
4352 0 lineto
3904 0 lineto
3904 1632 lineto
3904 2006 3769 2187 conicto
3634 2368 3356 2368 conicto
3017 2368 2820 2146 conicto
2624 1925 2624 1542 conicto
2624 0 lineto
2176 0 lineto
2176 1632 lineto
2176 2008 2041 2188 conicto
1906 2368 1624 2368 conicto
1289 2368 1092 2145 conicto
896 1922 896 1542 conicto
896 0 lineto
448 0 lineto
448 2688 lineto
896 2688 lineto
896 2304 lineto
1046 2534 1255 2643 conicto
1465 2752 1753 2752 conicto
2044 2752 2247 2611 conicto
2451 2471 2549 2204 conicto
end_ol grestore 
gsave 41.376622 7.750000 translate 0.035278 -0.035278 scale
start_ol
448 3712 moveto
896 3712 lineto
896 0 lineto
448 0 lineto
448 3712 lineto
end_ol grestore 
showpage
