%!PS-Adobe-2.0 EPSF-2.0
%%Title: templates3.dia
%%Creator: Dia v0.97
%%CreationDate: Fri Aug 21 02:43:09 2009
%%For: peris
%%Orientation: Portrait
%%Magnification: 1.0000
%%BoundingBox: 0 0 937 664
%%BeginSetup
%%EndSetup
%%EndComments
%%BeginProlog
[ /.notdef /.notdef /.notdef /.notdef /.notdef /.notdef /.notdef /.notdef /.notdef /.notdef
/.notdef /.notdef /.notdef /.notdef /.notdef /.notdef /.notdef /.notdef /.notdef /.notdef
/.notdef /.notdef /.notdef /.notdef /.notdef /.notdef /.notdef /.notdef /.notdef /.notdef
/.notdef /.notdef /space /exclam /quotedbl /numbersign /dollar /percent /ampersand /quoteright
/parenleft /parenright /asterisk /plus /comma /hyphen /period /slash /zero /one
/two /three /four /five /six /seven /eight /nine /colon /semicolon
/less /equal /greater /question /at /A /B /C /D /E
/F /G /H /I /J /K /L /M /N /O
/P /Q /R /S /T /U /V /W /X /Y
/Z /bracketleft /backslash /bracketright /asciicircum /underscore /quoteleft /a /b /c
/d /e /f /g /h /i /j /k /l /m
/n /o /p /q /r /s /t /u /v /w
/x /y /z /braceleft /bar /braceright /asciitilde /.notdef /.notdef /.notdef
/.notdef /.notdef /.notdef /.notdef /.notdef /.notdef /.notdef /.notdef /.notdef /.notdef
/.notdef /.notdef /.notdef /.notdef /.notdef /.notdef /.notdef /.notdef /.notdef /.notdef
/.notdef /.notdef /.notdef /.notdef /.notdef /.notdef /.notdef /.notdef /.notdef /.notdef
/space /exclamdown /cent /sterling /currency /yen /brokenbar /section /dieresis /copyright
/ordfeminine /guillemotleft /logicalnot /hyphen /registered /macron /degree /plusminus /twosuperior /threesuperior
/acute /mu /paragraph /periodcentered /cedilla /onesuperior /ordmasculine /guillemotright /onequarter /onehalf
/threequarters /questiondown /Agrave /Aacute /Acircumflex /Atilde /Adieresis /Aring /AE /Ccedilla
/Egrave /Eacute /Ecircumflex /Edieresis /Igrave /Iacute /Icircumflex /Idieresis /Eth /Ntilde
/Ograve /Oacute /Ocircumflex /Otilde /Odieresis /multiply /Oslash /Ugrave /Uacute /Ucircumflex
/Udieresis /Yacute /Thorn /germandbls /agrave /aacute /acircumflex /atilde /adieresis /aring
/ae /ccedilla /egrave /eacute /ecircumflex /edieresis /igrave /iacute /icircumflex /idieresis
/eth /ntilde /ograve /oacute /ocircumflex /otilde /odieresis /divide /oslash /ugrave
/uacute /ucircumflex /udieresis /yacute /thorn /ydieresis] /isolatin1encoding exch def
/cp {closepath} bind def
/c {curveto} bind def
/f {fill} bind def
/a {arc} bind def
/ef {eofill} bind def
/ex {exch} bind def
/gr {grestore} bind def
/gs {gsave} bind def
/sa {save} bind def
/rs {restore} bind def
/l {lineto} bind def
/m {moveto} bind def
/rm {rmoveto} bind def
/n {newpath} bind def
/s {stroke} bind def
/sh {show} bind def
/slc {setlinecap} bind def
/slj {setlinejoin} bind def
/slw {setlinewidth} bind def
/srgb {setrgbcolor} bind def
/rot {rotate} bind def
/sc {scale} bind def
/sd {setdash} bind def
/ff {findfont} bind def
/sf {setfont} bind def
/scf {scalefont} bind def
/sw {stringwidth pop} bind def
/tr {translate} bind def

/ellipsedict 8 dict def
ellipsedict /mtrx matrix put
/ellipse
{ ellipsedict begin
   /endangle exch def
   /startangle exch def
   /yrad exch def
   /xrad exch def
   /y exch def
   /x exch def   /savematrix mtrx currentmatrix def
   x y tr xrad yrad sc
   0 0 1 startangle endangle arc
   savematrix setmatrix
   end
} def

/mergeprocs {
dup length
3 -1 roll
dup
length
dup
5 1 roll
3 -1 roll
add
array cvx
dup
3 -1 roll
0 exch
putinterval
dup
4 2 roll
putinterval
} bind def
/dpi_x 300 def
/dpi_y 300 def
/conicto {
    /to_y exch def
    /to_x exch def
    /conic_cntrl_y exch def
    /conic_cntrl_x exch def
    currentpoint
    /p0_y exch def
    /p0_x exch def
    /p1_x p0_x conic_cntrl_x p0_x sub 2 3 div mul add def
    /p1_y p0_y conic_cntrl_y p0_y sub 2 3 div mul add def
    /p2_x p1_x to_x p0_x sub 1 3 div mul add def
    /p2_y p1_y to_y p0_y sub 1 3 div mul add def
    p1_x p1_y p2_x p2_y to_x to_y curveto
} bind def
/start_ol { gsave 1.1 dpi_x div dup scale} bind def
/end_ol { closepath fill grestore } bind def
28.346000 -28.346000 scale
-2.206420 -28.569700 translate
%%EndProlog


0.100000 slw
[] 0 sd
[] 0 sd
0 slc
0 slj
0.100000 slw
0 slc
0 slj
[] 0 sd
1.000000 1.000000 1.000000 srgb
n 20.831100 5.203280 m 22.031100 5.203280 l 22.431100 5.603280 l 22.431100 7.203280 l 20.831100 7.203280 l ef
0.000000 0.000000 0.000000 srgb
n 20.831100 5.203280 m 22.031100 5.203280 l 22.431100 5.603280 l 22.431100 7.203280 l 20.831100 7.203280 l cp s
0 slc
0 slj
[] 0 sd
n 22.031100 5.203280 m 22.031100 5.603280 l 22.431100 5.603280 l 22.431100 5.603280 l s
gsave 20.191500 8.023470 translate 0.035278 -0.035278 scale
start_ol
2368 1344 moveto
2368 1823 2171 2095 conicto
1975 2368 1632 2368 conicto
1289 2368 1092 2095 conicto
896 1823 896 1344 conicto
896 865 1092 592 conicto
1289 320 1632 320 conicto
1975 320 2171 592 conicto
2368 865 2368 1344 conicto
896 2304 moveto
1032 2531 1240 2641 conicto
1448 2752 1737 2752 conicto
2217 2752 2516 2364 conicto
2816 1976 2816 1344 conicto
2816 712 2516 324 conicto
2217 -64 1737 -64 conicto
1448 -64 1240 46 conicto
1032 157 896 384 conicto
896 0 lineto
448 0 lineto
448 3712 lineto
896 3712 lineto
896 2304 lineto
end_ol grestore 
gsave 20.598619 8.023470 translate 0.035278 -0.035278 scale
start_ol
1622 1344 moveto
1104 1344 904 1225 conicto
704 1106 704 818 conicto
704 589 854 454 conicto
1004 320 1262 320 conicto
1618 320 1833 572 conicto
2048 825 2048 1244 conicto
2048 1344 lineto
1622 1344 lineto
2496 1513 moveto
2496 0 lineto
2048 0 lineto
2048 384 lineto
1900 154 1679 45 conicto
1458 -64 1138 -64 conicto
733 -64 494 162 conicto
256 389 256 769 conicto
256 1213 555 1438 conicto
854 1664 1448 1664 conicto
2048 1664 lineto
2048 1712 lineto
2048 2025 1851 2196 conicto
1655 2368 1300 2368 conicto
1074 2368 860 2320 conicto
646 2272 448 2176 conicto
448 2560 lineto
687 2656 912 2704 conicto
1138 2752 1351 2752 conicto
1927 2752 2211 2444 conicto
2496 2137 2496 1513 conicto
end_ol grestore 
gsave 20.990748 8.023470 translate 0.035278 -0.035278 scale
start_ol
2112 2560 moveto
2112 2176 lineto
1932 2272 1738 2320 conicto
1544 2368 1336 2368 conicto
1020 2368 862 2269 conicto
704 2170 704 1972 conicto
704 1821 814 1735 conicto
925 1649 1260 1571 conicto
1403 1538 lineto
1857 1438 2048 1255 conicto
2240 1072 2240 744 conicto
2240 371 1954 153 conicto
1668 -64 1167 -64 conicto
958 -64 732 -16 conicto
506 32 256 128 conicto
256 576 lineto
491 448 719 384 conicto
947 320 1170 320 conicto
1470 320 1631 425 conicto
1792 531 1792 722 conicto
1792 900 1678 994 conicto
1564 1089 1177 1177 conicto
1032 1212 lineto
621 1298 438 1476 conicto
256 1654 256 1964 conicto
256 2341 520 2546 conicto
784 2752 1269 2752 conicto
1509 2752 1721 2704 conicto
1933 2656 2112 2560 conicto
end_ol grestore 
gsave 21.322933 8.023470 translate 0.035278 -0.035278 scale
start_ol
2752 1480 moveto
2752 1280 lineto
704 1280 lineto
733 811 978 565 conicto
1223 320 1660 320 conicto
1914 320 2152 384 conicto
2390 448 2624 576 conicto
2624 192 lineto
2388 67 2140 1 conicto
1893 -64 1639 -64 conicto
1001 -64 628 309 conicto
256 683 256 1320 conicto
256 1979 613 2365 conicto
970 2752 1576 2752 conicto
2120 2752 2436 2410 conicto
2752 2068 2752 1480 conicto
2304 1600 moveto
2299 1950 2099 2159 conicto
1900 2368 1572 2368 conicto
1200 2368 976 2166 conicto
753 1964 719 1597 conicto
2304 1600 lineto
end_ol grestore 
gsave 21.717559 8.023470 translate 0.035278 -0.035278 scale
start_ol
576 576 moveto
1088 576 lineto
1088 0 lineto
576 0 lineto
576 576 lineto
end_ol grestore 
gsave 21.919866 8.023470 translate 0.035278 -0.035278 scale
start_ol
2688 1646 moveto
2688 0 lineto
2240 0 lineto
2240 1632 lineto
2240 2001 2093 2184 conicto
1947 2368 1654 2368 conicto
1302 2368 1099 2146 conicto
896 1925 896 1542 conicto
896 0 lineto
448 0 lineto
448 3712 lineto
896 3712 lineto
896 2304 lineto
1053 2529 1266 2640 conicto
1479 2752 1757 2752 conicto
2217 2752 2452 2471 conicto
2688 2191 2688 1646 conicto
end_ol grestore 
gsave 22.324480 8.023470 translate 0.035278 -0.035278 scale
start_ol
896 3456 moveto
896 2688 lineto
1792 2688 lineto
1792 2368 lineto
896 2368 lineto
896 902 lineto
896 572 984 478 conicto
1073 384 1345 384 conicto
1792 384 lineto
1792 0 lineto
1345 0 lineto
836 0 642 194 conicto
448 389 448 902 conicto
448 2368 lineto
128 2368 lineto
128 2688 lineto
448 2688 lineto
448 3456 lineto
896 3456 lineto
end_ol grestore 
gsave 22.574247 8.023470 translate 0.035278 -0.035278 scale
start_ol
2549 2204 moveto
2714 2485 2942 2618 conicto
3171 2752 3482 2752 conicto
3899 2752 4125 2464 conicto
4352 2177 4352 1646 conicto
4352 0 lineto
3904 0 lineto
3904 1632 lineto
3904 2006 3769 2187 conicto
3634 2368 3356 2368 conicto
3017 2368 2820 2146 conicto
2624 1925 2624 1542 conicto
2624 0 lineto
2176 0 lineto
2176 1632 lineto
2176 2008 2041 2188 conicto
1906 2368 1624 2368 conicto
1289 2368 1092 2145 conicto
896 1922 896 1542 conicto
896 0 lineto
448 0 lineto
448 2688 lineto
896 2688 lineto
896 2304 lineto
1046 2534 1255 2643 conicto
1465 2752 1753 2752 conicto
2044 2752 2247 2611 conicto
2451 2471 2549 2204 conicto
end_ol grestore 
gsave 23.196158 8.023470 translate 0.035278 -0.035278 scale
start_ol
448 3712 moveto
896 3712 lineto
896 0 lineto
448 0 lineto
448 3712 lineto
end_ol grestore 
0.100000 slw
[] 0 sd
0 slj
0 slc
n 21.654000 9.074303 m 21.654000 11.937500 l 25.793600 11.937500 l 25.793600 14.996100 l s
0 slj
1.000000 1.000000 1.000000 srgb
n 22.054000 9.074303 m 21.654000 8.274303 l 21.254000 9.074303 l ef
0.100000 slw
[] 0 sd
0 slj
0.000000 0.000000 0.000000 srgb
n 22.054000 9.074303 m 21.654000 8.274303 l 21.254000 9.074303 l cp s
0.100000 slw
[] 0 sd
[] 0 sd
0 slc
0 slj
0.100000 slw
0 slc
0 slj
[] 0 sd
1.000000 1.000000 1.000000 srgb
n 31.556100 25.090800 m 32.756100 25.090800 l 33.156100 25.490800 l 33.156100 27.090800 l 31.556100 27.090800 l ef
0.000000 0.000000 0.000000 srgb
n 31.556100 25.090800 m 32.756100 25.090800 l 33.156100 25.490800 l 33.156100 27.090800 l 31.556100 27.090800 l cp s
0 slc
0 slj
[] 0 sd
n 32.756100 25.090800 m 32.756100 25.490800 l 33.156100 25.490800 l 33.156100 25.490800 l s
gsave 30.481500 27.929800 translate 0.035278 -0.035278 scale
start_ol
2752 1480 moveto
2752 1280 lineto
704 1280 lineto
733 811 978 565 conicto
1223 320 1660 320 conicto
1914 320 2152 384 conicto
2390 448 2624 576 conicto
2624 192 lineto
2388 67 2140 1 conicto
1893 -64 1639 -64 conicto
1001 -64 628 309 conicto
256 683 256 1320 conicto
256 1979 613 2365 conicto
970 2752 1576 2752 conicto
2120 2752 2436 2410 conicto
2752 2068 2752 1480 conicto
2304 1600 moveto
2299 1950 2099 2159 conicto
1900 2368 1572 2368 conicto
1200 2368 976 2166 conicto
753 1964 719 1597 conicto
2304 1600 lineto
end_ol grestore 
gsave 30.866138 27.929800 translate 0.035278 -0.035278 scale
start_ol
2624 2688 moveto
1666 1380 lineto
2688 0 lineto
2169 0 lineto
1389 1056 lineto
632 0 lineto
128 0 lineto
1134 1406 lineto
192 2688 lineto
705 2688 lineto
1408 1730 lineto
2111 2688 lineto
2624 2688 lineto
end_ol grestore 
gsave 31.245782 27.929800 translate 0.035278 -0.035278 scale
start_ol
1622 1344 moveto
1104 1344 904 1225 conicto
704 1106 704 818 conicto
704 589 854 454 conicto
1004 320 1262 320 conicto
1618 320 1833 572 conicto
2048 825 2048 1244 conicto
2048 1344 lineto
1622 1344 lineto
2496 1513 moveto
2496 0 lineto
2048 0 lineto
2048 384 lineto
1900 154 1679 45 conicto
1458 -64 1138 -64 conicto
733 -64 494 162 conicto
256 389 256 769 conicto
256 1213 555 1438 conicto
854 1664 1448 1664 conicto
2048 1664 lineto
2048 1712 lineto
2048 2025 1851 2196 conicto
1655 2368 1300 2368 conicto
1074 2368 860 2320 conicto
646 2272 448 2176 conicto
448 2560 lineto
687 2656 912 2704 conicto
1138 2752 1351 2752 conicto
1927 2752 2211 2444 conicto
2496 2137 2496 1513 conicto
end_ol grestore 
gsave 31.637911 27.929800 translate 0.035278 -0.035278 scale
start_ol
2549 2204 moveto
2714 2485 2942 2618 conicto
3171 2752 3482 2752 conicto
3899 2752 4125 2464 conicto
4352 2177 4352 1646 conicto
4352 0 lineto
3904 0 lineto
3904 1632 lineto
3904 2006 3769 2187 conicto
3634 2368 3356 2368 conicto
3017 2368 2820 2146 conicto
2624 1925 2624 1542 conicto
2624 0 lineto
2176 0 lineto
2176 1632 lineto
2176 2008 2041 2188 conicto
1906 2368 1624 2368 conicto
1289 2368 1092 2145 conicto
896 1922 896 1542 conicto
896 0 lineto
448 0 lineto
448 2688 lineto
896 2688 lineto
896 2304 lineto
1046 2534 1255 2643 conicto
1465 2752 1753 2752 conicto
2044 2752 2247 2611 conicto
2451 2471 2549 2204 conicto
end_ol grestore 
gsave 32.259822 27.929800 translate 0.035278 -0.035278 scale
start_ol
2112 2560 moveto
2112 2176 lineto
1932 2272 1738 2320 conicto
1544 2368 1336 2368 conicto
1020 2368 862 2269 conicto
704 2170 704 1972 conicto
704 1821 814 1735 conicto
925 1649 1260 1571 conicto
1403 1538 lineto
1857 1438 2048 1255 conicto
2240 1072 2240 744 conicto
2240 371 1954 153 conicto
1668 -64 1167 -64 conicto
958 -64 732 -16 conicto
506 32 256 128 conicto
256 576 lineto
491 448 719 384 conicto
947 320 1170 320 conicto
1470 320 1631 425 conicto
1792 531 1792 722 conicto
1792 900 1678 994 conicto
1564 1089 1177 1177 conicto
1032 1212 lineto
621 1298 438 1476 conicto
256 1654 256 1964 conicto
256 2341 520 2546 conicto
784 2752 1269 2752 conicto
1509 2752 1721 2704 conicto
1933 2656 2112 2560 conicto
end_ol grestore 
gsave 32.592007 27.929800 translate 0.035278 -0.035278 scale
start_ol
576 576 moveto
1088 576 lineto
1088 0 lineto
576 0 lineto
576 576 lineto
end_ol grestore 
gsave 32.794314 27.929800 translate 0.035278 -0.035278 scale
start_ol
2688 1646 moveto
2688 0 lineto
2240 0 lineto
2240 1632 lineto
2240 2001 2093 2184 conicto
1947 2368 1654 2368 conicto
1302 2368 1099 2146 conicto
896 1925 896 1542 conicto
896 0 lineto
448 0 lineto
448 3712 lineto
896 3712 lineto
896 2304 lineto
1053 2529 1266 2640 conicto
1479 2752 1757 2752 conicto
2217 2752 2452 2471 conicto
2688 2191 2688 1646 conicto
end_ol grestore 
gsave 33.198928 27.929800 translate 0.035278 -0.035278 scale
start_ol
896 3456 moveto
896 2688 lineto
1792 2688 lineto
1792 2368 lineto
896 2368 lineto
896 902 lineto
896 572 984 478 conicto
1073 384 1345 384 conicto
1792 384 lineto
1792 0 lineto
1345 0 lineto
836 0 642 194 conicto
448 389 448 902 conicto
448 2368 lineto
128 2368 lineto
128 2688 lineto
448 2688 lineto
448 3456 lineto
896 3456 lineto
end_ol grestore 
gsave 33.448695 27.929800 translate 0.035278 -0.035278 scale
start_ol
2549 2204 moveto
2714 2485 2942 2618 conicto
3171 2752 3482 2752 conicto
3899 2752 4125 2464 conicto
4352 2177 4352 1646 conicto
4352 0 lineto
3904 0 lineto
3904 1632 lineto
3904 2006 3769 2187 conicto
3634 2368 3356 2368 conicto
3017 2368 2820 2146 conicto
2624 1925 2624 1542 conicto
2624 0 lineto
2176 0 lineto
2176 1632 lineto
2176 2008 2041 2188 conicto
1906 2368 1624 2368 conicto
1289 2368 1092 2145 conicto
896 1922 896 1542 conicto
896 0 lineto
448 0 lineto
448 2688 lineto
896 2688 lineto
896 2304 lineto
1046 2534 1255 2643 conicto
1465 2752 1753 2752 conicto
2044 2752 2247 2611 conicto
2451 2471 2549 2204 conicto
end_ol grestore 
gsave 34.070606 27.929800 translate 0.035278 -0.035278 scale
start_ol
448 3712 moveto
896 3712 lineto
896 0 lineto
448 0 lineto
448 3712 lineto
end_ol grestore 
0.100000 slw
[] 0 sd
[] 0 sd
0 slc
0 slj
0.100000 slw
0 slc
0 slj
[] 0 sd
1.000000 1.000000 1.000000 srgb
n 18.314500 25.128300 m 19.514500 25.128300 l 19.914500 25.528300 l 19.914500 27.128300 l 18.314500 27.128300 l ef
0.000000 0.000000 0.000000 srgb
n 18.314500 25.128300 m 19.514500 25.128300 l 19.914500 25.528300 l 19.914500 27.128300 l 18.314500 27.128300 l cp s
0 slc
0 slj
[] 0 sd
n 19.514500 25.128300 m 19.514500 25.528300 l 19.914500 25.528300 l 19.914500 25.528300 l s
gsave 17.395100 27.948500 translate 0.035278 -0.035278 scale
start_ol
448 2688 moveto
896 2688 lineto
896 0 lineto
448 0 lineto
448 2688 lineto
448 3712 moveto
896 3712 lineto
896 3136 lineto
448 3136 lineto
448 3712 lineto
end_ol grestore 
gsave 17.572429 27.948500 translate 0.035278 -0.035278 scale
start_ol
2688 1646 moveto
2688 0 lineto
2240 0 lineto
2240 1632 lineto
2240 2001 2093 2184 conicto
1947 2368 1654 2368 conicto
1302 2368 1099 2146 conicto
896 1925 896 1542 conicto
896 0 lineto
448 0 lineto
448 2688 lineto
896 2688 lineto
896 2304 lineto
1053 2529 1266 2640 conicto
1479 2752 1757 2752 conicto
2217 2752 2452 2471 conicto
2688 2191 2688 1646 conicto
end_ol grestore 
gsave 17.977043 27.948500 translate 0.035278 -0.035278 scale
start_ol
128 2688 moveto
586 2688 lineto
1408 432 lineto
2230 2688 lineto
2688 2688 lineto
1702 0 lineto
1114 0 lineto
128 2688 lineto
end_ol grestore 
gsave 18.356687 27.948500 translate 0.035278 -0.035278 scale
start_ol
1622 1344 moveto
1104 1344 904 1225 conicto
704 1106 704 818 conicto
704 589 854 454 conicto
1004 320 1262 320 conicto
1618 320 1833 572 conicto
2048 825 2048 1244 conicto
2048 1344 lineto
1622 1344 lineto
2496 1513 moveto
2496 0 lineto
2048 0 lineto
2048 384 lineto
1900 154 1679 45 conicto
1458 -64 1138 -64 conicto
733 -64 494 162 conicto
256 389 256 769 conicto
256 1213 555 1438 conicto
854 1664 1448 1664 conicto
2048 1664 lineto
2048 1712 lineto
2048 2025 1851 2196 conicto
1655 2368 1300 2368 conicto
1074 2368 860 2320 conicto
646 2272 448 2176 conicto
448 2560 lineto
687 2656 912 2704 conicto
1138 2752 1351 2752 conicto
1927 2752 2211 2444 conicto
2496 2137 2496 1513 conicto
end_ol grestore 
gsave 18.748816 27.948500 translate 0.035278 -0.035278 scale
start_ol
448 3712 moveto
896 3712 lineto
896 0 lineto
448 0 lineto
448 3712 lineto
end_ol grestore 
gsave 18.926145 27.948500 translate 0.035278 -0.035278 scale
start_ol
448 2688 moveto
896 2688 lineto
896 0 lineto
448 0 lineto
448 2688 lineto
448 3712 moveto
896 3712 lineto
896 3136 lineto
448 3136 lineto
448 3712 lineto
end_ol grestore 
gsave 19.103473 27.948500 translate 0.035278 -0.035278 scale
start_ol
2176 2304 moveto
2176 3712 lineto
2624 3712 lineto
2624 0 lineto
2176 0 lineto
2176 384 lineto
2040 157 1832 46 conicto
1624 -64 1332 -64 conicto
855 -64 555 324 conicto
256 712 256 1344 conicto
256 1976 555 2364 conicto
855 2752 1332 2752 conicto
1624 2752 1832 2641 conicto
2040 2531 2176 2304 conicto
704 1344 moveto
704 865 900 592 conicto
1096 320 1439 320 conicto
1782 320 1979 592 conicto
2176 865 2176 1344 conicto
2176 1823 1979 2095 conicto
1782 2368 1439 2368 conicto
1096 2368 900 2095 conicto
704 1823 704 1344 conicto
end_ol grestore 
gsave 19.510593 27.948500 translate 0.035278 -0.035278 scale
start_ol
576 576 moveto
1088 576 lineto
1088 0 lineto
576 0 lineto
576 576 lineto
end_ol grestore 
gsave 19.712900 27.948500 translate 0.035278 -0.035278 scale
start_ol
2688 1646 moveto
2688 0 lineto
2240 0 lineto
2240 1632 lineto
2240 2001 2093 2184 conicto
1947 2368 1654 2368 conicto
1302 2368 1099 2146 conicto
896 1925 896 1542 conicto
896 0 lineto
448 0 lineto
448 3712 lineto
896 3712 lineto
896 2304 lineto
1053 2529 1266 2640 conicto
1479 2752 1757 2752 conicto
2217 2752 2452 2471 conicto
2688 2191 2688 1646 conicto
end_ol grestore 
gsave 20.117514 27.948500 translate 0.035278 -0.035278 scale
start_ol
896 3456 moveto
896 2688 lineto
1792 2688 lineto
1792 2368 lineto
896 2368 lineto
896 902 lineto
896 572 984 478 conicto
1073 384 1345 384 conicto
1792 384 lineto
1792 0 lineto
1345 0 lineto
836 0 642 194 conicto
448 389 448 902 conicto
448 2368 lineto
128 2368 lineto
128 2688 lineto
448 2688 lineto
448 3456 lineto
896 3456 lineto
end_ol grestore 
gsave 20.367280 27.948500 translate 0.035278 -0.035278 scale
start_ol
2549 2204 moveto
2714 2485 2942 2618 conicto
3171 2752 3482 2752 conicto
3899 2752 4125 2464 conicto
4352 2177 4352 1646 conicto
4352 0 lineto
3904 0 lineto
3904 1632 lineto
3904 2006 3769 2187 conicto
3634 2368 3356 2368 conicto
3017 2368 2820 2146 conicto
2624 1925 2624 1542 conicto
2624 0 lineto
2176 0 lineto
2176 1632 lineto
2176 2008 2041 2188 conicto
1906 2368 1624 2368 conicto
1289 2368 1092 2145 conicto
896 1922 896 1542 conicto
896 0 lineto
448 0 lineto
448 2688 lineto
896 2688 lineto
896 2304 lineto
1046 2534 1255 2643 conicto
1465 2752 1753 2752 conicto
2044 2752 2247 2611 conicto
2451 2471 2549 2204 conicto
end_ol grestore 
gsave 20.989192 27.948500 translate 0.035278 -0.035278 scale
start_ol
448 3712 moveto
896 3712 lineto
896 0 lineto
448 0 lineto
448 3712 lineto
end_ol grestore 
0.100000 slw
[] 0 sd
[] 0 sd
0 slc
n 21.672000 11.937600 m 18.097000 11.937600 l s
0.100000 slw
[] 0 sd
[] 0 sd
0 slc
0 slj
0.100000 slw
0 slc
0 slj
[] 0 sd
1.000000 1.000000 1.000000 srgb
n 24.981100 15.045700 m 26.181100 15.045700 l 26.581100 15.445700 l 26.581100 17.045700 l 24.981100 17.045700 l ef
0.000000 0.000000 0.000000 srgb
n 24.981100 15.045700 m 26.181100 15.045700 l 26.581100 15.445700 l 26.581100 17.045700 l 24.981100 17.045700 l cp s
0 slc
0 slj
[] 0 sd
n 26.181100 15.045700 m 26.181100 15.445700 l 26.581100 15.445700 l 26.581100 15.445700 l s
gsave 23.466500 17.865900 translate 0.035278 -0.035278 scale
start_ol
2368 1344 moveto
2368 1823 2171 2095 conicto
1975 2368 1632 2368 conicto
1289 2368 1092 2095 conicto
896 1823 896 1344 conicto
896 865 1092 592 conicto
1289 320 1632 320 conicto
1975 320 2171 592 conicto
2368 865 2368 1344 conicto
896 2304 moveto
1032 2531 1240 2641 conicto
1448 2752 1737 2752 conicto
2217 2752 2516 2364 conicto
2816 1976 2816 1344 conicto
2816 712 2516 324 conicto
2217 -64 1737 -64 conicto
1448 -64 1240 46 conicto
1032 157 896 384 conicto
896 0 lineto
448 0 lineto
448 3712 lineto
896 3712 lineto
896 2304 lineto
end_ol grestore 
gsave 23.873619 17.865900 translate 0.035278 -0.035278 scale
start_ol
1622 1344 moveto
1104 1344 904 1225 conicto
704 1106 704 818 conicto
704 589 854 454 conicto
1004 320 1262 320 conicto
1618 320 1833 572 conicto
2048 825 2048 1244 conicto
2048 1344 lineto
1622 1344 lineto
2496 1513 moveto
2496 0 lineto
2048 0 lineto
2048 384 lineto
1900 154 1679 45 conicto
1458 -64 1138 -64 conicto
733 -64 494 162 conicto
256 389 256 769 conicto
256 1213 555 1438 conicto
854 1664 1448 1664 conicto
2048 1664 lineto
2048 1712 lineto
2048 2025 1851 2196 conicto
1655 2368 1300 2368 conicto
1074 2368 860 2320 conicto
646 2272 448 2176 conicto
448 2560 lineto
687 2656 912 2704 conicto
1138 2752 1351 2752 conicto
1927 2752 2211 2444 conicto
2496 2137 2496 1513 conicto
end_ol grestore 
gsave 24.265748 17.865900 translate 0.035278 -0.035278 scale
start_ol
2112 2560 moveto
2112 2176 lineto
1932 2272 1738 2320 conicto
1544 2368 1336 2368 conicto
1020 2368 862 2269 conicto
704 2170 704 1972 conicto
704 1821 814 1735 conicto
925 1649 1260 1571 conicto
1403 1538 lineto
1857 1438 2048 1255 conicto
2240 1072 2240 744 conicto
2240 371 1954 153 conicto
1668 -64 1167 -64 conicto
958 -64 732 -16 conicto
506 32 256 128 conicto
256 576 lineto
491 448 719 384 conicto
947 320 1170 320 conicto
1470 320 1631 425 conicto
1792 531 1792 722 conicto
1792 900 1678 994 conicto
1564 1089 1177 1177 conicto
1032 1212 lineto
621 1298 438 1476 conicto
256 1654 256 1964 conicto
256 2341 520 2546 conicto
784 2752 1269 2752 conicto
1509 2752 1721 2704 conicto
1933 2656 2112 2560 conicto
end_ol grestore 
gsave 24.597933 17.865900 translate 0.035278 -0.035278 scale
start_ol
2752 1480 moveto
2752 1280 lineto
704 1280 lineto
733 811 978 565 conicto
1223 320 1660 320 conicto
1914 320 2152 384 conicto
2390 448 2624 576 conicto
2624 192 lineto
2388 67 2140 1 conicto
1893 -64 1639 -64 conicto
1001 -64 628 309 conicto
256 683 256 1320 conicto
256 1979 613 2365 conicto
970 2752 1576 2752 conicto
2120 2752 2436 2410 conicto
2752 2068 2752 1480 conicto
2304 1600 moveto
2299 1950 2099 2159 conicto
1900 2368 1572 2368 conicto
1200 2368 976 2166 conicto
753 1964 719 1597 conicto
2304 1600 lineto
end_ol grestore 
gsave 24.992559 17.865900 translate 0.035278 -0.035278 scale
start_ol
2496 -832 moveto
2496 -1152 lineto
-64 -1152 lineto
-64 -832 lineto
2496 -832 lineto
end_ol grestore 
gsave 25.312258 17.865900 translate 0.035278 -0.035278 scale
start_ol
2549 2204 moveto
2714 2485 2942 2618 conicto
3171 2752 3482 2752 conicto
3899 2752 4125 2464 conicto
4352 2177 4352 1646 conicto
4352 0 lineto
3904 0 lineto
3904 1632 lineto
3904 2006 3769 2187 conicto
3634 2368 3356 2368 conicto
3017 2368 2820 2146 conicto
2624 1925 2624 1542 conicto
2624 0 lineto
2176 0 lineto
2176 1632 lineto
2176 2008 2041 2188 conicto
1906 2368 1624 2368 conicto
1289 2368 1092 2145 conicto
896 1922 896 1542 conicto
896 0 lineto
448 0 lineto
448 2688 lineto
896 2688 lineto
896 2304 lineto
1046 2534 1255 2643 conicto
1465 2752 1753 2752 conicto
2044 2752 2247 2611 conicto
2451 2471 2549 2204 conicto
end_ol grestore 
gsave 25.934170 17.865900 translate 0.035278 -0.035278 scale
start_ol
1622 1344 moveto
1104 1344 904 1225 conicto
704 1106 704 818 conicto
704 589 854 454 conicto
1004 320 1262 320 conicto
1618 320 1833 572 conicto
2048 825 2048 1244 conicto
2048 1344 lineto
1622 1344 lineto
2496 1513 moveto
2496 0 lineto
2048 0 lineto
2048 384 lineto
1900 154 1679 45 conicto
1458 -64 1138 -64 conicto
733 -64 494 162 conicto
256 389 256 769 conicto
256 1213 555 1438 conicto
854 1664 1448 1664 conicto
2048 1664 lineto
2048 1712 lineto
2048 2025 1851 2196 conicto
1655 2368 1300 2368 conicto
1074 2368 860 2320 conicto
646 2272 448 2176 conicto
448 2560 lineto
687 2656 912 2704 conicto
1138 2752 1351 2752 conicto
1927 2752 2211 2444 conicto
2496 2137 2496 1513 conicto
end_ol grestore 
gsave 26.326299 17.865900 translate 0.035278 -0.035278 scale
start_ol
448 2688 moveto
896 2688 lineto
896 0 lineto
448 0 lineto
448 2688 lineto
448 3712 moveto
896 3712 lineto
896 3136 lineto
448 3136 lineto
448 3712 lineto
end_ol grestore 
gsave 26.503627 17.865900 translate 0.035278 -0.035278 scale
start_ol
2688 1646 moveto
2688 0 lineto
2240 0 lineto
2240 1632 lineto
2240 2001 2093 2184 conicto
1947 2368 1654 2368 conicto
1302 2368 1099 2146 conicto
896 1925 896 1542 conicto
896 0 lineto
448 0 lineto
448 2688 lineto
896 2688 lineto
896 2304 lineto
1053 2529 1266 2640 conicto
1479 2752 1757 2752 conicto
2217 2752 2452 2471 conicto
2688 2191 2688 1646 conicto
end_ol grestore 
gsave 26.908241 17.865900 translate 0.035278 -0.035278 scale
start_ol
576 576 moveto
1088 576 lineto
1088 0 lineto
576 0 lineto
576 576 lineto
end_ol grestore 
gsave 27.110548 17.865900 translate 0.035278 -0.035278 scale
start_ol
2688 1646 moveto
2688 0 lineto
2240 0 lineto
2240 1632 lineto
2240 2001 2093 2184 conicto
1947 2368 1654 2368 conicto
1302 2368 1099 2146 conicto
896 1925 896 1542 conicto
896 0 lineto
448 0 lineto
448 3712 lineto
896 3712 lineto
896 2304 lineto
1053 2529 1266 2640 conicto
1479 2752 1757 2752 conicto
2217 2752 2452 2471 conicto
2688 2191 2688 1646 conicto
end_ol grestore 
gsave 27.515162 17.865900 translate 0.035278 -0.035278 scale
start_ol
896 3456 moveto
896 2688 lineto
1792 2688 lineto
1792 2368 lineto
896 2368 lineto
896 902 lineto
896 572 984 478 conicto
1073 384 1345 384 conicto
1792 384 lineto
1792 0 lineto
1345 0 lineto
836 0 642 194 conicto
448 389 448 902 conicto
448 2368 lineto
128 2368 lineto
128 2688 lineto
448 2688 lineto
448 3456 lineto
896 3456 lineto
end_ol grestore 
gsave 27.764929 17.865900 translate 0.035278 -0.035278 scale
start_ol
2549 2204 moveto
2714 2485 2942 2618 conicto
3171 2752 3482 2752 conicto
3899 2752 4125 2464 conicto
4352 2177 4352 1646 conicto
4352 0 lineto
3904 0 lineto
3904 1632 lineto
3904 2006 3769 2187 conicto
3634 2368 3356 2368 conicto
3017 2368 2820 2146 conicto
2624 1925 2624 1542 conicto
2624 0 lineto
2176 0 lineto
2176 1632 lineto
2176 2008 2041 2188 conicto
1906 2368 1624 2368 conicto
1289 2368 1092 2145 conicto
896 1922 896 1542 conicto
896 0 lineto
448 0 lineto
448 2688 lineto
896 2688 lineto
896 2304 lineto
1046 2534 1255 2643 conicto
1465 2752 1753 2752 conicto
2044 2752 2247 2611 conicto
2451 2471 2549 2204 conicto
end_ol grestore 
gsave 28.386840 17.865900 translate 0.035278 -0.035278 scale
start_ol
448 3712 moveto
896 3712 lineto
896 0 lineto
448 0 lineto
448 3712 lineto
end_ol grestore 
0.100000 slw
[] 0 sd
0 slj
0 slc
n 25.900100 19.155603 m 25.900100 21.993800 l 19.114500 21.993800 l 19.114500 25.078020 l s
0 slj
1.000000 1.000000 1.000000 srgb
n 26.300100 19.155603 m 25.900100 18.355603 l 25.500100 19.155603 l ef
0.100000 slw
[] 0 sd
0 slj
0.000000 0.000000 0.000000 srgb
n 26.300100 19.155603 m 25.900100 18.355603 l 25.500100 19.155603 l cp s
0.100000 slw
[] 0 sd
[] 0 sd
0 slc
n 32.367200 25.058000 m 32.368700 21.940700 l s
0.100000 slw
[] 0 sd
[] 0 sd
0 slc
n 25.875000 21.987500 m 32.413100 21.990600 l s
0.100000 slw
[] 0 sd
[] 0 sd
0 slc
n 18.182700 11.934400 m 10.790600 11.940600 l s
0.100000 slw
[] 0 sd
[] 0 sd
0 slc
n 10.840700 15.045700 m 10.838800 11.915600 l s
0.100000 slw
[] 0 sd
[] 0 sd
0 slc
0 slj
0.100000 slw
0 slc
0 slj
[] 0 sd
1.000000 1.000000 1.000000 srgb
n 17.456100 15.070700 m 18.656100 15.070700 l 19.056100 15.470700 l 19.056100 17.070700 l 17.456100 17.070700 l ef
0.000000 0.000000 0.000000 srgb
n 17.456100 15.070700 m 18.656100 15.070700 l 19.056100 15.470700 l 19.056100 17.070700 l 17.456100 17.070700 l cp s
0 slc
0 slj
[] 0 sd
n 18.656100 15.070700 m 18.656100 15.470700 l 19.056100 15.470700 l 19.056100 15.470700 l s
gsave 15.001700 17.890900 translate 0.035278 -0.035278 scale
start_ol
2752 1480 moveto
2752 1280 lineto
704 1280 lineto
733 811 978 565 conicto
1223 320 1660 320 conicto
1914 320 2152 384 conicto
2390 448 2624 576 conicto
2624 192 lineto
2388 67 2140 1 conicto
1893 -64 1639 -64 conicto
1001 -64 628 309 conicto
256 683 256 1320 conicto
256 1979 613 2365 conicto
970 2752 1576 2752 conicto
2120 2752 2436 2410 conicto
2752 2068 2752 1480 conicto
2304 1600 moveto
2299 1950 2099 2159 conicto
1900 2368 1572 2368 conicto
1200 2368 976 2166 conicto
753 1964 719 1597 conicto
2304 1600 lineto
end_ol grestore 
gsave 15.386338 17.890900 translate 0.035278 -0.035278 scale
start_ol
2624 2688 moveto
1666 1380 lineto
2688 0 lineto
2169 0 lineto
1389 1056 lineto
632 0 lineto
128 0 lineto
1134 1406 lineto
192 2688 lineto
705 2688 lineto
1408 1730 lineto
2111 2688 lineto
2624 2688 lineto
end_ol grestore 
gsave 15.765982 17.890900 translate 0.035278 -0.035278 scale
start_ol
1622 1344 moveto
1104 1344 904 1225 conicto
704 1106 704 818 conicto
704 589 854 454 conicto
1004 320 1262 320 conicto
1618 320 1833 572 conicto
2048 825 2048 1244 conicto
2048 1344 lineto
1622 1344 lineto
2496 1513 moveto
2496 0 lineto
2048 0 lineto
2048 384 lineto
1900 154 1679 45 conicto
1458 -64 1138 -64 conicto
733 -64 494 162 conicto
256 389 256 769 conicto
256 1213 555 1438 conicto
854 1664 1448 1664 conicto
2048 1664 lineto
2048 1712 lineto
2048 2025 1851 2196 conicto
1655 2368 1300 2368 conicto
1074 2368 860 2320 conicto
646 2272 448 2176 conicto
448 2560 lineto
687 2656 912 2704 conicto
1138 2752 1351 2752 conicto
1927 2752 2211 2444 conicto
2496 2137 2496 1513 conicto
end_ol grestore 
gsave 16.158111 17.890900 translate 0.035278 -0.035278 scale
start_ol
2549 2204 moveto
2714 2485 2942 2618 conicto
3171 2752 3482 2752 conicto
3899 2752 4125 2464 conicto
4352 2177 4352 1646 conicto
4352 0 lineto
3904 0 lineto
3904 1632 lineto
3904 2006 3769 2187 conicto
3634 2368 3356 2368 conicto
3017 2368 2820 2146 conicto
2624 1925 2624 1542 conicto
2624 0 lineto
2176 0 lineto
2176 1632 lineto
2176 2008 2041 2188 conicto
1906 2368 1624 2368 conicto
1289 2368 1092 2145 conicto
896 1922 896 1542 conicto
896 0 lineto
448 0 lineto
448 2688 lineto
896 2688 lineto
896 2304 lineto
1046 2534 1255 2643 conicto
1465 2752 1753 2752 conicto
2044 2752 2247 2611 conicto
2451 2471 2549 2204 conicto
end_ol grestore 
gsave 16.780022 17.890900 translate 0.035278 -0.035278 scale
start_ol
2496 -832 moveto
2496 -1152 lineto
-64 -1152 lineto
-64 -832 lineto
2496 -832 lineto
end_ol grestore 
gsave 17.099722 17.890900 translate 0.035278 -0.035278 scale
start_ol
2368 2560 moveto
2368 2176 lineto
2180 2272 1991 2320 conicto
1803 2368 1611 2368 conicto
1180 2368 942 2099 conicto
704 1830 704 1344 conicto
704 858 942 589 conicto
1180 320 1611 320 conicto
1803 320 1991 368 conicto
2180 416 2368 512 conicto
2368 128 lineto
2184 32 1987 -16 conicto
1791 -64 1569 -64 conicto
966 -64 611 316 conicto
256 697 256 1344 conicto
256 2000 615 2376 conicto
974 2752 1598 2752 conicto
1801 2752 1994 2704 conicto
2187 2656 2368 2560 conicto
end_ol grestore 
gsave 17.451890 17.890900 translate 0.035278 -0.035278 scale
start_ol
1473 2368 moveto
1117 2368 910 2094 conicto
704 1820 704 1344 conicto
704 868 909 594 conicto
1115 320 1473 320 conicto
1827 320 2033 595 conicto
2240 870 2240 1344 conicto
2240 1816 2033 2092 conicto
1827 2368 1473 2368 conicto
1472 2752 moveto
2040 2752 2364 2378 conicto
2688 2005 2688 1344 conicto
2688 685 2364 310 conicto
2040 -64 1472 -64 conicto
902 -64 579 310 conicto
256 685 256 1344 conicto
256 2005 579 2378 conicto
902 2752 1472 2752 conicto
end_ol grestore 
gsave 17.844020 17.890900 translate 0.035278 -0.035278 scale
start_ol
2549 2204 moveto
2714 2485 2942 2618 conicto
3171 2752 3482 2752 conicto
3899 2752 4125 2464 conicto
4352 2177 4352 1646 conicto
4352 0 lineto
3904 0 lineto
3904 1632 lineto
3904 2006 3769 2187 conicto
3634 2368 3356 2368 conicto
3017 2368 2820 2146 conicto
2624 1925 2624 1542 conicto
2624 0 lineto
2176 0 lineto
2176 1632 lineto
2176 2008 2041 2188 conicto
1906 2368 1624 2368 conicto
1289 2368 1092 2145 conicto
896 1922 896 1542 conicto
896 0 lineto
448 0 lineto
448 2688 lineto
896 2688 lineto
896 2304 lineto
1046 2534 1255 2643 conicto
1465 2752 1753 2752 conicto
2044 2752 2247 2611 conicto
2451 2471 2549 2204 conicto
end_ol grestore 
gsave 18.465931 17.890900 translate 0.035278 -0.035278 scale
start_ol
896 384 moveto
896 -1024 lineto
448 -1024 lineto
448 2688 lineto
896 2688 lineto
896 2304 lineto
1032 2531 1240 2641 conicto
1448 2752 1737 2752 conicto
2217 2752 2516 2364 conicto
2816 1976 2816 1344 conicto
2816 712 2516 324 conicto
2217 -64 1737 -64 conicto
1448 -64 1240 46 conicto
1032 157 896 384 conicto
2368 1344 moveto
2368 1823 2171 2095 conicto
1975 2368 1632 2368 conicto
1289 2368 1092 2095 conicto
896 1823 896 1344 conicto
896 865 1092 592 conicto
1289 320 1632 320 conicto
1975 320 2171 592 conicto
2368 865 2368 1344 conicto
end_ol grestore 
gsave 18.873050 17.890900 translate 0.035278 -0.035278 scale
start_ol
448 3712 moveto
896 3712 lineto
896 0 lineto
448 0 lineto
448 3712 lineto
end_ol grestore 
gsave 19.050379 17.890900 translate 0.035278 -0.035278 scale
start_ol
2752 1480 moveto
2752 1280 lineto
704 1280 lineto
733 811 978 565 conicto
1223 320 1660 320 conicto
1914 320 2152 384 conicto
2390 448 2624 576 conicto
2624 192 lineto
2388 67 2140 1 conicto
1893 -64 1639 -64 conicto
1001 -64 628 309 conicto
256 683 256 1320 conicto
256 1979 613 2365 conicto
970 2752 1576 2752 conicto
2120 2752 2436 2410 conicto
2752 2068 2752 1480 conicto
2304 1600 moveto
2299 1950 2099 2159 conicto
1900 2368 1572 2368 conicto
1200 2368 976 2166 conicto
753 1964 719 1597 conicto
2304 1600 lineto
end_ol grestore 
gsave 19.445005 17.890900 translate 0.035278 -0.035278 scale
start_ol
896 3456 moveto
896 2688 lineto
1792 2688 lineto
1792 2368 lineto
896 2368 lineto
896 902 lineto
896 572 984 478 conicto
1073 384 1345 384 conicto
1792 384 lineto
1792 0 lineto
1345 0 lineto
836 0 642 194 conicto
448 389 448 902 conicto
448 2368 lineto
128 2368 lineto
128 2688 lineto
448 2688 lineto
448 3456 lineto
896 3456 lineto
end_ol grestore 
gsave 19.694772 17.890900 translate 0.035278 -0.035278 scale
start_ol
2752 1480 moveto
2752 1280 lineto
704 1280 lineto
733 811 978 565 conicto
1223 320 1660 320 conicto
1914 320 2152 384 conicto
2390 448 2624 576 conicto
2624 192 lineto
2388 67 2140 1 conicto
1893 -64 1639 -64 conicto
1001 -64 628 309 conicto
256 683 256 1320 conicto
256 1979 613 2365 conicto
970 2752 1576 2752 conicto
2120 2752 2436 2410 conicto
2752 2068 2752 1480 conicto
2304 1600 moveto
2299 1950 2099 2159 conicto
1900 2368 1572 2368 conicto
1200 2368 976 2166 conicto
753 1964 719 1597 conicto
2304 1600 lineto
end_ol grestore 
gsave 20.089398 17.890900 translate 0.035278 -0.035278 scale
start_ol
2176 2304 moveto
2176 3712 lineto
2624 3712 lineto
2624 0 lineto
2176 0 lineto
2176 384 lineto
2040 157 1832 46 conicto
1624 -64 1332 -64 conicto
855 -64 555 324 conicto
256 712 256 1344 conicto
256 1976 555 2364 conicto
855 2752 1332 2752 conicto
1624 2752 1832 2641 conicto
2040 2531 2176 2304 conicto
704 1344 moveto
704 865 900 592 conicto
1096 320 1439 320 conicto
1782 320 1979 592 conicto
2176 865 2176 1344 conicto
2176 1823 1979 2095 conicto
1782 2368 1439 2368 conicto
1096 2368 900 2095 conicto
704 1823 704 1344 conicto
end_ol grestore 
gsave 20.496517 17.890900 translate 0.035278 -0.035278 scale
start_ol
576 576 moveto
1088 576 lineto
1088 0 lineto
576 0 lineto
576 576 lineto
end_ol grestore 
gsave 20.698824 17.890900 translate 0.035278 -0.035278 scale
start_ol
2688 1646 moveto
2688 0 lineto
2240 0 lineto
2240 1632 lineto
2240 2001 2093 2184 conicto
1947 2368 1654 2368 conicto
1302 2368 1099 2146 conicto
896 1925 896 1542 conicto
896 0 lineto
448 0 lineto
448 3712 lineto
896 3712 lineto
896 2304 lineto
1053 2529 1266 2640 conicto
1479 2752 1757 2752 conicto
2217 2752 2452 2471 conicto
2688 2191 2688 1646 conicto
end_ol grestore 
gsave 21.103438 17.890900 translate 0.035278 -0.035278 scale
start_ol
896 3456 moveto
896 2688 lineto
1792 2688 lineto
1792 2368 lineto
896 2368 lineto
896 902 lineto
896 572 984 478 conicto
1073 384 1345 384 conicto
1792 384 lineto
1792 0 lineto
1345 0 lineto
836 0 642 194 conicto
448 389 448 902 conicto
448 2368 lineto
128 2368 lineto
128 2688 lineto
448 2688 lineto
448 3456 lineto
896 3456 lineto
end_ol grestore 
gsave 21.353205 17.890900 translate 0.035278 -0.035278 scale
start_ol
2549 2204 moveto
2714 2485 2942 2618 conicto
3171 2752 3482 2752 conicto
3899 2752 4125 2464 conicto
4352 2177 4352 1646 conicto
4352 0 lineto
3904 0 lineto
3904 1632 lineto
3904 2006 3769 2187 conicto
3634 2368 3356 2368 conicto
3017 2368 2820 2146 conicto
2624 1925 2624 1542 conicto
2624 0 lineto
2176 0 lineto
2176 1632 lineto
2176 2008 2041 2188 conicto
1906 2368 1624 2368 conicto
1289 2368 1092 2145 conicto
896 1922 896 1542 conicto
896 0 lineto
448 0 lineto
448 2688 lineto
896 2688 lineto
896 2304 lineto
1046 2534 1255 2643 conicto
1465 2752 1753 2752 conicto
2044 2752 2247 2611 conicto
2451 2471 2549 2204 conicto
end_ol grestore 
gsave 21.975116 17.890900 translate 0.035278 -0.035278 scale
start_ol
448 3712 moveto
896 3712 lineto
896 0 lineto
448 0 lineto
448 3712 lineto
end_ol grestore 
0.100000 slw
[] 0 sd
[] 0 sd
0 slc
0 slj
0.100000 slw
0 slc
0 slj
[] 0 sd
1.000000 1.000000 1.000000 srgb
n 10.040700 15.045700 m 11.240700 15.045700 l 11.640700 15.445700 l 11.640700 17.045700 l 10.040700 17.045700 l ef
0.000000 0.000000 0.000000 srgb
n 10.040700 15.045700 m 11.240700 15.045700 l 11.640700 15.445700 l 11.640700 17.045700 l 10.040700 17.045700 l cp s
0 slc
0 slj
[] 0 sd
n 11.240700 15.045700 m 11.240700 15.445700 l 11.640700 15.445700 l 11.640700 15.445700 l s
gsave 8.675000 17.865900 translate 0.035278 -0.035278 scale
start_ol
2176 2304 moveto
2176 3712 lineto
2624 3712 lineto
2624 0 lineto
2176 0 lineto
2176 384 lineto
2040 157 1832 46 conicto
1624 -64 1332 -64 conicto
855 -64 555 324 conicto
256 712 256 1344 conicto
256 1976 555 2364 conicto
855 2752 1332 2752 conicto
1624 2752 1832 2641 conicto
2040 2531 2176 2304 conicto
704 1344 moveto
704 865 900 592 conicto
1096 320 1439 320 conicto
1782 320 1979 592 conicto
2176 865 2176 1344 conicto
2176 1823 1979 2095 conicto
1782 2368 1439 2368 conicto
1096 2368 900 2095 conicto
704 1823 704 1344 conicto
end_ol grestore 
gsave 9.082119 17.865900 translate 0.035278 -0.035278 scale
start_ol
1473 2368 moveto
1117 2368 910 2094 conicto
704 1820 704 1344 conicto
704 868 909 594 conicto
1115 320 1473 320 conicto
1827 320 2033 595 conicto
2240 870 2240 1344 conicto
2240 1816 2033 2092 conicto
1827 2368 1473 2368 conicto
1472 2752 moveto
2040 2752 2364 2378 conicto
2688 2005 2688 1344 conicto
2688 685 2364 310 conicto
2040 -64 1472 -64 conicto
902 -64 579 310 conicto
256 685 256 1344 conicto
256 2005 579 2378 conicto
902 2752 1472 2752 conicto
end_ol grestore 
gsave 9.474248 17.865900 translate 0.035278 -0.035278 scale
start_ol
192 2688 moveto
631 2688 lineto
1179 590 lineto
1725 2688 lineto
2243 2688 lineto
2791 590 lineto
3337 2688 lineto
3776 2688 lineto
3077 0 lineto
2560 0 lineto
1985 2203 lineto
1408 0 lineto
891 0 lineto
192 2688 lineto
end_ol grestore 
gsave 9.996255 17.865900 translate 0.035278 -0.035278 scale
start_ol
2688 1646 moveto
2688 0 lineto
2240 0 lineto
2240 1632 lineto
2240 2001 2093 2184 conicto
1947 2368 1654 2368 conicto
1302 2368 1099 2146 conicto
896 1925 896 1542 conicto
896 0 lineto
448 0 lineto
448 2688 lineto
896 2688 lineto
896 2304 lineto
1053 2529 1266 2640 conicto
1479 2752 1757 2752 conicto
2217 2752 2452 2471 conicto
2688 2191 2688 1646 conicto
end_ol grestore 
gsave 10.400869 17.865900 translate 0.035278 -0.035278 scale
start_ol
448 3712 moveto
896 3712 lineto
896 0 lineto
448 0 lineto
448 3712 lineto
end_ol grestore 
gsave 10.578198 17.865900 translate 0.035278 -0.035278 scale
start_ol
1473 2368 moveto
1117 2368 910 2094 conicto
704 1820 704 1344 conicto
704 868 909 594 conicto
1115 320 1473 320 conicto
1827 320 2033 595 conicto
2240 870 2240 1344 conicto
2240 1816 2033 2092 conicto
1827 2368 1473 2368 conicto
1472 2752 moveto
2040 2752 2364 2378 conicto
2688 2005 2688 1344 conicto
2688 685 2364 310 conicto
2040 -64 1472 -64 conicto
902 -64 579 310 conicto
256 685 256 1344 conicto
256 2005 579 2378 conicto
902 2752 1472 2752 conicto
end_ol grestore 
gsave 10.970327 17.865900 translate 0.035278 -0.035278 scale
start_ol
1622 1344 moveto
1104 1344 904 1225 conicto
704 1106 704 818 conicto
704 589 854 454 conicto
1004 320 1262 320 conicto
1618 320 1833 572 conicto
2048 825 2048 1244 conicto
2048 1344 lineto
1622 1344 lineto
2496 1513 moveto
2496 0 lineto
2048 0 lineto
2048 384 lineto
1900 154 1679 45 conicto
1458 -64 1138 -64 conicto
733 -64 494 162 conicto
256 389 256 769 conicto
256 1213 555 1438 conicto
854 1664 1448 1664 conicto
2048 1664 lineto
2048 1712 lineto
2048 2025 1851 2196 conicto
1655 2368 1300 2368 conicto
1074 2368 860 2320 conicto
646 2272 448 2176 conicto
448 2560 lineto
687 2656 912 2704 conicto
1138 2752 1351 2752 conicto
1927 2752 2211 2444 conicto
2496 2137 2496 1513 conicto
end_ol grestore 
gsave 11.362456 17.865900 translate 0.035278 -0.035278 scale
start_ol
2176 2304 moveto
2176 3712 lineto
2624 3712 lineto
2624 0 lineto
2176 0 lineto
2176 384 lineto
2040 157 1832 46 conicto
1624 -64 1332 -64 conicto
855 -64 555 324 conicto
256 712 256 1344 conicto
256 1976 555 2364 conicto
855 2752 1332 2752 conicto
1624 2752 1832 2641 conicto
2040 2531 2176 2304 conicto
704 1344 moveto
704 865 900 592 conicto
1096 320 1439 320 conicto
1782 320 1979 592 conicto
2176 865 2176 1344 conicto
2176 1823 1979 2095 conicto
1782 2368 1439 2368 conicto
1096 2368 900 2095 conicto
704 1823 704 1344 conicto
end_ol grestore 
gsave 11.769575 17.865900 translate 0.035278 -0.035278 scale
start_ol
576 576 moveto
1088 576 lineto
1088 0 lineto
576 0 lineto
576 576 lineto
end_ol grestore 
gsave 11.971882 17.865900 translate 0.035278 -0.035278 scale
start_ol
2688 1646 moveto
2688 0 lineto
2240 0 lineto
2240 1632 lineto
2240 2001 2093 2184 conicto
1947 2368 1654 2368 conicto
1302 2368 1099 2146 conicto
896 1925 896 1542 conicto
896 0 lineto
448 0 lineto
448 3712 lineto
896 3712 lineto
896 2304 lineto
1053 2529 1266 2640 conicto
1479 2752 1757 2752 conicto
2217 2752 2452 2471 conicto
2688 2191 2688 1646 conicto
end_ol grestore 
gsave 12.376496 17.865900 translate 0.035278 -0.035278 scale
start_ol
896 3456 moveto
896 2688 lineto
1792 2688 lineto
1792 2368 lineto
896 2368 lineto
896 902 lineto
896 572 984 478 conicto
1073 384 1345 384 conicto
1792 384 lineto
1792 0 lineto
1345 0 lineto
836 0 642 194 conicto
448 389 448 902 conicto
448 2368 lineto
128 2368 lineto
128 2688 lineto
448 2688 lineto
448 3456 lineto
896 3456 lineto
end_ol grestore 
gsave 12.626263 17.865900 translate 0.035278 -0.035278 scale
start_ol
2549 2204 moveto
2714 2485 2942 2618 conicto
3171 2752 3482 2752 conicto
3899 2752 4125 2464 conicto
4352 2177 4352 1646 conicto
4352 0 lineto
3904 0 lineto
3904 1632 lineto
3904 2006 3769 2187 conicto
3634 2368 3356 2368 conicto
3017 2368 2820 2146 conicto
2624 1925 2624 1542 conicto
2624 0 lineto
2176 0 lineto
2176 1632 lineto
2176 2008 2041 2188 conicto
1906 2368 1624 2368 conicto
1289 2368 1092 2145 conicto
896 1922 896 1542 conicto
896 0 lineto
448 0 lineto
448 2688 lineto
896 2688 lineto
896 2304 lineto
1046 2534 1255 2643 conicto
1465 2752 1753 2752 conicto
2044 2752 2247 2611 conicto
2451 2471 2549 2204 conicto
end_ol grestore 
gsave 13.248174 17.865900 translate 0.035278 -0.035278 scale
start_ol
448 3712 moveto
896 3712 lineto
896 0 lineto
448 0 lineto
448 3712 lineto
end_ol grestore 
0.100000 slw
[] 0 sd
[] 0 sd
0 slc
n 18.256100 15.070700 m 18.271800 11.904400 l s
0.100000 slw
[] 0 sd
[] 0 sd
0 slc
0 slj
0.100000 slw
0 slc
0 slj
[] 0 sd
1.000000 1.000000 1.000000 srgb
n 32.576700 15.063300 m 33.776700 15.063300 l 34.176700 15.463300 l 34.176700 17.063300 l 32.576700 17.063300 l ef
0.000000 0.000000 0.000000 srgb
n 32.576700 15.063300 m 33.776700 15.063300 l 34.176700 15.463300 l 34.176700 17.063300 l 32.576700 17.063300 l cp s
0 slc
0 slj
[] 0 sd
n 33.776700 15.063300 m 33.776700 15.463300 l 34.176700 15.463300 l 34.176700 15.463300 l s
gsave 31.545800 17.883400 translate 0.035278 -0.035278 scale
start_ol
448 3712 moveto
896 3712 lineto
896 0 lineto
448 0 lineto
448 3712 lineto
end_ol grestore 
gsave 31.723129 17.883400 translate 0.035278 -0.035278 scale
start_ol
1473 2368 moveto
1117 2368 910 2094 conicto
704 1820 704 1344 conicto
704 868 909 594 conicto
1115 320 1473 320 conicto
1827 320 2033 595 conicto
2240 870 2240 1344 conicto
2240 1816 2033 2092 conicto
1827 2368 1473 2368 conicto
1472 2752 moveto
2040 2752 2364 2378 conicto
2688 2005 2688 1344 conicto
2688 685 2364 310 conicto
2040 -64 1472 -64 conicto
902 -64 579 310 conicto
256 685 256 1344 conicto
256 2005 579 2378 conicto
902 2752 1472 2752 conicto
end_ol grestore 
gsave 32.115258 17.883400 translate 0.035278 -0.035278 scale
start_ol
2176 1375 moveto
2176 1848 1982 2108 conicto
1789 2368 1439 2368 conicto
1091 2368 897 2108 conicto
704 1848 704 1375 conicto
704 904 897 644 conicto
1091 384 1439 384 conicto
1789 384 1982 644 conicto
2176 904 2176 1375 conicto
2624 347 moveto
2624 -347 2323 -685 conicto
2023 -1024 1404 -1024 conicto
1174 -1024 971 -992 conicto
768 -961 576 -896 conicto
576 -448 lineto
766 -546 951 -593 conicto
1137 -640 1329 -640 conicto
1754 -640 1965 -415 conicto
2176 -190 2176 264 conicto
2176 448 lineto
2042 223 1833 111 conicto
1624 0 1332 0 conicto
848 0 552 376 conicto
256 753 256 1375 conicto
256 1999 552 2375 conicto
848 2752 1332 2752 conicto
1624 2752 1833 2640 conicto
2042 2529 2176 2304 conicto
2176 2688 lineto
2624 2688 lineto
2624 347 lineto
end_ol grestore 
gsave 32.522377 17.883400 translate 0.035278 -0.035278 scale
start_ol
1473 2368 moveto
1117 2368 910 2094 conicto
704 1820 704 1344 conicto
704 868 909 594 conicto
1115 320 1473 320 conicto
1827 320 2033 595 conicto
2240 870 2240 1344 conicto
2240 1816 2033 2092 conicto
1827 2368 1473 2368 conicto
1472 2752 moveto
2040 2752 2364 2378 conicto
2688 2005 2688 1344 conicto
2688 685 2364 310 conicto
2040 -64 1472 -64 conicto
902 -64 579 310 conicto
256 685 256 1344 conicto
256 2005 579 2378 conicto
902 2752 1472 2752 conicto
end_ol grestore 
gsave 32.914506 17.883400 translate 0.035278 -0.035278 scale
start_ol
448 1040 moveto
448 2688 lineto
896 2688 lineto
896 1057 lineto
896 689 1042 504 conicto
1188 320 1481 320 conicto
1832 320 2036 541 conicto
2240 763 2240 1145 conicto
2240 2688 lineto
2688 2688 lineto
2688 0 lineto
2240 0 lineto
2240 384 lineto
2081 157 1870 46 conicto
1660 -64 1382 -64 conicto
923 -64 685 217 conicto
448 499 448 1040 conicto
1554 2752 moveto
1554 2752 lineto
end_ol grestore 
gsave 33.319120 17.883400 translate 0.035278 -0.035278 scale
start_ol
896 3456 moveto
896 2688 lineto
1792 2688 lineto
1792 2368 lineto
896 2368 lineto
896 902 lineto
896 572 984 478 conicto
1073 384 1345 384 conicto
1792 384 lineto
1792 0 lineto
1345 0 lineto
836 0 642 194 conicto
448 389 448 902 conicto
448 2368 lineto
128 2368 lineto
128 2688 lineto
448 2688 lineto
448 3456 lineto
896 3456 lineto
end_ol grestore 
gsave 33.568887 17.883400 translate 0.035278 -0.035278 scale
start_ol
576 576 moveto
1088 576 lineto
1088 0 lineto
576 0 lineto
576 576 lineto
end_ol grestore 
gsave 33.771194 17.883400 translate 0.035278 -0.035278 scale
start_ol
2688 1646 moveto
2688 0 lineto
2240 0 lineto
2240 1632 lineto
2240 2001 2093 2184 conicto
1947 2368 1654 2368 conicto
1302 2368 1099 2146 conicto
896 1925 896 1542 conicto
896 0 lineto
448 0 lineto
448 3712 lineto
896 3712 lineto
896 2304 lineto
1053 2529 1266 2640 conicto
1479 2752 1757 2752 conicto
2217 2752 2452 2471 conicto
2688 2191 2688 1646 conicto
end_ol grestore 
gsave 34.175808 17.883400 translate 0.035278 -0.035278 scale
start_ol
896 3456 moveto
896 2688 lineto
1792 2688 lineto
1792 2368 lineto
896 2368 lineto
896 902 lineto
896 572 984 478 conicto
1073 384 1345 384 conicto
1792 384 lineto
1792 0 lineto
1345 0 lineto
836 0 642 194 conicto
448 389 448 902 conicto
448 2368 lineto
128 2368 lineto
128 2688 lineto
448 2688 lineto
448 3456 lineto
896 3456 lineto
end_ol grestore 
gsave 34.425575 17.883400 translate 0.035278 -0.035278 scale
start_ol
2549 2204 moveto
2714 2485 2942 2618 conicto
3171 2752 3482 2752 conicto
3899 2752 4125 2464 conicto
4352 2177 4352 1646 conicto
4352 0 lineto
3904 0 lineto
3904 1632 lineto
3904 2006 3769 2187 conicto
3634 2368 3356 2368 conicto
3017 2368 2820 2146 conicto
2624 1925 2624 1542 conicto
2624 0 lineto
2176 0 lineto
2176 1632 lineto
2176 2008 2041 2188 conicto
1906 2368 1624 2368 conicto
1289 2368 1092 2145 conicto
896 1922 896 1542 conicto
896 0 lineto
448 0 lineto
448 2688 lineto
896 2688 lineto
896 2304 lineto
1046 2534 1255 2643 conicto
1465 2752 1753 2752 conicto
2044 2752 2247 2611 conicto
2451 2471 2549 2204 conicto
end_ol grestore 
gsave 35.047486 17.883400 translate 0.035278 -0.035278 scale
start_ol
448 3712 moveto
896 3712 lineto
896 0 lineto
448 0 lineto
448 3712 lineto
end_ol grestore 
0.100000 slw
[] 0 sd
[] 0 sd
0 slc
n 33.370300 15.012500 m 33.363300 11.898200 l s
0.100000 slw
[] 0 sd
[] 0 sd
0 slc
n 25.639300 11.936300 m 33.419500 11.935600 l s
0.100000 slw
[] 0 sd
[] 0 sd
0 slc
n 10.834500 11.936300 m 3.431420 11.937500 l s
0.100000 slw
[] 0 sd
[] 0 sd
0 slc
n 3.481420 15.075000 m 3.478060 11.933100 l s
0.100000 slw
[] 0 sd
[] 0 sd
0 slc
0 slj
0.100000 slw
0 slc
0 slj
[] 0 sd
1.000000 1.000000 1.000000 srgb
n 2.684600 15.125700 m 3.884600 15.125700 l 4.284600 15.525700 l 4.284600 17.125700 l 2.684600 17.125700 l ef
0.000000 0.000000 0.000000 srgb
n 2.684600 15.125700 m 3.884600 15.125700 l 4.284600 15.525700 l 4.284600 17.125700 l 2.684600 17.125700 l cp s
0 slc
0 slj
[] 0 sd
n 3.884600 15.125700 m 3.884600 15.525700 l 4.284600 15.525700 l 4.284600 15.525700 l s
gsave 2.206420 17.855300 translate 0.035278 -0.035278 scale
start_ol
448 3712 moveto
896 3712 lineto
896 0 lineto
448 0 lineto
448 3712 lineto
end_ol grestore 
gsave 2.383749 17.855300 translate 0.035278 -0.035278 scale
start_ol
1473 2368 moveto
1117 2368 910 2094 conicto
704 1820 704 1344 conicto
704 868 909 594 conicto
1115 320 1473 320 conicto
1827 320 2033 595 conicto
2240 870 2240 1344 conicto
2240 1816 2033 2092 conicto
1827 2368 1473 2368 conicto
1472 2752 moveto
2040 2752 2364 2378 conicto
2688 2005 2688 1344 conicto
2688 685 2364 310 conicto
2040 -64 1472 -64 conicto
902 -64 579 310 conicto
256 685 256 1344 conicto
256 2005 579 2378 conicto
902 2752 1472 2752 conicto
end_ol grestore 
gsave 2.775878 17.855300 translate 0.035278 -0.035278 scale
start_ol
2176 1375 moveto
2176 1848 1982 2108 conicto
1789 2368 1439 2368 conicto
1091 2368 897 2108 conicto
704 1848 704 1375 conicto
704 904 897 644 conicto
1091 384 1439 384 conicto
1789 384 1982 644 conicto
2176 904 2176 1375 conicto
2624 347 moveto
2624 -347 2323 -685 conicto
2023 -1024 1404 -1024 conicto
1174 -1024 971 -992 conicto
768 -961 576 -896 conicto
576 -448 lineto
766 -546 951 -593 conicto
1137 -640 1329 -640 conicto
1754 -640 1965 -415 conicto
2176 -190 2176 264 conicto
2176 448 lineto
2042 223 1833 111 conicto
1624 0 1332 0 conicto
848 0 552 376 conicto
256 753 256 1375 conicto
256 1999 552 2375 conicto
848 2752 1332 2752 conicto
1624 2752 1833 2640 conicto
2042 2529 2176 2304 conicto
2176 2688 lineto
2624 2688 lineto
2624 347 lineto
end_ol grestore 
gsave 3.182997 17.855300 translate 0.035278 -0.035278 scale
start_ol
448 2688 moveto
896 2688 lineto
896 0 lineto
448 0 lineto
448 2688 lineto
448 3712 moveto
896 3712 lineto
896 3136 lineto
448 3136 lineto
448 3712 lineto
end_ol grestore 
gsave 3.360326 17.855300 translate 0.035278 -0.035278 scale
start_ol
2688 1646 moveto
2688 0 lineto
2240 0 lineto
2240 1632 lineto
2240 2001 2093 2184 conicto
1947 2368 1654 2368 conicto
1302 2368 1099 2146 conicto
896 1925 896 1542 conicto
896 0 lineto
448 0 lineto
448 2688 lineto
896 2688 lineto
896 2304 lineto
1053 2529 1266 2640 conicto
1479 2752 1757 2752 conicto
2217 2752 2452 2471 conicto
2688 2191 2688 1646 conicto
end_ol grestore 
gsave 3.764940 17.855300 translate 0.035278 -0.035278 scale
start_ol
576 576 moveto
1088 576 lineto
1088 0 lineto
576 0 lineto
576 576 lineto
end_ol grestore 
gsave 3.967247 17.855300 translate 0.035278 -0.035278 scale
start_ol
2688 1646 moveto
2688 0 lineto
2240 0 lineto
2240 1632 lineto
2240 2001 2093 2184 conicto
1947 2368 1654 2368 conicto
1302 2368 1099 2146 conicto
896 1925 896 1542 conicto
896 0 lineto
448 0 lineto
448 3712 lineto
896 3712 lineto
896 2304 lineto
1053 2529 1266 2640 conicto
1479 2752 1757 2752 conicto
2217 2752 2452 2471 conicto
2688 2191 2688 1646 conicto
end_ol grestore 
gsave 4.371861 17.855300 translate 0.035278 -0.035278 scale
start_ol
896 3456 moveto
896 2688 lineto
1792 2688 lineto
1792 2368 lineto
896 2368 lineto
896 902 lineto
896 572 984 478 conicto
1073 384 1345 384 conicto
1792 384 lineto
1792 0 lineto
1345 0 lineto
836 0 642 194 conicto
448 389 448 902 conicto
448 2368 lineto
128 2368 lineto
128 2688 lineto
448 2688 lineto
448 3456 lineto
896 3456 lineto
end_ol grestore 
gsave 4.621628 17.855300 translate 0.035278 -0.035278 scale
start_ol
2549 2204 moveto
2714 2485 2942 2618 conicto
3171 2752 3482 2752 conicto
3899 2752 4125 2464 conicto
4352 2177 4352 1646 conicto
4352 0 lineto
3904 0 lineto
3904 1632 lineto
3904 2006 3769 2187 conicto
3634 2368 3356 2368 conicto
3017 2368 2820 2146 conicto
2624 1925 2624 1542 conicto
2624 0 lineto
2176 0 lineto
2176 1632 lineto
2176 2008 2041 2188 conicto
1906 2368 1624 2368 conicto
1289 2368 1092 2145 conicto
896 1922 896 1542 conicto
896 0 lineto
448 0 lineto
448 2688 lineto
896 2688 lineto
896 2304 lineto
1046 2534 1255 2643 conicto
1465 2752 1753 2752 conicto
2044 2752 2247 2611 conicto
2451 2471 2549 2204 conicto
end_ol grestore 
gsave 5.243539 17.855300 translate 0.035278 -0.035278 scale
start_ol
448 3712 moveto
896 3712 lineto
896 0 lineto
448 0 lineto
448 3712 lineto
end_ol grestore 
0.100000 slw
[] 0 sd
[] 0 sd
0 slc
0 slj
0.100000 slw
0 slc
0 slj
[] 0 sd
1.000000 1.000000 1.000000 srgb
n 25.098400 25.090800 m 26.298400 25.090800 l 26.698400 25.490800 l 26.698400 27.090800 l 25.098400 27.090800 l ef
0.000000 0.000000 0.000000 srgb
n 25.098400 25.090800 m 26.298400 25.090800 l 26.698400 25.490800 l 26.698400 27.090800 l 25.098400 27.090800 l cp s
0 slc
0 slj
[] 0 sd
n 26.298400 25.090800 m 26.298400 25.490800 l 26.698400 25.490800 l 26.698400 25.490800 l s
gsave 24.281300 27.911000 translate 0.035278 -0.035278 scale
start_ol
2549 2204 moveto
2714 2485 2942 2618 conicto
3171 2752 3482 2752 conicto
3899 2752 4125 2464 conicto
4352 2177 4352 1646 conicto
4352 0 lineto
3904 0 lineto
3904 1632 lineto
3904 2006 3769 2187 conicto
3634 2368 3356 2368 conicto
3017 2368 2820 2146 conicto
2624 1925 2624 1542 conicto
2624 0 lineto
2176 0 lineto
2176 1632 lineto
2176 2008 2041 2188 conicto
1906 2368 1624 2368 conicto
1289 2368 1092 2145 conicto
896 1922 896 1542 conicto
896 0 lineto
448 0 lineto
448 2688 lineto
896 2688 lineto
896 2304 lineto
1046 2534 1255 2643 conicto
1465 2752 1753 2752 conicto
2044 2752 2247 2611 conicto
2451 2471 2549 2204 conicto
end_ol grestore 
gsave 24.903211 27.911000 translate 0.035278 -0.035278 scale
start_ol
1622 1344 moveto
1104 1344 904 1225 conicto
704 1106 704 818 conicto
704 589 854 454 conicto
1004 320 1262 320 conicto
1618 320 1833 572 conicto
2048 825 2048 1244 conicto
2048 1344 lineto
1622 1344 lineto
2496 1513 moveto
2496 0 lineto
2048 0 lineto
2048 384 lineto
1900 154 1679 45 conicto
1458 -64 1138 -64 conicto
733 -64 494 162 conicto
256 389 256 769 conicto
256 1213 555 1438 conicto
854 1664 1448 1664 conicto
2048 1664 lineto
2048 1712 lineto
2048 2025 1851 2196 conicto
1655 2368 1300 2368 conicto
1074 2368 860 2320 conicto
646 2272 448 2176 conicto
448 2560 lineto
687 2656 912 2704 conicto
1138 2752 1351 2752 conicto
1927 2752 2211 2444 conicto
2496 2137 2496 1513 conicto
end_ol grestore 
gsave 25.295340 27.911000 translate 0.035278 -0.035278 scale
start_ol
448 2688 moveto
896 2688 lineto
896 0 lineto
448 0 lineto
448 2688 lineto
448 3712 moveto
896 3712 lineto
896 3136 lineto
448 3136 lineto
448 3712 lineto
end_ol grestore 
gsave 25.472669 27.911000 translate 0.035278 -0.035278 scale
start_ol
2688 1646 moveto
2688 0 lineto
2240 0 lineto
2240 1632 lineto
2240 2001 2093 2184 conicto
1947 2368 1654 2368 conicto
1302 2368 1099 2146 conicto
896 1925 896 1542 conicto
896 0 lineto
448 0 lineto
448 2688 lineto
896 2688 lineto
896 2304 lineto
1053 2529 1266 2640 conicto
1479 2752 1757 2752 conicto
2217 2752 2452 2471 conicto
2688 2191 2688 1646 conicto
end_ol grestore 
gsave 25.877283 27.911000 translate 0.035278 -0.035278 scale
start_ol
576 576 moveto
1088 576 lineto
1088 0 lineto
576 0 lineto
576 576 lineto
end_ol grestore 
gsave 26.079590 27.911000 translate 0.035278 -0.035278 scale
start_ol
2688 1646 moveto
2688 0 lineto
2240 0 lineto
2240 1632 lineto
2240 2001 2093 2184 conicto
1947 2368 1654 2368 conicto
1302 2368 1099 2146 conicto
896 1925 896 1542 conicto
896 0 lineto
448 0 lineto
448 3712 lineto
896 3712 lineto
896 2304 lineto
1053 2529 1266 2640 conicto
1479 2752 1757 2752 conicto
2217 2752 2452 2471 conicto
2688 2191 2688 1646 conicto
end_ol grestore 
gsave 26.484204 27.911000 translate 0.035278 -0.035278 scale
start_ol
896 3456 moveto
896 2688 lineto
1792 2688 lineto
1792 2368 lineto
896 2368 lineto
896 902 lineto
896 572 984 478 conicto
1073 384 1345 384 conicto
1792 384 lineto
1792 0 lineto
1345 0 lineto
836 0 642 194 conicto
448 389 448 902 conicto
448 2368 lineto
128 2368 lineto
128 2688 lineto
448 2688 lineto
448 3456 lineto
896 3456 lineto
end_ol grestore 
gsave 26.733971 27.911000 translate 0.035278 -0.035278 scale
start_ol
2549 2204 moveto
2714 2485 2942 2618 conicto
3171 2752 3482 2752 conicto
3899 2752 4125 2464 conicto
4352 2177 4352 1646 conicto
4352 0 lineto
3904 0 lineto
3904 1632 lineto
3904 2006 3769 2187 conicto
3634 2368 3356 2368 conicto
3017 2368 2820 2146 conicto
2624 1925 2624 1542 conicto
2624 0 lineto
2176 0 lineto
2176 1632 lineto
2176 2008 2041 2188 conicto
1906 2368 1624 2368 conicto
1289 2368 1092 2145 conicto
896 1922 896 1542 conicto
896 0 lineto
448 0 lineto
448 2688 lineto
896 2688 lineto
896 2304 lineto
1046 2534 1255 2643 conicto
1465 2752 1753 2752 conicto
2044 2752 2247 2611 conicto
2451 2471 2549 2204 conicto
end_ol grestore 
gsave 27.355882 27.911000 translate 0.035278 -0.035278 scale
start_ol
448 3712 moveto
896 3712 lineto
896 0 lineto
448 0 lineto
448 3712 lineto
end_ol grestore 
0.100000 slw
[] 0 sd
[] 0 sd
0 slc
n 25.893700 22.006200 m 25.902200 25.052000 l s
0.100000 slw
[] 0 sd
[] 0 sd
0 slc
0 slj
0.100000 slw
0 slc
0 slj
[] 0 sd
1.000000 1.000000 1.000000 srgb
n 11.846000 25.597000 m 13.046000 25.597000 l 13.446000 25.997000 l 13.446000 27.597000 l 11.846000 27.597000 l ef
0.000000 0.000000 0.000000 srgb
n 11.846000 25.597000 m 13.046000 25.597000 l 13.446000 25.997000 l 13.446000 27.597000 l 11.846000 27.597000 l cp s
0 slc
0 slj
[] 0 sd
n 13.046000 25.597000 m 13.046000 25.997000 l 13.446000 25.997000 l 13.446000 25.997000 l s
gsave 10.837600 28.417200 translate 0.035278 -0.035278 scale
start_ol
2549 2204 moveto
2714 2485 2942 2618 conicto
3171 2752 3482 2752 conicto
3899 2752 4125 2464 conicto
4352 2177 4352 1646 conicto
4352 0 lineto
3904 0 lineto
3904 1632 lineto
3904 2006 3769 2187 conicto
3634 2368 3356 2368 conicto
3017 2368 2820 2146 conicto
2624 1925 2624 1542 conicto
2624 0 lineto
2176 0 lineto
2176 1632 lineto
2176 2008 2041 2188 conicto
1906 2368 1624 2368 conicto
1289 2368 1092 2145 conicto
896 1922 896 1542 conicto
896 0 lineto
448 0 lineto
448 2688 lineto
896 2688 lineto
896 2304 lineto
1046 2534 1255 2643 conicto
1465 2752 1753 2752 conicto
2044 2752 2247 2611 conicto
2451 2471 2549 2204 conicto
end_ol grestore 
gsave 11.459511 28.417200 translate 0.035278 -0.035278 scale
start_ol
1622 1344 moveto
1104 1344 904 1225 conicto
704 1106 704 818 conicto
704 589 854 454 conicto
1004 320 1262 320 conicto
1618 320 1833 572 conicto
2048 825 2048 1244 conicto
2048 1344 lineto
1622 1344 lineto
2496 1513 moveto
2496 0 lineto
2048 0 lineto
2048 384 lineto
1900 154 1679 45 conicto
1458 -64 1138 -64 conicto
733 -64 494 162 conicto
256 389 256 769 conicto
256 1213 555 1438 conicto
854 1664 1448 1664 conicto
2048 1664 lineto
2048 1712 lineto
2048 2025 1851 2196 conicto
1655 2368 1300 2368 conicto
1074 2368 860 2320 conicto
646 2272 448 2176 conicto
448 2560 lineto
687 2656 912 2704 conicto
1138 2752 1351 2752 conicto
1927 2752 2211 2444 conicto
2496 2137 2496 1513 conicto
end_ol grestore 
gsave 11.851640 28.417200 translate 0.035278 -0.035278 scale
start_ol
1984 2304 moveto
1912 2337 1828 2352 conicto
1744 2368 1642 2368 conicto
1282 2368 1089 2127 conicto
896 1887 896 1437 conicto
896 0 lineto
448 0 lineto
448 2688 lineto
896 2688 lineto
896 2304 lineto
1030 2531 1245 2641 conicto
1460 2752 1767 2752 conicto
1811 2752 1864 2752 conicto
1917 2752 1982 2752 conicto
1984 2304 lineto
end_ol grestore 
gsave 12.113892 28.417200 translate 0.035278 -0.035278 scale
start_ol
448 3712 moveto
896 3712 lineto
896 1529 lineto
2196 2688 lineto
2752 2688 lineto
1346 1430 lineto
2816 0 lineto
2246 0 lineto
896 1313 lineto
896 0 lineto
448 0 lineto
448 3712 lineto
end_ol grestore 
gsave 12.483540 28.417200 translate 0.035278 -0.035278 scale
start_ol
2112 2560 moveto
2112 2176 lineto
1932 2272 1738 2320 conicto
1544 2368 1336 2368 conicto
1020 2368 862 2269 conicto
704 2170 704 1972 conicto
704 1821 814 1735 conicto
925 1649 1260 1571 conicto
1403 1538 lineto
1857 1438 2048 1255 conicto
2240 1072 2240 744 conicto
2240 371 1954 153 conicto
1668 -64 1167 -64 conicto
958 -64 732 -16 conicto
506 32 256 128 conicto
256 576 lineto
491 448 719 384 conicto
947 320 1170 320 conicto
1470 320 1631 425 conicto
1792 531 1792 722 conicto
1792 900 1678 994 conicto
1564 1089 1177 1177 conicto
1032 1212 lineto
621 1298 438 1476 conicto
256 1654 256 1964 conicto
256 2341 520 2546 conicto
784 2752 1269 2752 conicto
1509 2752 1721 2704 conicto
1933 2656 2112 2560 conicto
end_ol grestore 
gsave 12.815724 28.417200 translate 0.035278 -0.035278 scale
start_ol
576 576 moveto
1088 576 lineto
1088 0 lineto
576 0 lineto
576 576 lineto
end_ol grestore 
gsave 13.018031 28.417200 translate 0.035278 -0.035278 scale
start_ol
2688 1646 moveto
2688 0 lineto
2240 0 lineto
2240 1632 lineto
2240 2001 2093 2184 conicto
1947 2368 1654 2368 conicto
1302 2368 1099 2146 conicto
896 1925 896 1542 conicto
896 0 lineto
448 0 lineto
448 3712 lineto
896 3712 lineto
896 2304 lineto
1053 2529 1266 2640 conicto
1479 2752 1757 2752 conicto
2217 2752 2452 2471 conicto
2688 2191 2688 1646 conicto
end_ol grestore 
gsave 13.422645 28.417200 translate 0.035278 -0.035278 scale
start_ol
896 3456 moveto
896 2688 lineto
1792 2688 lineto
1792 2368 lineto
896 2368 lineto
896 902 lineto
896 572 984 478 conicto
1073 384 1345 384 conicto
1792 384 lineto
1792 0 lineto
1345 0 lineto
836 0 642 194 conicto
448 389 448 902 conicto
448 2368 lineto
128 2368 lineto
128 2688 lineto
448 2688 lineto
448 3456 lineto
896 3456 lineto
end_ol grestore 
gsave 13.672412 28.417200 translate 0.035278 -0.035278 scale
start_ol
2549 2204 moveto
2714 2485 2942 2618 conicto
3171 2752 3482 2752 conicto
3899 2752 4125 2464 conicto
4352 2177 4352 1646 conicto
4352 0 lineto
3904 0 lineto
3904 1632 lineto
3904 2006 3769 2187 conicto
3634 2368 3356 2368 conicto
3017 2368 2820 2146 conicto
2624 1925 2624 1542 conicto
2624 0 lineto
2176 0 lineto
2176 1632 lineto
2176 2008 2041 2188 conicto
1906 2368 1624 2368 conicto
1289 2368 1092 2145 conicto
896 1922 896 1542 conicto
896 0 lineto
448 0 lineto
448 2688 lineto
896 2688 lineto
896 2304 lineto
1046 2534 1255 2643 conicto
1465 2752 1753 2752 conicto
2044 2752 2247 2611 conicto
2451 2471 2549 2204 conicto
end_ol grestore 
gsave 14.294323 28.417200 translate 0.035278 -0.035278 scale
start_ol
448 3712 moveto
896 3712 lineto
896 0 lineto
448 0 lineto
448 3712 lineto
end_ol grestore 
0.100000 slw
[] 0 sd
[] 0 sd
0 slc
n 12.646400 25.545800 m 12.645100 21.937700 l s
0.100000 slw
[] 0 sd
[] 0 sd
0 slc
n 12.596400 21.982100 m 19.134600 21.985200 l s
showpage
