\relax 
\@setckpt{estandares}{
\setcounter{page}{2}
\setcounter{equation}{0}
\setcounter{enumi}{3}
\setcounter{enumii}{0}
\setcounter{enumiii}{0}
\setcounter{enumiv}{0}
\setcounter{footnote}{0}
\setcounter{mpfootnote}{0}
\setcounter{part}{0}
\setcounter{chapter}{0}
\setcounter{section}{0}
\setcounter{subsection}{0}
\setcounter{subsubsection}{0}
\setcounter{paragraph}{0}
\setcounter{subparagraph}{0}
\setcounter{figure}{0}
\setcounter{table}{0}
\setcounter{lstlisting}{0}
\setcounter{lstnumber}{1}
\setcounter{parentequation}{0}
\setcounter{Item}{3}
\setcounter{r@tfl@t}{0}
\setcounter{LT@tables}{0}
\setcounter{LT@chunks}{0}
\setcounter{subfigure}{0}
\setcounter{lofdepth}{1}
\setcounter{subtable}{0}
\setcounter{lotdepth}{1}
\setcounter{float@type}{8}
\setcounter{section@level}{0}
}
