%!PS-Adobe-2.0 EPSF-2.0
%%BoundingBox: 1 1 1621 651
%%HiResBoundingBox: 1.500000 1.000000 1621.000000 650.500000
%.......................................
%%Creator: GPL Ghostscript 864 (pswrite)
%%CreationDate: 2009/09/18 01:11:02
%%DocumentData: Clean7Bit
%%LanguageLevel: 2
%%EndComments
% EPSF created by ps2eps 1.64
%%BeginProlog
save
countdictstack
mark
newpath
/showpage {} def
/setpagedevice {pop} def
%%EndProlog
%%Page 1 1
%%BeginProlog
% This copyright applies to everything between here and the %%EndProlog:
% Copyright (C) 2009 Artifex Software, Inc.  All rights reserved.
%%BeginResource: procset GS_pswrite_2_0_1001 1.001 0
/GS_pswrite_2_0_1001 80 dict dup begin
/PageSize 2 array def/setpagesize{ PageSize aload pop 3 index eq exch
4 index eq and{ pop pop pop}{ PageSize dup  1
5 -1 roll put 0 4 -1 roll put dup null eq {false} {dup where} ifelse{ exch get exec}
{ pop/setpagedevice where
{ pop 1 dict dup /PageSize PageSize put setpagedevice}
{ /setpage where{ pop PageSize aload pop pageparams 3 {exch pop} repeat
setpage}if}ifelse}ifelse}ifelse} bind def
/!{bind def}bind def/#{load def}!/N/counttomark #
/rG{3{3 -1 roll 255 div}repeat setrgbcolor}!/G{255 div setgray}!/K{0 G}!
/r6{dup 3 -1 roll rG}!/r5{dup 3 1 roll rG}!/r3{dup rG}!
/w/setlinewidth #/J/setlinecap #
/j/setlinejoin #/M/setmiterlimit #/d/setdash #/i/setflat #
/m/moveto #/l/lineto #/c/rcurveto #
/p{N 2 idiv{N -2 roll rlineto}repeat}!
/P{N 0 gt{N -2 roll moveto p}if}!
/h{p closepath}!/H{P closepath}!
/lx{0 rlineto}!/ly{0 exch rlineto}!/v{0 0 6 2 roll c}!/y{2 copy c}!
/re{4 -2 roll m exch dup lx exch ly neg lx h}!
/^{3 index neg 3 index neg}!
/f{P fill}!/f*{P eofill}!/s{H stroke}!/S{P stroke}!
/q/gsave #/Q/grestore #/rf{re fill}!
/Y{P clip newpath}!/Y*{P eoclip newpath}!/rY{re Y}!
/|={pop exch 4 1 roll 1 array astore cvx 3 array astore cvx exch 1 index def exec}!
/|{exch string readstring |=}!
/+{dup type/nametype eq{2 index 7 add -3 bitshift 2 index mul}if}!
/@/currentfile #/${+ @ |}!
/B{{2 copy string{readstring pop}aload pop 4 array astore cvx
3 1 roll}repeat pop pop true}!
/Ix{[1 0 0 1 11 -2 roll exch neg exch neg]exch}!
/,{true exch Ix imagemask}!/If{false exch Ix imagemask}!/I{exch Ix image}!
/Ic{exch Ix false 3 colorimage}!
/F{/Columns counttomark 3 add -2 roll/Rows exch/K -1/BlackIs1 true>>
/CCITTFaxDecode filter}!/FX{<</EndOfBlock false F}!
/X{/ASCII85Decode filter}!/@X{@ X}!/&2{2 index 2 index}!
/@F{@ &2<<F}!/@C{@X &2 FX}!
/$X{+ @X |}!/&4{4 index 4 index}!/$F{+ @ &4<<F |}!/$C{+ @X &4 FX |}!
/IC{3 1 roll 10 dict begin 1{/ImageType/Interpolate/Decode/DataSource
/ImageMatrix/BitsPerComponent/Height/Width}{exch def}forall
currentdict end image}!
/~{@ read {pop} if}!
end def
%%EndResource
/pagesave null def
%%EndProlog
%%Page: 1 1
%%PageBoundingBox: 0 0 1624 651
%%%%BeginPageSetup
GS_pswrite_2_0_1001 begin
1624 651 null setpagesize
/pagesave save store 197 dict begin
0.1 0.1 scale
%%EndPageSetup
gsave mark
Q q
0 0 16240 0 0 6510 ^ Y
255 G
5279.35 6492.03 340.15 0 113.38 -113.38 0 -453.55 -453.53 0 f*
28.346 w
K
5279.35 6492.03 340.15 0 113.38 -113.38 0 -453.55 -453.53 0 H
S
5619.5 6492.03 0 -113.38 113.38 0 0 0 S
5184.87 5741.89 m
0 11.71 -2.41 20.89 -7.21 27.54 c
-4.8 6.68 -11.39 10.01 -19.77 10.01 c
-8.38 0 -14.99 -3.33 -19.79 -10.01 c
-4.79 -6.65 -7.18 -15.83 -7.18 -27.54 c
0 -11.7 2.39 -20.89 7.18 -27.56 c
4.8 -6.65 11.41 -9.98 19.79 -9.98 c
8.38 0 14.98 3.32 19.77 9.98 c
4.8 6.68 7.21 15.86 7.21 27.56 c
5130.91 5777.09 m
3.32 5.55 7.53 9.68 12.61 12.36 c
5.08 2.71 11.16 4.07 18.22 4.07 c
11.73 0 21.26 -4.74 28.56 -14.23 c
7.34 -9.48 11 -21.95 11 -37.41 c
0 -15.44 -3.66 -27.91 -11 -37.39 c
-7.3 -9.49 -16.83 -14.23 -28.56 -14.23 c
-7.06 0 -13.14 1.34 -18.22 4.03 c
-5.08 2.71 -9.29 6.85 -12.61 12.4 c
0 -14.08 -16.43 0 0 136.11 ^ 0 -51.63 p f
5272.93 5741.89 m
-12.66 0 -21.45 -1.45 -26.32 -4.36 c
-4.89 -2.91 -7.34 -7.88 -7.34 -14.93 c
0 -5.6 1.84 -10.04 5.5 -13.34 c
3.66 -3.28 8.66 -4.92 14.96 -4.92 c
8.71 0 15.69 3.08 20.95 9.23 c
5.25 6.19 7.88 14.4 7.88 24.64 c
0 3.66 -15.62 0 p
5304.96 5748.09 0 -55.47 -16.42 0 0 14.08 P
-3.62 -5.62 -8.13 -9.77 -13.54 -12.43 c
-5.39 -2.66 -12.01 -4 -19.82 -4 c
-9.91 0 -17.78 2.76 -23.62 8.29 c
-5.81 5.55 -8.72 12.96 -8.72 22.25 c
0 10.85 3.65 19.03 10.96 24.53 c
7.32 5.53 18.23 8.28 32.75 8.28 c
22 0 0 1.76 p
0 7.66 -2.41 13.57 -7.23 17.75 c
-4.79 4.21 -11.52 6.31 -20.2 6.31 c
-5.52 0 -10.91 -0.59 -16.13 -1.76 c
-5.24 -1.17 -10.27 -2.93 -15.11 -5.28 c
0 14.08 p
5.85 2.34 11.52 4.11 17.02 5.28 c
5.52 1.18 10.89 1.76 16.1 1.76 c
14.08 0 24.59 -3.77 31.54 -11.29 c
6.96 -7.5 10.44 -18.88 10.44 -34.14 c
f
5402.04 5786.48 0 -14.08 P
-4.39 2.34 -8.96 4.11 -13.71 5.28 c
-4.74 1.18 -9.64 1.76 -14.73 1.76 c
-7.73 0 -13.52 -1.21 -17.38 -3.63 c
-3.86 -2.41 -5.79 -6.05 -5.79 -10.88 c
0 -3.7 1.34 -6.6 4.03 -8.7 c
2.71 -2.09 8.17 -4.09 16.35 -6.01 c
5.25 -1.2 p
11.09 -2.45 18.98 -5.9 23.65 -10.37 c
4.69 -4.47 7.04 -10.71 7.04 -18.74 c
0 -9.11 -3.49 -16.34 -10.48 -21.66 c
-7 -5.3 -16.61 -7.96 -28.86 -7.96 c
-5.1 0 -10.42 0.59 -15.95 1.76 c
-5.51 1.17 -11.34 2.93 -17.45 5.28 c
0 16.43 p
5.75 -3.14 11.4 -5.48 16.97 -7.04 c
5.58 -1.57 11.09 -2.35 16.54 -2.35 c
7.34 0 12.98 1.29 16.91 3.86 c
3.94 2.59 5.9 6.21 5.9 10.88 c
0 4.35 -1.38 7.68 -4.17 9.98 c
-2.79 2.32 -8.91 4.56 -18.37 6.71 c
-5.32 1.29 p
-10.04 2.1 -17.3 5.34 -21.77 9.69 c
-4.45 4.35 -6.68 10.32 -6.68 17.89 c
0 9.21 3.22 16.33 9.68 21.34 c
6.45 5.03 15.61 7.55 27.46 7.55 c
5.87 0 11.39 -0.59 16.57 -1.76 c
5.2 -1.17 9.96 -2.93 14.34 -5.28 c
f
5519.67 5746.88 0 -7.34 -75.09 0 P
0.71 -11.46 4.05 -20.2 10.04 -26.21 c
5.99 -5.99 14.32 -8.98 25.01 -8.98 c
6.21 0 12.22 0.78 18.04 2.35 c
5.81 1.56 11.58 3.91 17.3 7.04 c
0 -14.08 p
-5.77 -3.05 -11.68 -5.39 -17.74 -7.01 c
-6.04 -1.58 -12.17 -2.38 -18.37 -2.38 c
-15.6 0 -27.95 4.56 -37.07 13.67 c
-9.09 9.14 -13.64 21.51 -13.64 37.07 c
0 16.11 4.36 28.88 13.08 38.32 c
8.73 9.46 20.5 14.19 35.32 14.19 c
13.29 0 23.8 -4.18 31.53 -12.54 c
7.73 -8.36 11.59 -19.73 11.59 -34.1 c
5503.24 5751.29 m
-0.12 8.55 -2.62 15.38 -7.52 20.49 c
-4.86 5.1 -11.3 7.66 -19.32 7.66 c
-9.1 0 -16.38 -2.47 -21.86 -7.41 c
-5.45 -4.94 -8.59 -11.89 -9.42 -20.87 c
58.12 0.12 p f
5551.74 5692.62 18.7773 21.1211 re
f
5686.53 5752.97 0 -60.36 -16.43 0 0 59.84 P
0 9.02 -1.79 15.77 -5.39 20.23 c
-3.57 4.51 -8.93 6.75 -16.1 6.75 c
-8.6 0 -15.39 -2.71 -20.35 -8.14 c
-4.96 -5.4 -7.45 -12.79 -7.45 -22.15 c
0 -56.54 -16.42 0 0 136.11 ^ 0 -51.63 p
3.84 5.5 8.36 9.61 13.57 12.32 c
5.2 2.73 11.2 4.11 18 4.11 c
11.25 0 19.74 -3.43 25.48 -10.31 c
5.77 -6.84 8.66 -16.93 8.66 -30.24 c
f
5735.52 5819.34 0 -28.16 32.84 0 0 -11.73 ^ 0 -53.76 P
0 -8.06 1.07 -13.24 3.22 -15.54 c
2.18 -2.29 6.59 -3.44 13.24 -3.44 c
16.38 0 0 -14.08 ^ p
-12.44 0 -21.03 2.37 -25.78 7.11 c
-4.74 4.77 -7.11 13.43 -7.11 25.96 c
0 53.76 -11.73 0 0 11.73 ^ 0 28.16 16.43 0 p f
5866.92 5773.43 m
4.04 6.86 8.84 11.93 14.41 15.18 c
5.6 3.27 12.2 4.91 19.79 4.91 c
10.2 0 18.05 -3.52 23.58 -10.56 c
5.55 -7.02 8.33 -17.02 8.33 -29.99 c
0 -60.36 -16.43 0 0 59.84 p
0 9.14 -1.65 15.93 -4.95 20.36 c
-3.3 4.41 -8.35 6.63 -15.14 6.63 c
-8.29 0 -14.83 -2.71 -19.65 -8.14 c
-4.79 -5.4 -7.18 -12.79 -7.18 -22.15 c
0 -56.54 -16.43 0 0 59.84 p
0 9.19 -1.65 16 -4.95 20.39 c
-3.3 4.39 -8.4 6.6 -15.29 6.6 c
-8.19 0 -14.69 -2.72 -19.52 -8.17 c
-4.78 -5.46 -7.18 -12.83 -7.18 -22.12 c
0 -56.54 -16.43 0 0 98.56 ^ 0 -14.08 p
3.66 5.63 8.06 9.77 13.16 12.43 c
5.14 2.66 11.22 4 18.27 4 c
7.11 0 13.15 -1.73 18.11 -5.17 c
4.99 -3.42 8.68 -8.4 11.07 -14.92 c
f
5966.18 5692.62 16.4258 136.109 re
f
5509.06 5393.87 0 -811.6 1173.41 0 0 -866.98 S
255 G
5622.45 5393.87 -113.38 226.76 -113.38 -226.76 f*
K
5622.45 5393.87 -113.38 226.76 -113.38 -226.76 H
S
5518.58 4582.24 -1013.36 0 S
255 G
6455.71 3702.1 340.15 0 113.38 -113.38 0 -453.54 -453.53 0 f*
K
6455.71 3702.1 340.15 0 113.38 -113.38 0 -453.54 -453.53 0 H
S
6795.86 3702.1 0 -113.38 113.38 0 0 0 S
6113.2 2951.97 m
0 11.7 -2.4 20.88 -7.21 27.53 c
-4.79 6.68 -11.38 10.01 -19.76 10.01 c
-8.39 0 -14.99 -3.33 -19.8 -10.01 c
-4.79 -6.65 -7.18 -15.83 -7.18 -27.53 c
0 -11.71 2.39 -20.9 7.18 -27.57 c
4.82 -6.66 11.41 -9.98 19.8 -9.98 c
8.38 0 14.97 3.32 19.76 9.98 c
4.82 6.67 7.21 15.86 7.21 27.57 c
6059.23 2987.16 m
3.32 5.55 7.53 9.68 12.61 12.36 c
5.09 2.72 11.16 4.07 18.23 4.07 c
11.73 0 21.26 -4.74 28.56 -14.23 c
7.33 -9.49 10.99 -21.95 10.99 -37.39 c
0 -15.45 -3.66 -27.92 -10.99 -37.41 c
-7.3 -9.49 -16.84 -14.23 -28.56 -14.23 c
-7.07 0 -13.14 1.34 -18.23 4.03 c
-5.08 2.71 -9.29 6.85 -12.61 12.4 c
0 -14.08 -16.43 0 0 136.11 ^ 0 -51.63 p f
6201.25 2951.97 m
-12.66 0 -21.43 -1.46 -26.32 -4.37 c
-4.89 -2.9 -7.33 -7.88 -7.33 -14.93 c
0 -5.59 1.82 -10.04 5.49 -13.34 c
3.66 -3.27 8.66 -4.91 14.97 -4.91 c
8.7 0 15.68 3.08 20.93 9.25 c
5.26 6.18 7.88 14.39 7.88 24.63 c
0 3.68 -15.62 0 p
6233.3 2958.16 0 -55.47 -16.43 0 0 14.08 P
-3.62 -5.62 -8.12 -9.77 -13.53 -12.43 c
-5.41 -2.67 -12.01 -4 -19.84 -4 c
-9.9 0 -17.77 2.77 -23.61 8.29 c
-5.81 5.55 -8.72 12.96 -8.72 22.25 c
0 10.85 3.65 19.03 10.96 24.53 c
7.3 5.52 18.22 8.28 32.75 8.28 c
22 0 0 1.76 p
0 7.66 -2.4 13.57 -7.22 17.75 c
-4.79 4.21 -11.52 6.31 -20.2 6.31 c
-5.52 0 -10.9 -0.59 -16.14 -1.76 c
-5.23 -1.17 -10.26 -2.93 -15.1 -5.28 c
0 14.08 p
5.84 2.35 11.52 4.11 17 5.28 c
5.54 1.18 10.89 1.76 16.11 1.76 c
14.08 0 24.59 -3.77 31.53 -11.29 c
6.96 -7.5 10.45 -18.89 10.45 -34.14 c
f
6330.37 2996.55 0 -14.08 P
-4.41 2.34 -8.96 4.11 -13.71 5.28 c
-4.75 1.18 -9.65 1.76 -14.75 1.76 c
-7.71 0 -13.5 -1.21 -17.38 -3.63 c
-3.85 -2.41 -5.79 -6.04 -5.79 -10.88 c
0 -3.7 1.35 -6.6 4.03 -8.69 c
2.72 -2.11 8.17 -4.11 16.36 -6.01 c
5.25 -1.22 p
11.09 -2.45 18.98 -5.9 23.65 -10.37 c
4.69 -4.47 7.04 -10.71 7.04 -18.74 c
0 -9.11 -3.5 -16.34 -10.48 -21.66 c
-7 -5.3 -16.62 -7.96 -28.86 -7.96 c
-5.11 0 -10.43 0.59 -15.95 1.76 c
-5.52 1.17 -11.35 2.93 -17.46 5.28 c
0 16.43 p
5.75 -3.13 11.4 -5.48 16.98 -7.04 c
5.58 -1.56 11.08 -2.35 16.54 -2.35 c
7.33 0 12.96 1.29 16.91 3.85 c
3.93 2.59 5.9 6.22 5.9 10.88 c
0 4.35 -1.39 7.68 -4.18 9.98 c
-2.78 2.32 -8.91 4.56 -18.36 6.71 c
-5.32 1.29 p
-10.05 2.1 -17.31 5.34 -21.79 9.68 c
-4.45 4.35 -6.68 10.32 -6.68 17.89 c
0 9.22 3.23 16.33 9.69 21.34 c
6.45 5.04 15.61 7.55 27.45 7.55 c
5.88 0 11.4 -0.59 16.58 -1.76 c
5.18 -1.17 9.95 -2.93 14.34 -5.28 c
f
6447.99 2956.95 0 -7.34 -75.09 0 P
0.71 -11.46 4.07 -20.2 10.05 -26.2 c
5.99 -5.99 14.31 -8.99 25.01 -8.99 c
6.21 0 12.22 0.79 18.03 2.35 c
5.82 1.56 11.59 3.91 17.32 7.04 c
0 -14.08 p
-5.77 -3.06 -11.69 -5.39 -17.75 -7.01 c
-6.05 -1.59 -12.17 -2.38 -18.38 -2.38 c
-15.6 0 -27.95 4.56 -37.07 13.67 c
-9.09 9.14 -13.64 21.51 -13.64 37.07 c
0 16.11 4.36 28.88 13.09 38.32 c
8.73 9.46 20.49 14.19 35.3 14.19 c
13.3 0 23.81 -4.18 31.54 -12.54 c
7.73 -8.36 11.58 -19.73 11.58 -34.1 c
6431.57 2961.36 m
-0.11 8.55 -2.62 15.38 -7.51 20.49 c
-4.87 5.11 -11.31 7.66 -19.33 7.66 c
-9.09 0 -16.37 -2.47 -21.85 -7.41 c
-5.46 -4.94 -8.59 -11.89 -9.42 -20.87 c
58.11 0.12 p f
6456.61 2860.44 93.8633 11.7305 re
f
6643.04 2983.5 m
4.03 6.86 8.84 11.93 14.4 15.18 c
5.6 3.27 12.2 4.91 19.8 4.91 c
10.2 0 18.05 -3.52 23.58 -10.56 c
5.55 -7.02 8.32 -17.02 8.32 -29.99 c
0 -60.36 -16.43 0 0 59.84 p
0 9.14 -1.65 15.93 -4.96 20.36 c
-3.3 4.42 -8.34 6.63 -15.13 6.63 c
-8.29 0 -14.84 -2.71 -19.66 -8.14 c
-4.78 -5.4 -7.18 -12.79 -7.18 -22.15 c
0 -56.54 -16.43 0 0 59.84 p
0 9.2 -1.65 16 -4.95 20.39 c
-3.3 4.41 -8.39 6.6 -15.29 6.6 c
-8.19 0 -14.69 -2.72 -19.51 -8.17 c
-4.79 -5.46 -7.18 -12.82 -7.18 -22.12 c
0 -56.54 -16.43 0 0 98.56 ^ 0 -14.08 p
3.66 5.63 8.06 9.77 13.16 12.43 c
5.14 2.67 11.22 4 18.25 4 c
7.12 0 13.15 -1.73 18.11 -5.17 c
4.99 -3.42 8.68 -8.4 11.08 -14.92 c
f
6785.34 2951.97 m
-12.66 0 -21.45 -1.46 -26.32 -4.37 c
-4.89 -2.9 -7.34 -7.88 -7.34 -14.93 c
0 -5.59 1.84 -10.04 5.5 -13.34 c
3.66 -3.27 8.66 -4.91 14.97 -4.91 c
8.69 0 15.68 3.08 20.93 9.25 c
5.26 6.18 7.88 14.39 7.88 24.63 c
0 3.68 -15.62 0 p
6817.38 2958.16 0 -55.47 -16.43 0 0 14.08 P
-3.62 -5.62 -8.12 -9.77 -13.53 -12.43 c
-5.4 -2.67 -12.01 -4 -19.84 -4 c
-9.91 0 -17.77 2.77 -23.61 8.29 c
-5.82 5.55 -8.73 12.96 -8.73 22.25 c
0 10.85 3.66 19.03 10.97 24.53 c
7.3 5.52 18.22 8.28 32.74 8.28 c
22 0 0 1.76 p
0 7.66 -2.41 13.57 -7.23 17.75 c
-4.79 4.21 -11.52 6.31 -20.2 6.31 c
-5.52 0 -10.89 -0.59 -16.13 -1.76 c
-5.23 -1.17 -10.26 -2.93 -15.11 -5.28 c
0 14.08 p
5.84 2.35 11.51 4.11 17.01 5.28 c
5.53 1.18 10.89 1.76 16.1 1.76 c
14.08 0 24.6 -3.77 31.54 -11.29 c
6.96 -7.5 10.45 -18.89 10.45 -34.14 c
f
6853.44 3001.24 16.43 0 0 -98.56 ^ ^ P
6853.44 3038.79 16.43 0 0 -21.12 ^ ^ f
6985.84 2963.04 0 -60.36 -16.43 0 0 59.84 P
0 9.02 -1.79 15.77 -5.39 20.25 c
-3.56 4.5 -8.93 6.74 -16.09 6.74 c
-8.6 0 -15.39 -2.71 -20.35 -8.14 c
-4.96 -5.4 -7.44 -12.79 -7.44 -22.15 c
0 -56.54 -16.43 0 0 98.56 ^ 0 -14.08 p
3.83 5.5 8.36 9.61 13.56 12.32 c
5.2 2.73 11.21 4.11 18 4.11 c
11.25 0 19.74 -3.43 25.48 -10.31 c
5.77 -6.84 8.66 -16.93 8.66 -30.24 c
f
7023.09 2902.68 18.7734 21.1211 re
f
7157.87 2963.04 0 -60.36 -16.42 0 0 59.84 P
0 9.02 -1.8 15.77 -5.39 20.25 c
-3.58 4.5 -8.93 6.74 -16.1 6.74 c
-8.6 0 -15.39 -2.71 -20.35 -8.14 c
-4.96 -5.4 -7.45 -12.79 -7.45 -22.15 c
0 -56.54 -16.43 0 0 136.11 ^ 0 -51.63 p
3.84 5.5 8.36 9.61 13.57 12.32 c
5.2 2.73 11.2 4.11 18 4.11 c
11.25 0 19.74 -3.43 25.48 -10.31 c
5.77 -6.84 8.65 -16.93 8.65 -30.24 c
f
7206.86 3029.41 0 -28.16 32.86 0 0 -11.73 ^ 0 -53.75 P
0 -8.07 1.09 -13.25 3.23 -15.55 c
2.18 -2.29 6.59 -3.44 13.24 -3.44 c
16.38 0 0 -14.08 ^ p
-12.44 0 -21.04 2.37 -25.78 7.12 c
-4.74 4.76 -7.11 13.42 -7.11 25.96 c
0 53.75 -11.73 0 0 11.73 ^ 0 28.16 16.42 0 p f
7338.27 2983.5 m
4.04 6.86 8.84 11.93 14.41 15.18 c
5.6 3.27 12.2 4.91 19.79 4.91 c
10.2 0 18.05 -3.52 23.58 -10.56 c
5.55 -7.02 8.33 -17.02 8.33 -29.99 c
0 -60.36 -16.43 0 0 59.84 p
0 9.14 -1.65 15.93 -4.95 20.36 c
-3.3 4.42 -8.35 6.63 -15.14 6.63 c
-8.29 0 -14.83 -2.71 -19.65 -8.14 c
-4.79 -5.4 -7.18 -12.79 -7.18 -22.15 c
0 -56.54 -16.43 0 0 59.84 p
0 9.2 -1.65 16 -4.96 20.39 c
-3.3 4.41 -8.39 6.6 -15.29 6.6 c
-8.18 0 -14.69 -2.72 -19.51 -8.17 c
-4.78 -5.46 -7.18 -12.82 -7.18 -22.12 c
0 -56.54 -16.43 0 0 98.56 ^ 0 -14.08 p
3.66 5.63 8.06 9.77 13.16 12.43 c
5.14 2.67 11.21 4 18.25 4 c
7.12 0 13.16 -1.73 18.12 -5.17 c
4.98 -3.42 8.68 -8.4 11.07 -14.92 c
f
7437.52 2902.68 16.4258 136.109 re
f
6715.33 2537.99 0 -804.52 -1923.45 0 0 -875.89 S
255 G
6828.71 2537.99 -113.38 226.76 -113.38 -226.76 f*
K
6828.71 2537.99 -113.38 226.76 -113.38 -226.76 H
S
8555.06 832.89 -0.05 902.48 S
6709.09 1734.38 1853.29 -0.89 S
4535.71 4582.7 -2095.95 -0.77 S
2447.46 3702.1 -0.53 887.25 S
255 G
4351.02 3702.1 340.14 0 113.39 -113.38 0 -453.54 -453.54 0 f*
K
4351.02 3702.1 340.14 0 113.39 -113.38 0 -453.54 -453.54 0 H
S
4691.16 3702.1 0 -113.38 113.39 0 0 0 S
3756.2 2956.95 0 -7.34 -75.09 0 P
0.71 -11.46 4.05 -20.2 10.04 -26.2 c
5.99 -5.99 14.32 -8.99 25.01 -8.99 c
6.21 0 12.22 0.79 18.04 2.35 c
5.81 1.56 11.58 3.91 17.3 7.04 c
0 -14.08 p
-5.77 -3.06 -11.68 -5.39 -17.75 -7.01 c
-6.04 -1.59 -12.16 -2.38 -18.37 -2.38 c
-15.6 0 -27.95 4.56 -37.07 13.67 c
-9.09 9.14 -13.64 21.51 -13.64 37.07 c
0 16.11 4.36 28.88 13.09 38.32 c
8.73 9.46 20.5 14.19 35.31 14.19 c
13.3 0 23.81 -4.18 31.54 -12.54 c
7.71 -8.36 11.58 -19.73 11.58 -34.1 c
3739.77 2961.36 m
-0.12 8.55 -2.62 15.38 -7.52 20.49 c
-4.86 5.11 -11.3 7.66 -19.32 7.66 c
-9.1 0 -16.37 -2.47 -21.85 -7.41 c
-5.46 -4.94 -8.6 -11.89 -9.43 -20.87 c
58.12 0.12 p f
3860.54 3001.24 -35.13 -47.96 37.47 -50.6 -19.03 0 -28.61 38.72 -27.75 -38.72 -18.48 0 36.89 51.55 
-34.54 47 18.81 0 25.78 -35.12 25.77 35.13 18.81 0 f
3931.41 2951.97 m
-12.66 0 -21.43 -1.46 -26.33 -4.37 c
-4.89 -2.9 -7.33 -7.88 -7.33 -14.93 c
0 -5.59 1.83 -10.04 5.5 -13.34 c
3.66 -3.27 8.64 -4.91 14.95 -4.91 c
8.7 0 15.69 3.08 20.94 9.25 c
5.26 6.18 7.88 14.39 7.88 24.63 c
0 3.68 -15.62 0 p
3963.45 2958.16 0 -55.47 -16.43 0 0 14.08 P
-3.62 -5.62 -8.12 -9.77 -13.53 -12.43 c
-5.4 -2.67 -12.01 -4 -19.84 -4 c
-9.9 0 -17.77 2.77 -23.61 8.29 c
-5.81 5.55 -8.72 12.96 -8.72 22.25 c
0 10.85 3.65 19.03 10.96 24.53 c
7.32 5.52 18.22 8.28 32.75 8.28 c
22 0 0 1.76 p
0 7.66 -2.4 13.57 -7.21 17.75 c
-4.8 4.21 -11.53 6.31 -20.2 6.31 c
-5.53 0 -10.91 -0.59 -16.13 -1.76 c
-5.23 -1.17 -10.27 -2.93 -15.11 -5.28 c
0 14.08 p
5.84 2.35 11.51 4.11 17.02 5.28 c
5.52 1.18 10.88 1.76 16.1 1.76 c
14.08 0 24.59 -3.77 31.53 -11.29 c
6.96 -7.5 10.45 -18.89 10.45 -34.14 c
f
4076.55 2983.5 m
4.04 6.86 8.84 11.93 14.41 15.18 c
5.6 3.27 12.2 4.91 19.8 4.91 c
10.2 0 18.04 -3.52 23.57 -10.56 c
5.56 -7.02 8.32 -17.02 8.32 -29.99 c
0 -60.36 -16.41 0 0 59.84 p
0 9.14 -1.66 15.93 -4.96 20.36 c
-3.3 4.42 -8.35 6.63 -15.14 6.63 c
-8.28 0 -14.84 -2.71 -19.65 -8.14 c
-4.79 -5.4 -7.19 -12.79 -7.19 -22.15 c
0 -56.54 -16.43 0 0 59.84 p
0 9.2 -1.65 16 -4.95 20.39 c
-3.3 4.41 -8.4 6.6 -15.29 6.6 c
-8.19 0 -14.69 -2.72 -19.5 -8.17 c
-4.79 -5.46 -7.2 -12.82 -7.2 -22.12 c
0 -56.54 -16.42 0 0 98.56 ^ 0 -14.08 p
3.68 5.63 8.06 9.77 13.16 12.43 c
5.14 2.67 11.23 4 18.27 4 c
7.12 0 13.15 -1.73 18.11 -5.17 c
4.99 -3.42 8.68 -8.4 11.07 -14.92 c
f
4157.03 2860.44 93.8672 11.7305 re
f
4336.83 2996.55 0 -14.08 P
-4.61 2.34 -9.21 4.11 -13.82 5.28 c
-4.6 1.18 -9.25 1.76 -13.94 1.76 c
-10.53 0 -18.71 -3.29 -24.54 -9.86 c
-5.81 -6.58 -8.72 -15.8 -8.72 -27.68 c
0 -11.88 2.91 -21.11 8.72 -27.69 c
5.82 -6.57 14 -9.86 24.54 -9.86 c
4.69 0 9.34 0.59 13.94 1.76 c
4.61 1.17 9.22 2.93 13.82 5.28 c
0 -14.08 p
-4.5 -2.35 -9.16 -4.11 -13.97 -5.28 c
-4.79 -1.17 -9.91 -1.76 -15.33 -1.76 c
-14.73 0 -26.45 4.64 -35.13 13.94 c
-8.68 9.31 -13.02 21.88 -13.02 37.7 c
0 16.03 4.38 28.64 13.16 37.84 c
8.78 9.19 20.79 13.79 36.05 13.79 c
4.96 0 9.81 -0.59 14.52 -1.76 c
4.71 -1.17 9.29 -2.93 13.71 -5.28 c
f
4403.84 2989.51 m
-8.71 0 -15.59 -3.34 -20.64 -10.04 c
-5.04 -6.7 -7.56 -15.86 -7.56 -27.5 c
0 -11.64 2.51 -20.81 7.52 -27.5 c
5.04 -6.7 11.93 -10.05 20.69 -10.05 c
8.64 0 15.49 3.37 20.52 10.09 c
5.06 6.72 7.59 15.88 7.59 27.46 c
0 11.54 -2.54 20.68 -7.59 27.42 c
-5.04 6.75 -11.88 10.12 -20.52 10.12 c
4403.79 3003.59 m
13.89 0 24.79 -4.57 32.71 -13.71 c
7.92 -9.11 11.88 -21.75 11.88 -37.91 c
0 -16.11 -3.96 -28.75 -11.88 -37.91 c
-7.93 -9.14 -18.82 -13.72 -32.71 -13.72 c
-13.93 0 -24.84 4.57 -32.75 13.72 c
-7.89 9.16 -11.84 21.81 -11.84 37.91 c
0 16.15 3.94 28.79 11.84 37.91 c
7.9 9.14 18.82 13.71 32.75 13.71 c
f
4554.44 2983.5 m
4.04 6.86 8.83 11.93 14.41 15.18 c
5.59 3.27 12.2 4.91 19.79 4.91 c
10.2 0 18.06 -3.52 23.58 -10.56 c
5.55 -7.02 8.32 -17.02 8.32 -29.99 c
0 -60.36 -16.43 0 0 59.84 p
0 9.14 -1.65 15.93 -4.95 20.36 c
-3.3 4.42 -8.35 6.63 -15.14 6.63 c
-8.28 0 -14.84 -2.71 -19.65 -8.14 c
-4.79 -5.4 -7.2 -12.79 -7.2 -22.15 c
0 -56.54 -16.41 0 0 59.84 p
0 9.2 -1.65 16 -4.95 20.39 c
-3.3 4.41 -8.4 6.6 -15.3 6.6 c
-8.18 0 -14.69 -2.72 -19.5 -8.17 c
-4.79 -5.46 -7.19 -12.82 -7.19 -22.12 c
0 -56.54 -16.43 0 0 98.56 ^ 0 -14.08 p
3.67 5.63 8.06 9.77 13.16 12.43 c
5.14 2.67 11.23 4 18.27 4 c
7.11 0 13.15 -1.73 18.11 -5.17 c
4.98 -3.42 8.68 -8.4 11.07 -14.92 c
f
4670.12 2916.77 0 -51.63 -16.43 0 0 136.11 ^ 0 -14.08 P
3.32 5.55 7.53 9.68 12.61 12.36 c
5.08 2.72 11.16 4.07 18.22 4.07 c
11.73 0 21.25 -4.74 28.56 -14.23 c
7.34 -9.49 11 -21.95 11 -37.39 c
0 -15.45 -3.66 -27.92 -11 -37.41 c
-7.31 -9.49 -16.83 -14.23 -28.56 -14.23 c
-7.06 0 -13.14 1.34 -18.22 4.03 c
-5.08 2.71 -9.29 6.85 -12.61 12.4 c
4724.09 2951.97 m
0 11.7 -2.4 20.88 -7.22 27.53 c
-4.79 6.68 -11.38 10.01 -19.76 10.01 c
-8.39 0 -14.99 -3.33 -19.8 -10.01 c
-4.79 -6.65 -7.18 -15.83 -7.18 -27.53 c
0 -11.71 2.39 -20.9 7.18 -27.57 c
4.82 -6.66 11.41 -9.98 19.8 -9.98 c
8.38 0 14.96 3.32 19.76 9.98 c
4.82 6.67 7.22 15.86 7.22 27.57 c
f
4769.09 2902.68 16.4297 136.109 re
f
4903.83 2956.95 0 -7.34 -75.09 0 P
0.71 -11.46 4.05 -20.2 10.04 -26.2 c
5.99 -5.99 14.34 -8.99 25.01 -8.99 c
6.21 0 12.22 0.79 18.04 2.35 c
5.81 1.56 11.59 3.91 17.3 7.04 c
0 -14.08 p
-5.77 -3.06 -11.68 -5.39 -17.75 -7.01 c
-6.04 -1.59 -12.16 -2.38 -18.37 -2.38 c
-15.6 0 -27.95 4.56 -37.07 13.67 c
-9.09 9.14 -13.64 21.51 -13.64 37.07 c
0 16.11 4.36 28.88 13.09 38.32 c
8.73 9.46 20.5 14.19 35.31 14.19 c
13.3 0 23.81 -4.18 31.54 -12.54 c
7.71 -8.36 11.58 -19.73 11.58 -34.1 c
4887.42 2961.36 m
-0.13 8.55 -2.64 15.38 -7.53 20.49 c
-4.86 5.11 -11.3 7.66 -19.32 7.66 c
-9.1 0 -16.38 -2.47 -21.85 -7.41 c
-5.45 -4.94 -8.59 -11.89 -9.42 -20.87 c
58.12 0.12 p f
4947.65 3029.41 0 -28.16 32.84 0 0 -11.73 ^ 0 -53.75 P
0 -8.07 1.07 -13.25 3.22 -15.55 c
2.17 -2.29 6.59 -3.44 13.24 -3.44 c
16.38 0 0 -14.08 ^ p
-12.44 0 -21.03 2.37 -25.78 7.12 c
-4.74 4.76 -7.11 13.42 -7.11 25.96 c
0 53.75 -11.73 0 0 11.73 ^ 0 28.16 16.43 0 p f
5086.49 2956.95 0 -7.34 -75.09 0 P
0.71 -11.46 4.05 -20.2 10.04 -26.2 c
5.99 -5.99 14.34 -8.99 25.01 -8.99 c
6.21 0 12.22 0.79 18.05 2.35 c
5.81 1.56 11.59 3.91 17.3 7.04 c
0 -14.08 p
-5.77 -3.06 -11.68 -5.39 -17.75 -7.01 c
-6.03 -1.59 -12.15 -2.38 -18.36 -2.38 c
-15.6 0 -27.95 4.56 -37.07 13.67 c
-9.09 9.14 -13.64 21.51 -13.64 37.07 c
0 16.11 4.36 28.88 13.09 38.32 c
8.73 9.46 20.5 14.19 35.32 14.19 c
13.29 0 23.81 -4.18 31.54 -12.54 c
7.72 -8.36 11.58 -19.73 11.58 -34.1 c
5070.07 2961.36 m
-0.13 8.55 -2.63 15.38 -7.53 20.49 c
-4.86 5.11 -11.3 7.66 -19.32 7.66 c
-9.1 0 -16.37 -2.47 -21.86 -7.41 c
-5.45 -4.94 -8.59 -11.89 -9.42 -20.87 c
58.12 0.12 p f
5177.23 2987.16 0 51.63 16.43 0 0 -136.11 ^ 0 14.08 P
-3.32 -5.55 -7.53 -9.69 -12.61 -12.4 c
-5.08 -2.69 -11.19 -4.03 -18.33 -4.03 c
-11.66 0 -21.17 4.74 -28.5 14.23 c
-7.3 9.49 -10.96 21.95 -10.96 37.41 c
0 15.44 3.65 27.91 10.96 37.39 c
7.33 9.49 16.84 14.23 28.5 14.23 c
7.14 0 13.25 -1.35 18.33 -4.07 c
5.08 -2.68 9.29 -6.81 12.61 -12.36 c
5123.27 2951.97 m
0 -11.71 2.39 -20.9 7.19 -27.57 c
4.79 -6.66 11.38 -9.98 19.76 -9.98 c
8.38 0 14.99 3.32 19.8 9.98 c
4.82 6.67 7.22 15.86 7.22 27.57 c
0 11.7 -2.4 20.88 -7.22 27.53 c
-4.82 6.68 -11.42 10.01 -19.8 10.01 c
-8.38 0 -14.96 -3.33 -19.76 -10.01 c
-4.8 -6.65 -7.19 -15.83 -7.19 -27.53 c
f
5233.97 2902.68 18.7695 21.1211 re
f
5368.76 2963.04 0 -60.36 -16.43 0 0 59.84 P
0 9.02 -1.79 15.77 -5.39 20.25 c
-3.57 4.5 -8.93 6.74 -16.1 6.74 c
-8.6 0 -15.39 -2.71 -20.35 -8.14 c
-4.97 -5.4 -7.45 -12.79 -7.45 -22.15 c
0 -56.54 -16.42 0 0 136.11 ^ 0 -51.63 p
3.84 5.5 8.37 9.61 13.57 12.32 c
5.2 2.73 11.2 4.11 18 4.11 c
11.25 0 19.74 -3.43 25.48 -10.31 c
5.77 -6.84 8.66 -16.93 8.66 -30.24 c
f
5417.75 3029.41 0 -28.16 32.84 0 0 -11.73 ^ 0 -53.75 P
0 -8.07 1.07 -13.25 3.22 -15.55 c
2.18 -2.29 6.6 -3.44 13.24 -3.44 c
16.38 0 0 -14.08 ^ p
-12.44 0 -21.04 2.37 -25.78 7.12 c
-4.74 4.76 -7.11 13.42 -7.11 25.96 c
0 53.75 -11.73 0 0 11.73 ^ 0 28.16 16.43 0 p f
5549.15 2983.5 m
4.04 6.86 8.84 11.93 14.41 15.18 c
5.6 3.27 12.2 4.91 19.79 4.91 c
10.2 0 18.05 -3.52 23.58 -10.56 c
5.56 -7.02 8.33 -17.02 8.33 -29.99 c
0 -60.36 -16.43 0 0 59.84 p
0 9.14 -1.65 15.93 -4.95 20.36 c
-3.3 4.42 -8.35 6.63 -15.14 6.63 c
-8.28 0 -14.83 -2.71 -19.65 -8.14 c
-4.79 -5.4 -7.18 -12.79 -7.18 -22.15 c
0 -56.54 -16.43 0 0 59.84 p
0 9.2 -1.65 16 -4.95 20.39 c
-3.3 4.41 -8.4 6.6 -15.3 6.6 c
-8.18 0 -14.68 -2.72 -19.51 -8.17 c
-4.78 -5.46 -7.18 -12.82 -7.18 -22.12 c
0 -56.54 -16.42 0 0 98.56 ^ 0 -14.08 p
3.66 5.63 8.06 9.77 13.16 12.43 c
5.14 2.67 11.22 4 18.27 4 c
7.11 0 13.15 -1.73 18.11 -5.17 c
4.99 -3.42 8.68 -8.4 11.07 -14.92 c
f
5648.4 2902.68 16.4297 136.109 re
f
255 G
2220.7 3702.1 340.16 0 113.38 -113.38 0 -453.54 -453.54 0 f*
K
2220.7 3702.1 340.16 0 113.38 -113.38 0 -453.54 -453.54 0 H
S
2560.86 3702.1 0 -113.38 113.38 0 0 0 S
1913.36 2987.16 0 51.63 16.43 0 0 -136.11 ^ 0 14.08 P
-3.32 -5.55 -7.53 -9.69 -12.61 -12.4 c
-5.08 -2.69 -11.19 -4.03 -18.33 -4.03 c
-11.66 0 -21.16 4.74 -28.5 14.23 c
-7.3 9.49 -10.96 21.95 -10.96 37.41 c
0 15.44 3.65 27.91 10.96 37.39 c
7.34 9.49 16.84 14.23 28.5 14.23 c
7.14 0 13.25 -1.35 18.33 -4.07 c
5.08 -2.68 9.29 -6.81 12.61 -12.36 c
1859.39 2951.97 m
0 -11.71 2.39 -20.9 7.18 -27.57 c
4.8 -6.66 11.38 -9.98 19.76 -9.98 c
8.39 0 14.99 3.32 19.8 9.98 c
4.82 6.67 7.22 15.86 7.22 27.57 c
0 11.7 -2.4 20.88 -7.22 27.53 c
-4.82 6.68 -11.41 10.01 -19.8 10.01 c
-8.38 0 -14.96 -3.33 -19.76 -10.01 c
-4.79 -6.65 -7.18 -15.83 -7.18 -27.53 c
f
2003 2989.51 m
-8.7 0 -15.59 -3.34 -20.64 -10.04 c
-5.04 -6.7 -7.55 -15.86 -7.55 -27.5 c
0 -11.64 2.5 -20.81 7.52 -27.5 c
5.02 -6.7 11.92 -10.05 20.68 -10.05 c
8.65 0 15.5 3.37 20.53 10.09 c
5.07 6.72 7.59 15.88 7.59 27.46 c
0 11.54 -2.52 20.68 -7.59 27.42 c
-5.03 6.75 -11.88 10.12 -20.53 10.12 c
2002.95 3003.59 m
13.88 0 24.79 -4.57 32.71 -13.71 c
7.92 -9.11 11.88 -21.75 11.88 -37.91 c
0 -16.11 -3.96 -28.75 -11.88 -37.91 c
-7.93 -9.14 -18.83 -13.72 -32.71 -13.72 c
-13.93 0 -24.84 4.57 -32.73 13.72 c
-7.9 9.16 -11.84 21.81 -11.84 37.91 c
0 16.15 3.94 28.79 11.84 37.91 c
7.89 9.14 18.81 13.71 32.73 13.71 c
f
2067.18 3001.24 16.09 0 20.08 -76.93 20.03 76.93 19 0 20.09 -76.93 20.01 76.93 16.1 0 
-25.63 -98.56 -18.95 0 -21.09 80.78 -21.16 -80.78 -18.96 0 -25.62 98.56 f
2306.66 2963.04 0 -60.36 -16.43 0 0 59.84 P
0 9.02 -1.8 15.77 -5.39 20.25 c
-3.56 4.5 -8.93 6.74 -16.09 6.74 c
-8.6 0 -15.39 -2.71 -20.35 -8.14 c
-4.97 -5.4 -7.44 -12.79 -7.44 -22.15 c
0 -56.54 -16.43 0 0 98.56 ^ 0 -14.08 p
3.83 5.5 8.36 9.61 13.56 12.32 c
5.2 2.73 11.21 4.11 18 4.11 c
11.25 0 19.74 -3.43 25.48 -10.31 c
5.77 -6.84 8.66 -16.93 8.66 -30.24 c
f
2339.22 2902.68 16.4219 136.109 re
f
2427.07 2989.51 m
-8.71 0 -15.59 -3.34 -20.64 -10.04 c
-5.04 -6.7 -7.56 -15.86 -7.56 -27.5 c
0 -11.64 2.52 -20.81 7.53 -27.5 c
5.03 -6.7 11.93 -10.05 20.68 -10.05 c
8.65 0 15.5 3.37 20.52 10.09 c
5.06 6.72 7.6 15.88 7.6 27.46 c
0 11.54 -2.54 20.68 -7.6 27.42 c
-5.02 6.75 -11.87 10.12 -20.52 10.12 c
2427.03 3003.59 m
13.89 0 24.79 -4.57 32.71 -13.71 c
7.92 -9.11 11.88 -21.75 11.88 -37.91 c
0 -16.11 -3.96 -28.75 -11.88 -37.91 c
-7.93 -9.14 -18.82 -13.72 -32.71 -13.72 c
-13.93 0 -24.84 4.57 -32.75 13.72 c
-7.88 9.16 -11.84 21.81 -11.84 37.91 c
0 16.15 3.95 28.79 11.84 37.91 c
7.9 9.14 18.82 13.71 32.75 13.71 c
f
2543.69 2951.97 m
-12.66 0 -21.44 -1.46 -26.32 -4.37 c
-4.89 -2.9 -7.33 -7.88 -7.33 -14.93 c
0 -5.59 1.83 -10.04 5.49 -13.34 c
3.66 -3.27 8.66 -4.91 14.96 -4.91 c
8.69 0 15.68 3.08 20.93 9.25 c
5.26 6.18 7.88 14.39 7.88 24.63 c
0 3.68 -15.62 0 p
2575.74 2958.16 0 -55.47 -16.43 0 0 14.08 P
-3.62 -5.62 -8.12 -9.77 -13.53 -12.43 c
-5.4 -2.67 -12.02 -4 -19.84 -4 c
-9.91 0 -17.77 2.77 -23.61 8.29 c
-5.82 5.55 -8.73 12.96 -8.73 22.25 c
0 10.85 3.66 19.03 10.96 24.53 c
7.3 5.52 18.22 8.28 32.75 8.28 c
22 0 0 1.76 p
0 7.66 -2.41 13.57 -7.23 17.75 c
-4.78 4.21 -11.52 6.31 -20.2 6.31 c
-5.52 0 -10.89 -0.59 -16.13 -1.76 c
-5.22 -1.17 -10.26 -2.93 -15.11 -5.28 c
0 14.08 p
5.84 2.35 11.51 4.11 17.02 5.28 c
5.52 1.18 10.89 1.76 16.09 1.76 c
14.08 0 24.6 -3.77 31.54 -11.29 c
6.96 -7.5 10.45 -18.89 10.45 -34.14 c
f
2675.16 2987.16 0 51.63 16.43 0 0 -136.11 ^ 0 14.08 P
-3.33 -5.55 -7.54 -9.69 -12.62 -12.4 c
-5.08 -2.69 -11.19 -4.03 -18.33 -4.03 c
-11.66 0 -21.16 4.74 -28.5 14.23 c
-7.3 9.49 -10.96 21.95 -10.96 37.41 c
0 15.44 3.66 27.91 10.96 37.39 c
7.34 9.49 16.84 14.23 28.5 14.23 c
7.14 0 13.25 -1.35 18.33 -4.07 c
5.08 -2.68 9.29 -6.81 12.62 -12.36 c
2621.18 2951.97 m
0 -11.71 2.4 -20.9 7.18 -27.57 c
4.79 -6.66 11.38 -9.98 19.76 -9.98 c
8.39 0 14.99 3.32 19.8 9.98 c
4.82 6.67 7.23 15.86 7.23 27.57 c
0 11.7 -2.41 20.88 -7.23 27.53 c
-4.82 6.68 -11.41 10.01 -19.8 10.01 c
-8.38 0 -14.97 -3.33 -19.76 -10.01 c
-4.78 -6.65 -7.18 -15.83 -7.18 -27.53 c
f
2731.89 2902.68 18.7734 21.1211 re
f
2866.67 2963.04 0 -60.36 -16.43 0 0 59.84 P
0 9.02 -1.79 15.77 -5.38 20.25 c
-3.57 4.5 -8.95 6.74 -16.11 6.74 c
-8.6 0 -15.39 -2.71 -20.35 -8.14 c
-4.96 -5.4 -7.44 -12.79 -7.44 -22.15 c
0 -56.54 -16.43 0 0 136.11 ^ 0 -51.63 p
3.83 5.5 8.36 9.61 13.56 12.32 c
5.2 2.73 11.21 4.11 18.01 4.11 c
11.24 0 19.74 -3.43 25.48 -10.31 c
5.77 -6.84 8.64 -16.93 8.64 -30.24 c
f
2915.66 3029.41 0 -28.16 32.86 0 0 -11.73 ^ 0 -53.75 P
0 -8.07 1.07 -13.25 3.23 -15.55 c
2.17 -2.29 6.59 -3.44 13.23 -3.44 c
16.39 0 0 -14.08 ^ p
-12.43 0 -21.04 2.37 -25.77 7.12 c
-4.75 4.76 -7.12 13.42 -7.12 25.96 c
0 53.75 -11.72 0 0 11.73 ^ 0 28.16 16.43 0 p f
3047.07 2983.5 m
4.03 6.86 8.83 11.93 14.4 15.18 c
5.6 3.27 12.2 4.91 19.8 4.91 c
10.2 0 18.05 -3.52 23.58 -10.56 c
5.55 -7.02 8.31 -17.02 8.31 -29.99 c
0 -60.36 -16.42 0 0 59.84 p
0 9.14 -1.65 15.93 -4.95 20.36 c
-3.31 4.42 -8.36 6.63 -15.14 6.63 c
-8.29 0 -14.85 -2.71 -19.66 -8.14 c
-4.79 -5.4 -7.19 -12.79 -7.19 -22.15 c
0 -56.54 -16.43 0 0 59.84 p
0 9.2 -1.65 16 -4.95 20.39 c
-3.3 4.41 -8.39 6.6 -15.29 6.6 c
-8.19 0 -14.69 -2.72 -19.5 -8.17 c
-4.79 -5.46 -7.18 -12.82 -7.18 -22.12 c
0 -56.54 -16.43 0 0 98.56 ^ 0 -14.08 p
3.66 5.63 8.05 9.77 13.16 12.43 c
5.13 2.67 11.21 4 18.25 4 c
7.12 0 13.15 -1.73 18.11 -5.17 c
4.99 -3.42 8.68 -8.4 11.08 -14.92 c
f
3146.32 2902.68 16.4297 136.109 re
f
4577.62 3713.12 -0.2 871.81 S
6673.24 4582.72 2198.2 -0.79 S
255 G
8646.63 3695.36 340.15 0 113.38 -113.39 0 -453.54 -453.54 0 f*
K
8646.63 3695.36 340.15 0 113.38 -113.39 0 -453.54 -453.54 0 H
S
8986.78 3695.36 0 -113.39 113.38 0 0 0 S
8403.82 2895.94 16.4258 136.102 re
f
8491.68 2982.77 m
-8.7 0 -15.59 -3.36 -20.65 -10.05 c
-5.04 -6.7 -7.55 -15.86 -7.55 -27.5 c
0 -11.63 2.5 -20.8 7.52 -27.5 c
5.04 -6.7 11.92 -10.05 20.68 -10.05 c
8.66 0 15.5 3.37 20.54 10.09 c
5.06 6.72 7.58 15.88 7.58 27.46 c
0 11.54 -2.52 20.68 -7.58 27.43 c
-5.04 6.74 -11.88 10.12 -20.54 10.12 c
8491.63 2996.84 m
13.89 0 24.8 -4.56 32.71 -13.7 c
7.91 -9.12 11.88 -21.75 11.88 -37.92 c
0 -16.11 -3.96 -28.75 -11.88 -37.91 c
-7.92 -9.14 -18.82 -13.71 -32.71 -13.71 c
-13.93 0 -24.84 4.56 -32.73 13.71 c
-7.89 9.16 -11.84 21.81 -11.84 37.91 c
0 16.16 3.95 28.79 11.84 37.92 c
7.89 9.14 18.81 13.7 32.73 13.7 c
f
8628.6 2946.36 m
0 11.56 -2.37 20.52 -7.11 26.88 c
-4.73 6.36 -11.36 9.53 -19.92 9.53 c
-8.51 0 -15.13 -3.18 -19.87 -9.53 c
-4.71 -6.36 -7.08 -15.32 -7.08 -26.88 c
0 -11.51 2.37 -20.45 7.08 -26.81 c
4.74 -6.34 11.36 -9.52 19.87 -9.52 c
8.56 0 15.19 3.18 19.92 9.52 c
4.73 6.37 7.11 15.3 7.11 26.81 c
8645.03 2908.66 m
0 -16.97 -3.68 -29.58 -11.04 -37.84 c
-7.34 -8.29 -18.56 -12.43 -33.7 -12.43 c
-5.62 0 -10.92 0.39 -15.87 1.18 c
-4.96 0.75 -9.8 1.93 -14.48 3.52 c
0 16.43 p
4.64 -2.4 9.22 -4.18 13.75 -5.32 c
4.54 -1.15 9.16 -1.73 13.86 -1.73 c
10.38 0 18.15 2.75 23.31 8.25 c
5.16 5.5 7.74 13.8 7.74 24.89 c
0 6.75 p
-3.28 -5.5 -7.46 -9.63 -12.57 -12.37 c
-5.12 -2.71 -11.24 -4.06 -18.38 -4.06 c
-11.82 0 -21.36 4.59 -28.59 13.79 c
-7.24 9.21 -10.85 21.43 -10.85 36.63 c
0 15.25 3.61 27.48 10.85 36.66 c
7.24 9.21 16.77 13.82 28.59 13.82 c
7.14 0 13.26 -1.36 18.38 -4.1 c
5.11 -2.72 9.3 -6.82 12.57 -12.32 c
0 14.08 16.43 0 0 -85.84 p f
8718.23 2982.77 m
-8.7 0 -15.59 -3.36 -20.65 -10.05 c
-5.02 -6.7 -7.55 -15.86 -7.55 -27.5 c
0 -11.63 2.51 -20.8 7.52 -27.5 c
5.04 -6.7 11.93 -10.05 20.68 -10.05 c
8.66 0 15.5 3.37 20.54 10.09 c
5.06 6.72 7.58 15.88 7.58 27.46 c
0 11.54 -2.52 20.68 -7.58 27.43 c
-5.04 6.74 -11.88 10.12 -20.54 10.12 c
8718.19 2996.84 m
13.88 0 24.79 -4.56 32.7 -13.7 c
7.93 -9.12 11.88 -21.75 11.88 -37.92 c
0 -16.11 -3.95 -28.75 -11.88 -37.91 c
-7.91 -9.14 -18.82 -13.71 -32.7 -13.71 c
-13.94 0 -24.85 4.56 -32.75 13.71 c
-7.89 9.16 -11.84 21.81 -11.84 37.91 c
0 16.16 3.95 28.79 11.84 37.92 c
7.89 9.14 18.81 13.7 32.75 13.7 c
f
8791.8 2934.07 0 60.43 16.43 0 0 -59.81 P
0 -8.99 1.78 -15.75 5.35 -20.27 c
3.57 -4.49 8.93 -6.75 16.09 -6.75 c
8.58 0 15.37 2.71 20.36 8.11 c
4.98 5.43 7.47 12.81 7.47 22.15 c
0 56.58 16.43 0 0 -98.56 ^ 0 14.08 p
-3.89 -5.56 -8.4 -9.69 -13.56 -12.4 c
-5.14 -2.69 -11.1 -4.03 -17.9 -4.03 c
-11.21 0 -19.74 3.43 -25.55 10.3 c
-5.79 6.9 -8.69 16.96 -8.69 30.18 c
8832.35 2996.84 f
8922.91 3022.66 0 -28.16 32.86 0 0 -11.73 ^ 0 -53.76 P
0 -8.06 1.07 -13.25 3.22 -15.54 c
2.18 -2.3 6.6 -3.44 13.24 -3.44 c
16.39 0 0 -14.08 ^ p
-12.44 0 -21.03 2.37 -25.77 7.11 c
-4.74 4.77 -7.12 13.41 -7.12 25.96 c
0 53.76 -11.73 0 0 11.73 ^ 0 28.16 16.43 0 p f
8981.98 2895.94 18.7734 21.1211 re
f
9116.77 2956.3 0 -60.36 -16.43 0 0 59.84 P
0 9.02 -1.79 15.76 -5.39 20.23 c
-3.57 4.51 -8.93 6.75 -16.1 6.75 c
-8.6 0 -15.37 -2.71 -20.35 -8.15 c
-4.96 -5.39 -7.44 -12.77 -7.44 -22.14 c
0 -56.54 -16.43 0 0 136.1 ^ 0 -51.62 p
3.83 5.5 8.36 9.6 13.56 12.32 c
5.21 2.73 11.21 4.1 18 4.1 c
11.25 0 19.75 -3.43 25.48 -10.3 c
5.78 -6.84 8.66 -16.93 8.66 -30.24 c
f
9165.75 3022.66 0 -28.16 32.86 0 0 -11.73 ^ 0 -53.76 P
0 -8.06 1.07 -13.25 3.22 -15.54 c
2.18 -2.3 6.6 -3.44 13.24 -3.44 c
16.39 0 0 -14.08 ^ p
-12.44 0 -21.03 2.37 -25.77 7.11 c
-4.75 4.77 -7.12 13.41 -7.12 25.96 c
0 53.76 -11.73 0 0 11.73 ^ 0 28.16 16.43 0 p f
9297.16 2976.75 m
4.03 6.86 8.83 11.92 14.4 15.18 c
5.6 3.27 12.2 4.9 19.8 4.9 c
10.2 0 18.04 -3.51 23.58 -10.55 c
5.55 -7.02 8.32 -17.02 8.32 -29.99 c
0 -60.36 -16.43 0 0 59.84 p
0 9.14 -1.66 15.93 -4.96 20.35 c
-3.3 4.43 -8.34 6.64 -15.14 6.64 c
-8.28 0 -14.83 -2.71 -19.65 -8.15 c
-4.78 -5.39 -7.18 -12.77 -7.18 -22.14 c
0 -56.54 -16.43 0 0 59.84 p
0 9.19 -1.65 15.98 -4.95 20.39 c
-3.3 4.39 -8.39 6.6 -15.29 6.6 c
-8.19 0 -14.69 -2.72 -19.51 -8.18 c
-4.79 -5.45 -7.18 -12.82 -7.18 -22.11 c
0 -56.54 -16.43 0 0 98.56 ^ 0 -14.08 p
3.66 5.63 8.05 9.77 13.16 12.43 c
5.13 2.66 11.21 3.98 18.25 3.98 c
7.12 0 13.15 -1.71 18.11 -5.16 c
4.99 -3.43 8.68 -8.4 11.08 -14.92 c
f
9396.41 2895.94 16.4258 136.102 re
f
8874.61 3686.08 -0.08 895.63 S
8866.05 4581.93 2199.56 0.59 S
2444.1 4581.48 -2096.41 0.25 S
360.97 3688.58 -0.51 894.03 S
255 G
135.54 3694.47 340.16 0 113.38 -113.38 0 -453.54 -453.54 0 f*
K
135.54 3694.47 340.16 0 113.38 -113.38 0 -453.54 -453.54 0 H
S
475.7 3694.47 0 -113.38 113.38 0 0 0 S
16.4297 2912.78 16.4219 136.102 re
f
104.28 2999.61 m
-8.71 0 -15.59 -3.36 -20.64 -10.05 c
-5.04 -6.7 -7.55 -15.86 -7.55 -27.5 c
0 -11.64 2.51 -20.8 7.52 -27.5 c
5.03 -6.7 11.93 -10.04 20.68 -10.04 c
8.65 0 15.5 3.35 20.53 10.07 c
5.06 6.72 7.59 15.88 7.59 27.46 c
0 11.54 -2.53 20.68 -7.59 27.43 c
-5.04 6.74 -11.88 10.12 -20.53 10.12 c
104.24 3013.68 m
13.88 0 24.79 -4.57 32.71 -13.71 c
7.92 -9.12 11.88 -21.75 11.88 -37.91 c
0 -16.11 -3.96 -28.75 -11.88 -37.92 c
-7.92 -9.13 -18.82 -13.7 -32.71 -13.7 c
-13.93 0 -24.85 4.57 -32.75 13.7 c
-7.89 9.17 -11.84 21.81 -11.84 37.92 c
0 16.16 3.95 28.79 11.84 37.91 c
7.9 9.14 18.81 13.71 32.75 13.71 c
f
241.21 2963.2 m
0 11.55 -2.37 20.52 -7.12 26.88 c
-4.71 6.35 -11.36 9.53 -19.91 9.53 c
-8.51 0 -15.13 -3.18 -19.87 -9.53 c
-4.72 -6.36 -7.07 -15.32 -7.07 -26.88 c
0 -11.52 2.36 -20.45 7.07 -26.8 c
4.74 -6.37 11.37 -9.54 19.88 -9.54 c
8.55 0 15.19 3.17 19.91 9.54 c
4.75 6.35 7.12 15.29 7.12 26.8 c
257.63 2925.5 m
0 -16.96 -3.68 -29.58 -11.04 -37.84 c
-7.34 -8.29 -18.57 -12.43 -33.7 -12.43 c
-5.62 0 -10.91 0.39 -15.88 1.17 c
-4.96 0.77 -9.79 1.93 -14.48 3.52 c
0 16.43 p
4.64 -2.4 9.23 -4.17 13.75 -5.31 c
4.54 -1.15 9.17 -1.73 13.86 -1.73 c
10.39 0 18.16 2.75 23.32 8.25 c
5.16 5.5 7.74 13.8 7.74 24.9 c
0 6.74 p
-3.28 -5.5 -7.47 -9.61 -12.58 -12.35 c
-5.11 -2.71 -11.23 -4.06 -18.37 -4.06 c
-11.83 0 -21.36 4.59 -28.6 13.78 c
-7.23 9.21 -10.86 21.42 -10.86 36.63 c
0 15.25 3.62 27.48 10.86 36.66 c
7.23 9.22 16.77 13.82 28.6 13.82 c
7.14 0 13.26 -1.37 18.37 -4.11 c
5.11 -2.71 9.3 -6.83 12.58 -12.32 c
0 14.08 16.42 0 0 -85.84 p f
293.25 3011.34 16.43 0 0 -98.56 ^ ^ P
293.25 3048.88 16.43 0 0 -21.12 ^ ^ f
425.64 2973.13 0 -60.34 -16.43 0 0 59.83 P
0 9.02 -1.79 15.77 -5.39 20.24 c
-3.57 4.5 -8.93 6.75 -16.09 6.75 c
-8.61 0 -15.39 -2.71 -20.35 -8.14 c
-4.96 -5.4 -7.45 -12.8 -7.45 -22.15 c
0 -56.54 -16.42 0 0 98.56 ^ 0 -14.08 p
3.84 5.49 8.36 9.61 13.57 12.32 c
5.21 2.73 11.2 4.11 18 4.11 c
11.24 0 19.74 -3.44 25.48 -10.3 c
5.77 -6.84 8.65 -16.93 8.65 -30.25 c
f
462.898 2912.78 18.7734 21.1172 re
f
597.68 2973.13 0 -60.34 -16.43 0 0 59.83 P
0 9.02 -1.79 15.77 -5.39 20.24 c
-3.57 4.5 -8.93 6.75 -16.1 6.75 c
-8.6 0 -15.39 -2.71 -20.35 -8.14 c
-4.96 -5.4 -7.45 -12.8 -7.45 -22.15 c
0 -56.54 -16.43 0 0 136.1 ^ 0 -51.62 p
3.84 5.49 8.36 9.61 13.57 12.32 c
5.2 2.73 11.2 4.11 18 4.11 c
11.24 0 19.74 -3.44 25.48 -10.3 c
5.77 -6.84 8.65 -16.93 8.65 -30.25 c
f
646.67 3039.49 0 -28.15 32.85 0 0 -11.73 ^ 0 -53.76 P
0 -8.07 1.08 -13.25 3.23 -15.54 c
2.18 -2.3 6.59 -3.45 13.23 -3.45 c
16.39 0 0 -14.08 ^ p
-12.44 0 -21.03 2.37 -25.78 7.11 c
-4.74 4.77 -7.11 13.42 -7.11 25.96 c
0 53.76 -11.73 0 0 11.73 ^ 0 28.15 16.43 0 p f
778.07 2993.59 m
4.04 6.86 8.84 11.92 14.41 15.18 c
5.59 3.28 12.2 4.91 19.8 4.91 c
10.2 0 18.05 -3.52 23.57 -10.56 c
5.55 -7.02 8.32 -17.02 8.32 -30 c
0 -60.34 -16.42 0 0 59.83 p
0 9.14 -1.65 15.92 -4.95 20.35 c
-3.3 4.43 -8.35 6.64 -15.14 6.64 c
-8.29 0 -14.84 -2.71 -19.66 -8.14 c
-4.79 -5.4 -7.19 -12.8 -7.19 -22.15 c
0 -56.54 -16.42 0 0 59.83 p
0 9.19 -1.65 15.99 -4.95 20.39 c
-3.3 4.4 -8.4 6.6 -15.29 6.6 c
-8.19 0 -14.69 -2.73 -19.51 -8.18 c
-4.79 -5.45 -7.19 -12.82 -7.19 -22.11 c
0 -56.54 -16.42 0 0 98.56 ^ 0 -14.08 p
3.67 5.62 8.06 9.76 13.16 12.43 c
5.13 2.66 11.22 4 18.26 4 c
7.11 0 13.15 -1.73 18.11 -5.17 c
4.99 -3.43 8.68 -8.4 11.07 -14.92 c
f
877.328 2912.78 16.4258 136.102 re
f
6715.29 1721.99 -0.27 -867.11 S
10380.9 861.8 1.65 872.27 S
8543.47 1734.15 1853.32 -0.87 S
2957.33 859.68 -1.05 887.93 S
2943.36 1734.15 1853.32 -0.87 S
255 G
10814.9 3692.38 340.11 0 113.47 -113.38 0 -453.55 -453.58 0 f*
K
10814.9 3692.38 340.11 0 113.47 -113.38 0 -453.55 -453.58 0 H
S
11155 3692.38 0 -113.38 113.47 0 0 0 S
10424.2 2942.24 m
0 11.71 -2.4 20.89 -7.22 27.54 c
-4.79 6.68 -11.38 10.01 -19.77 10.01 c
-8.38 0 -14.98 -3.33 -19.79 -10.01 c
-4.79 -6.65 -7.19 -15.83 -7.19 -27.54 c
0 -11.7 2.39 -20.9 7.19 -27.58 c
4.81 -6.64 11.41 -9.96 19.79 -9.96 c
8.39 0 14.98 3.32 19.77 9.96 c
4.82 6.68 7.22 15.88 7.22 27.58 c
10370.2 2977.44 m
3.32 5.55 7.53 9.66 12.61 12.36 c
5.08 2.71 11.16 4.07 18.22 4.07 c
11.73 0 21.25 -4.74 28.56 -14.23 c
7.34 -9.49 11 -21.95 11 -37.41 c
0 -15.44 -3.66 -27.91 -11 -37.39 c
-7.31 -9.49 -16.83 -14.23 -28.56 -14.23 c
-7.06 0 -13.14 1.34 -18.22 4.03 c
-5.08 2.71 -9.29 6.84 -12.61 12.4 c
0 -14.08 -16.43 0 0 136.1 ^ 0 -51.62 p f
10512.2 2942.24 m
-12.66 0 -21.44 -1.45 -26.32 -4.36 c
-4.89 -2.91 -7.34 -7.88 -7.34 -14.92 c
0 -5.6 1.84 -10.05 5.5 -13.35 c
3.66 -3.27 8.66 -4.9 14.95 -4.9 c
8.71 0 15.69 3.08 20.95 9.23 c
5.25 6.19 7.88 14.4 7.88 24.64 c
0 3.66 -15.62 0 p
10544.3 2948.44 0 -55.47 -16.42 0 0 14.08 P
-3.62 -5.62 -8.14 -9.78 -13.53 -12.43 c
-5.4 -2.67 -12.02 -4 -19.84 -4 c
-9.91 0 -17.78 2.76 -23.62 8.28 c
-5.81 5.55 -8.72 12.97 -8.72 22.26 c
0 10.85 3.65 19.03 10.96 24.53 c
7.32 5.52 18.23 8.28 32.75 8.28 c
22.01 0 0 1.76 p
0 7.65 -2.41 13.57 -7.23 17.74 c
-4.8 4.21 -11.53 6.31 -20.2 6.31 c
-5.53 0 -10.91 -0.59 -16.13 -1.76 c
-5.23 -1.17 -10.27 -2.93 -15.11 -5.28 c
0 14.08 p
5.84 2.35 11.51 4.11 17.02 5.28 c
5.52 1.17 10.89 1.76 16.09 1.76 c
14.08 0 24.59 -3.77 31.54 -11.29 c
6.96 -7.51 10.44 -18.89 10.44 -34.14 c
f
10641.4 2986.83 0 -14.08 P
-4.39 2.35 -8.97 4.11 -13.7 5.28 c
-4.75 1.18 -9.66 1.76 -14.75 1.76 c
-7.72 0 -13.52 -1.22 -17.38 -3.63 c
-3.86 -2.42 -5.79 -6.04 -5.79 -10.89 c
0 -3.69 1.34 -6.59 4.03 -8.69 c
2.71 -2.09 8.17 -4.11 16.36 -6.01 c
5.24 -1.21 p
11.1 -2.45 18.98 -5.91 23.64 -10.37 c
4.71 -4.48 7.04 -10.73 7.04 -18.74 c
0 -9.11 -3.49 -16.34 -10.48 -21.66 c
-6.98 -5.32 -16.61 -7.96 -28.86 -7.96 c
-5.11 0 -10.42 0.59 -15.94 1.76 c
-5.52 1.17 -11.35 2.93 -17.46 5.28 c
0 16.43 p
5.74 -3.13 11.4 -5.48 16.97 -7.04 c
5.58 -1.57 11.09 -2.35 16.55 -2.35 c
7.33 0 12.96 1.29 16.89 3.84 c
3.94 2.59 5.91 6.22 5.91 10.89 c
0 4.35 -1.39 7.68 -4.18 9.97 c
-2.79 2.32 -8.91 4.56 -18.37 6.71 c
-5.32 1.28 p
-10.04 2.11 -17.3 5.34 -21.78 9.69 c
-4.45 4.35 -6.67 10.31 -6.67 17.89 c
0 9.21 3.23 16.33 9.67 21.33 c
6.46 5.04 15.61 7.56 27.47 7.56 c
5.87 0 11.39 -0.59 16.58 -1.76 c
5.18 -1.17 9.95 -2.93 14.32 -5.28 c
f
10759 2947.23 0 -7.34 -75.09 0 P
0.71 -11.46 4.05 -20.2 10.04 -26.21 c
6 -5.99 14.32 -8.98 25.01 -8.98 c
6.21 0 12.22 0.77 18.05 2.35 c
5.81 1.56 11.58 3.91 17.3 7.04 c
0 -14.08 p
-5.77 -3.05 -11.68 -5.39 -17.75 -7.01 c
-6.03 -1.58 -12.16 -2.38 -18.36 -2.38 c
-15.6 0 -27.95 4.56 -37.07 13.67 c
-9.09 9.14 -13.64 21.5 -13.64 37.07 c
0 16.11 4.36 28.88 13.1 38.31 c
8.72 9.46 20.49 14.2 35.3 14.2 c
13.3 0 23.81 -4.19 31.53 -12.54 c
7.73 -8.36 11.59 -19.73 11.59 -34.1 c
10742.6 2951.63 m
-0.12 8.56 -2.62 15.39 -7.52 20.5 c
-4.86 5.1 -11.3 7.66 -19.32 7.66 c
-9.1 0 -16.39 -2.47 -21.86 -7.41 c
-5.46 -4.94 -8.59 -11.89 -9.43 -20.87 c
58.12 0.11 p f
10767.6 2850.72 93.8594 11.7344 re
f
10886.4 2942.24 m
0 -11.7 2.4 -20.9 7.2 -27.58 c
4.79 -6.64 11.38 -9.96 19.76 -9.96 c
8.38 0 14.99 3.32 19.79 9.96 c
4.83 6.68 7.23 15.88 7.23 27.58 c
0 11.71 -2.4 20.89 -7.23 27.54 c
-4.8 6.68 -11.41 10.01 -19.79 10.01 c
-8.38 0 -14.98 -3.33 -19.76 -10.01 c
-4.79 -6.65 -7.2 -15.83 -7.2 -27.54 c
10940.4 2907.05 m
-3.32 -5.56 -7.53 -9.69 -12.61 -12.4 c
-5.09 -2.69 -11.2 -4.03 -18.34 -4.03 c
-11.66 0 -21.16 4.74 -28.48 14.23 c
-7.3 9.48 -10.96 21.95 -10.96 37.39 c
0 15.45 3.65 27.92 10.96 37.41 c
7.33 9.49 16.83 14.23 28.48 14.23 c
7.14 0 13.25 -1.36 18.34 -4.07 c
5.08 -2.69 9.29 -6.81 12.61 -12.36 c
0 14.08 16.43 0 0 -136.11 ^ 0 51.63 p f
11008.8 2907.05 0 -51.63 -16.43 0 0 136.11 ^ 0 -14.08 P
3.32 5.55 7.53 9.66 12.61 12.36 c
5.09 2.71 11.17 4.07 18.22 4.07 c
11.75 0 21.26 -4.74 28.56 -14.23 c
7.3 -9.49 11.06 -21.95 11.06 -37.41 c
0 -15.44 -3.76 -27.91 -11.06 -37.39 c
-7.3 -9.49 -16.82 -14.23 -28.56 -14.23 c
-7.05 0 -13.13 1.34 -18.22 4.03 c
-5.08 2.71 -9.29 6.84 -12.61 12.4 c
11062.8 2942.24 m
0 11.71 -2.41 20.89 -7.23 27.54 c
-4.79 6.68 -11.38 10.01 -19.76 10.01 c
-8.39 0 -14.99 -3.33 -19.8 -10.01 c
-4.79 -6.65 -7.18 -15.83 -7.18 -27.54 c
0 -11.7 2.39 -20.9 7.18 -27.58 c
4.82 -6.64 11.41 -9.96 19.8 -9.96 c
8.38 0 14.97 3.32 19.76 9.96 c
4.81 6.68 7.23 15.88 7.23 27.58 c
f
11164.1 2977.44 m
-1.66 0.81 -3.65 1.39 -5.64 1.76 c
-2.1 0.39 -4.32 0.59 -6.86 0.59 c
-8.75 0 -15.5 -2.95 -20.26 -8.84 c
-4.76 -5.87 -7.09 -14.3 -7.09 -25.3 c
0 -52.68 -16.38 0 0 98.56 ^ 0 -14.08 p
3.32 5.55 7.53 9.66 12.84 12.36 c
5.2 2.71 11.62 4.07 19.15 4.07 c
1 0 2.21 0 3.54 0 c
1.22 0 2.66 0 4.32 0 c
0 -16.43 p f
11198.6 2907.05 0 -51.63 -16.49 0 0 136.11 ^ 0 -14.08 P
3.32 5.55 7.53 9.66 12.62 12.36 c
4.98 2.71 11.07 4.07 18.16 4.07 c
11.73 0 21.25 -4.74 28.56 -14.23 c
7.31 -9.49 11.07 -21.95 11.07 -37.41 c
0 -15.44 -3.76 -27.91 -11.07 -37.39 c
-7.3 -9.49 -16.82 -14.23 -28.56 -14.23 c
-7.09 0 -13.17 1.34 -18.16 4.03 c
-5.09 2.71 -9.3 6.84 -12.62 12.4 c
11252.5 2942.24 m
0 11.71 -2.44 20.89 -7.2 27.54 c
-4.76 6.68 -11.4 10.01 -19.82 10.01 c
-8.3 0 -14.95 -3.33 -19.82 -10.01 c
-4.76 -6.65 -7.09 -15.83 -7.09 -27.54 c
0 -11.7 2.32 -20.9 7.09 -27.58 c
4.87 -6.64 11.51 -9.96 19.82 -9.96 c
8.41 0 15.05 3.32 19.82 9.96 c
4.76 6.68 7.2 15.88 7.2 27.58 c
f
11302.2 2892.96 18.7773 21.1211 re
f
11437.1 2953.31 0 -60.34 -16.49 0 0 59.84 P
0 9.02 -1.77 15.77 -5.32 20.23 c
-3.65 4.5 -8.96 6.75 -16.16 6.75 c
-8.64 0 -15.39 -2.71 -20.37 -8.14 c
-4.98 -5.4 -7.42 -12.79 -7.42 -22.15 c
0 -56.54 -16.38 0 0 136.1 ^ 0 -51.62 p
3.88 5.5 8.41 9.61 13.62 12.32 c
5.2 2.73 11.18 4.11 17.93 4.11 c
11.29 0 19.82 -3.43 25.46 -10.31 c
5.87 -6.84 8.75 -16.93 8.75 -30.25 c
f
11486 3019.68 0 -28.15 32.88 0 0 -11.73 ^ 0 -53.76 P
0 -8.06 1.11 -13.24 3.21 -15.54 c
2.21 -2.3 6.64 -3.44 13.29 -3.44 c
16.38 0 0 -14.08 ^ p
-12.51 0 -21.04 2.37 -25.79 7.11 c
-4.76 4.77 -7.09 13.43 -7.09 25.96 c
0 53.76 -11.73 0 0 11.73 ^ 0 28.15 16.38 0 p f
11617.4 2973.78 m
4.09 6.86 8.86 11.92 14.39 15.18 c
5.64 3.28 12.18 4.92 19.82 4.92 c
10.18 0 18.04 -3.52 23.58 -10.56 c
5.54 -7.02 8.3 -17.02 8.3 -30 c
0 -60.34 -16.38 0 0 59.84 p
0 9.14 -1.66 15.93 -4.98 20.34 c
-3.32 4.43 -8.3 6.64 -15.17 6.64 c
-8.19 0 -14.83 -2.71 -19.59 -8.14 c
-4.76 -5.4 -7.2 -12.79 -7.2 -22.15 c
0 -56.54 -16.38 0 0 59.84 p
0 9.19 -1.66 15.98 -4.98 20.39 c
-3.32 4.39 -8.41 6.6 -15.28 6.6 c
-8.2 0 -14.72 -2.72 -19.48 -8.18 c
-4.87 -5.45 -7.2 -12.82 -7.2 -22.11 c
0 -56.54 -16.5 0 0 98.56 ^ 0 -14.08 p
3.65 5.63 7.97 9.76 13.17 12.43 c
5.09 2.66 11.18 4 18.16 4 c
7.2 0 13.17 -1.73 18.16 -5.17 c
4.98 -3.42 8.63 -8.4 11.07 -14.92 c
f
11716.7 2892.96 16.4297 136.102 re
f
255 G
13025.3 3692.38 340.19 0 113.36 -113.38 0 -453.55 -453.55 0 f*
K
13025.3 3692.38 340.19 0 113.36 -113.38 0 -453.55 -453.55 0 H
S
13365.5 3692.38 0 -113.38 113.36 0 0 0 S
12436.7 2947.23 0 -7.34 -75.17 0 P
0.78 -11.46 4.1 -20.2 10.07 -26.21 c
5.98 -5.99 14.39 -8.98 25.02 -8.98 c
6.2 0 12.18 0.77 18.04 2.35 c
5.87 1.56 11.63 3.91 17.27 7.04 c
0 -14.08 p
-5.75 -3.05 -11.62 -5.39 -17.71 -7.01 c
-6.09 -1.58 -12.18 -2.38 -18.38 -2.38 c
-15.61 0 -27.89 4.56 -37.08 13.67 c
-9.08 9.14 -13.62 21.5 -13.62 37.07 c
0 16.11 4.32 28.88 13.06 38.31 c
8.75 9.46 20.48 14.2 35.31 14.2 c
13.29 0 23.8 -4.19 31.55 -12.54 c
7.75 -8.36 11.63 -19.73 11.63 -34.1 c
12420.2 2951.63 m
-0.11 8.56 -2.55 15.39 -7.53 20.5 c
-4.87 5.1 -11.29 7.66 -19.26 7.66 c
-9.08 0 -16.38 -2.47 -21.92 -7.41 c
-5.43 -4.94 -8.53 -11.89 -9.41 -20.87 c
58.12 0.11 p f
12541 2991.52 -35.09 -47.96 37.42 -50.6 -19.04 0 -28.56 38.72 -27.79 -38.72 -18.48 0 36.97 51.55 
-34.54 47 18.82 0 25.68 -35.12 25.79 35.13 18.82 0 f
12611.8 2942.24 m
-12.62 0 -21.36 -1.45 -26.23 -4.36 c
-4.98 -2.91 -7.42 -7.88 -7.42 -14.92 c
0 -5.6 1.88 -10.05 5.54 -13.35 c
3.65 -3.27 8.63 -4.9 14.95 -4.9 c
8.75 0 15.72 3.08 20.92 9.23 c
5.31 6.19 7.97 14.4 7.97 24.64 c
0 3.66 -15.72 0 p
12643.9 2948.44 0 -55.47 -16.39 0 0 14.08 P
-3.65 -5.62 -8.19 -9.78 -13.61 -12.43 c
-5.43 -2.67 -11.96 -4 -19.82 -4 c
-9.85 0 -17.71 2.76 -23.58 8.28 c
-5.87 5.55 -8.74 12.97 -8.74 22.26 c
0 10.85 3.65 19.03 10.96 24.53 c
7.31 5.52 18.27 8.28 32.77 8.28 c
22.03 0 0 1.76 p
0 7.65 -2.43 13.57 -7.3 17.74 c
-4.76 4.21 -11.51 6.31 -20.15 6.31 c
-5.54 0 -10.96 -0.59 -16.16 -1.76 c
-5.2 -1.17 -10.3 -2.93 -15.06 -5.28 c
0 14.08 p
5.76 2.35 11.52 4.11 16.94 5.28 c
5.54 1.17 10.96 1.76 16.16 1.76 c
14.06 0 24.58 -3.77 31.44 -11.29 c
6.98 -7.51 10.52 -18.89 10.52 -34.14 c
f
12757.1 2973.78 m
3.98 6.86 8.75 11.92 14.39 15.18 c
5.54 3.28 12.18 4.92 19.82 4.92 c
10.18 0 18.04 -3.52 23.47 -10.56 c
5.64 -7.02 8.41 -17.02 8.41 -30 c
0 -60.34 -16.5 0 0 59.84 p
0 9.14 -1.66 15.93 -4.87 20.34 c
-3.32 4.43 -8.41 6.64 -15.16 6.64 c
-8.3 0 -14.84 -2.71 -19.71 -8.14 c
-4.76 -5.4 -7.2 -12.79 -7.2 -22.15 c
0 -56.54 -16.38 0 0 59.84 p
0 9.19 -1.66 15.98 -4.98 20.39 c
-3.32 4.39 -8.41 6.6 -15.28 6.6 c
-8.19 0 -14.73 -2.72 -19.48 -8.18 c
-4.76 -5.45 -7.2 -12.82 -7.2 -22.11 c
0 -56.54 -16.38 0 0 98.56 ^ 0 -14.08 p
3.65 5.63 8.08 9.76 13.17 12.43 c
5.09 2.66 11.18 4 18.27 4 c
7.09 0 13.18 -1.73 18.16 -5.17 c
4.98 -3.42 8.63 -8.4 11.07 -14.92 c
f
12837.4 2850.72 93.8594 11.7344 re
f
12946.9 2991.52 16.39 0 0 -98.56 ^ ^ P
12946.9 3029.06 16.39 0 0 -21.11 ^ ^ f
13079.3 2953.31 0 -60.34 -16.5 0 0 59.84 P
0 9.02 -1.77 15.77 -5.31 20.23 c
-3.65 4.5 -8.97 6.75 -16.16 6.75 c
-8.63 0 -15.39 -2.71 -20.37 -8.14 c
-4.87 -5.4 -7.42 -12.79 -7.42 -22.15 c
0 -56.54 -16.38 0 0 98.56 ^ 0 -14.08 p
3.88 5.5 8.41 9.61 13.62 12.32 c
5.2 2.73 11.18 4.11 17.93 4.11 c
11.29 0 19.82 -3.43 25.57 -10.31 c
5.76 -6.84 8.64 -16.93 8.64 -30.25 c
f
13093.1 2850.72 93.8633 11.7344 re
f
13218.9 2907.05 0 -51.63 -16.5 0 0 136.11 ^ 0 -14.08 P
3.32 5.55 7.53 9.66 12.62 12.36 c
5.09 2.71 11.18 4.07 18.16 4.07 c
11.73 0 21.25 -4.74 28.56 -14.23 c
7.42 -9.49 11.07 -21.95 11.07 -37.41 c
0 -15.44 -3.65 -27.91 -11.07 -37.39 c
-7.3 -9.49 -16.82 -14.23 -28.56 -14.23 c
-6.98 0 -13.06 1.34 -18.16 4.03 c
-5.09 2.71 -9.3 6.84 -12.62 12.4 c
13272.8 2942.24 m
0 11.71 -2.33 20.89 -7.2 27.54 c
-4.76 6.68 -11.4 10.01 -19.71 10.01 c
-8.41 0 -15.05 -3.33 -19.82 -10.01 c
-4.87 -6.65 -7.2 -15.83 -7.2 -27.54 c
0 -11.7 2.32 -20.9 7.2 -27.58 c
4.76 -6.64 11.4 -9.96 19.82 -9.96 c
8.3 0 14.95 3.32 19.71 9.96 c
4.87 6.68 7.2 15.88 7.2 27.58 c
f
13361 2942.24 m
-12.73 0 -21.48 -1.45 -26.35 -4.36 c
-4.87 -2.91 -7.3 -7.88 -7.3 -14.92 c
0 -5.6 1.77 -10.05 5.42 -13.35 c
3.66 -3.27 8.64 -4.9 14.95 -4.9 c
8.75 0 15.72 3.08 21.04 9.23 c
5.2 6.19 7.86 14.4 7.86 24.64 c
0 3.66 -15.61 0 p
13393 2948.44 0 -55.47 -16.38 0 0 14.08 P
-3.65 -5.62 -8.19 -9.78 -13.5 -12.43 c
-5.43 -2.67 -12.07 -4 -19.93 -4 c
-9.85 0 -17.71 2.76 -23.58 8.28 c
-5.76 5.55 -8.75 12.97 -8.75 22.26 c
0 10.85 3.65 19.03 10.96 24.53 c
7.3 5.52 18.27 8.28 32.77 8.28 c
22.03 0 0 1.76 p
0 7.65 -2.43 13.57 -7.2 17.74 c
-4.87 4.21 -11.62 6.31 -20.26 6.31 c
-5.54 0 -10.85 -0.59 -16.16 -1.76 c
-5.2 -1.17 -10.18 -2.93 -15.05 -5.28 c
0 14.08 p
5.87 2.35 11.51 4.11 17.05 5.28 c
5.43 1.17 10.85 1.76 16.05 1.76 c
14.06 0 24.58 -3.77 31.55 -11.29 c
6.98 -7.51 10.41 -18.89 10.41 -34.14 c
f
13445.4 2907.05 0 -51.63 -16.38 0 0 136.11 ^ 0 -14.08 P
3.32 5.55 7.53 9.66 12.62 12.36 c
5.09 2.71 11.18 4.07 18.27 4.07 c
11.73 0 21.25 -4.74 28.56 -14.23 c
7.3 -9.49 10.96 -21.95 10.96 -37.41 c
0 -15.44 -3.65 -27.91 -10.96 -37.39 c
-7.31 -9.49 -16.83 -14.23 -28.56 -14.23 c
-7.09 0 -13.18 1.34 -18.27 4.03 c
-5.09 2.71 -9.3 6.84 -12.62 12.4 c
13499.5 2942.24 m
0 11.71 -2.43 20.89 -7.2 27.54 c
-4.87 6.68 -11.4 10.01 -19.82 10.01 c
-8.41 0 -14.95 -3.33 -19.82 -10.01 c
-4.76 -6.65 -7.2 -15.83 -7.2 -27.54 c
0 -11.7 2.44 -20.9 7.2 -27.58 c
4.87 -6.64 11.4 -9.96 19.82 -9.96 c
8.41 0 14.95 3.32 19.82 9.96 c
4.76 6.68 7.2 15.88 7.2 27.58 c
f
13629 2947.23 0 -7.34 -75.17 0 P
0.77 -11.46 4.09 -20.2 10.07 -26.21 c
5.98 -5.99 14.28 -8.98 25.02 -8.98 c
6.2 0 12.18 0.77 18.04 2.35 c
5.76 1.56 11.51 3.91 17.27 7.04 c
0 -14.08 p
-5.76 -3.05 -11.62 -5.39 -17.71 -7.01 c
-6.09 -1.58 -12.18 -2.38 -18.37 -2.38 c
-15.61 0 -28.01 4.56 -37.09 13.67 c
-9.08 9.14 -13.61 21.5 -13.61 37.07 c
0 16.11 4.32 28.88 13.06 38.31 c
8.75 9.46 20.48 14.2 35.31 14.2 c
13.29 0 23.8 -4.19 31.55 -12.54 c
7.75 -8.36 11.63 -19.73 11.63 -34.1 c
13612.5 2951.63 m
-0.11 8.56 -2.66 15.39 -7.53 20.5 c
-4.87 5.1 -11.29 7.66 -19.26 7.66 c
-9.08 0 -16.39 -2.47 -21.92 -7.41 c
-5.42 -4.94 -8.52 -11.89 -9.41 -20.87 c
58.12 0.11 p f
13712.7 2977.44 m
-1.77 0.81 -3.76 1.39 -5.75 1.76 c
-2.11 0.39 -4.32 0.59 -6.87 0.59 c
-8.74 0 -15.5 -2.95 -20.26 -8.84 c
-4.65 -5.87 -7.08 -14.3 -7.08 -25.3 c
0 -52.68 -16.39 0 0 98.56 ^ 0 -14.08 p
3.32 5.55 7.53 9.66 12.84 12.36 c
5.2 2.71 11.63 4.07 19.15 4.07 c
1 0 2.21 0 3.54 0 c
1.33 0 2.77 0 4.32 0 c
0.11 -16.43 p f
13719.1 2892.96 18.7695 21.1211 re
f
13853.8 2953.31 0 -60.34 -16.38 0 0 59.84 P
0 9.02 -1.77 15.77 -5.43 20.23 c
-3.54 4.5 -8.96 6.75 -16.05 6.75 c
-8.63 0 -15.39 -2.71 -20.37 -8.14 c
-4.98 -5.4 -7.42 -12.79 -7.42 -22.15 c
0 -56.54 -16.5 0 0 136.1 ^ 0 -51.62 p
3.76 5.5 8.3 9.61 13.51 12.32 c
5.2 2.73 11.18 4.11 18.04 4.11 c
11.18 0 19.7 -3.43 25.46 -10.31 c
5.76 -6.84 8.63 -16.93 8.63 -30.25 c
f
13902.8 3019.68 0 -28.15 32.77 0 0 -11.73 ^ 0 -53.76 P
0 -8.06 1 -13.24 3.21 -15.54 c
2.21 -2.3 6.53 -3.44 13.17 -3.44 c
16.39 0 0 -14.08 ^ p
-12.4 0 -21.03 2.37 -25.68 7.11 c
-4.76 4.77 -7.2 13.43 -7.2 25.96 c
0 53.76 -11.73 0 0 11.73 ^ 0 28.15 16.5 0 p f
14034.2 2973.78 m
3.98 6.86 8.86 11.92 14.39 15.18 c
5.65 3.28 12.18 4.92 19.82 4.92 c
10.18 0 18.05 -3.52 23.58 -10.56 c
5.54 -7.02 8.3 -17.02 8.3 -30 c
0 -60.34 -16.38 0 0 59.84 p
0 9.14 -1.66 15.93 -4.98 20.34 c
-3.32 4.43 -8.41 6.64 -15.17 6.64 c
-8.3 0 -14.84 -2.71 -19.59 -8.14 c
-4.87 -5.4 -7.2 -12.79 -7.2 -22.15 c
0 -56.54 -16.5 0 0 59.84 p
0 9.19 -1.66 15.98 -4.98 20.39 c
-3.21 4.39 -8.3 6.6 -15.28 6.6 c
-8.19 0 -14.61 -2.72 -19.48 -8.18 c
-4.76 -5.45 -7.2 -12.82 -7.2 -22.11 c
0 -56.54 -16.38 0 0 98.56 ^ 0 -14.08 p
3.65 5.63 8.08 9.76 13.17 12.43 c
5.2 2.66 11.29 4 18.27 4 c
7.09 0 13.18 -1.73 18.16 -5.17 c
4.98 -3.42 8.64 -8.4 11.07 -14.92 c
f
14133.4 2892.96 16.4258 136.102 re
f
13252.1 3692.38 -0.66 889.89 S
11059.7 4582.27 4383.69 0 S
11041.4 3688.58 -0.85 899.9 S
14515.9 2934.5 m
0 -11.71 2.32 -20.9 7.2 -27.57 c
4.76 -6.65 11.29 -9.98 19.71 -9.98 c
8.41 0 14.95 3.33 19.82 9.98 c
4.76 6.66 7.2 15.86 7.2 27.57 c
0 11.71 -2.44 20.89 -7.2 27.54 c
-4.87 6.66 -11.4 10.01 -19.82 10.01 c
-8.41 0 -14.95 -3.34 -19.71 -10.01 c
-4.87 -6.65 -7.2 -15.83 -7.2 -27.54 c
14569.8 2899.31 m
-3.32 -5.56 -7.53 -9.69 -12.62 -12.4 c
-5.09 -2.69 -11.18 -4.03 -18.27 -4.03 c
-11.73 0 -21.14 4.74 -28.56 14.23 c
-7.3 9.49 -10.96 21.95 -10.96 37.39 c
0 15.45 3.65 27.92 10.96 37.41 c
7.42 9.48 16.83 14.23 28.56 14.23 c
7.09 0 13.17 -1.36 18.27 -4.07 c
5.09 -2.69 9.3 -6.81 12.62 -12.36 c
0 14.08 16.49 0 0 -136.11 ^ 0 51.63 p f
14621.9 2923.35 0 60.43 16.5 0 0 -59.8 P
0 -9 1.77 -15.77 5.31 -20.28 c
3.54 -4.5 8.97 -6.75 16.05 -6.75 c
8.63 0 15.39 2.71 20.37 8.11 c
4.98 5.43 7.53 12.82 7.53 22.15 c
0 56.58 16.38 0 0 -98.56 ^ 0 14.08 p
-3.87 -5.56 -8.41 -9.69 -13.62 -12.4 c
-5.09 -2.69 -11.07 -4.03 -17.82 -4.03 c
-11.29 0 -19.82 3.43 -25.57 10.3 c
-5.87 6.89 -8.75 16.96 -8.75 30.18 c
14662.5 2986.13 f
14821 2939.49 0 -7.34 -75.06 0 P
0.77 -11.46 4.1 -20.2 10.07 -26.21 c
5.98 -5.99 14.28 -8.99 25.02 -8.99 c
6.2 0 12.18 0.79 18.04 2.36 c
5.76 1.56 11.52 3.91 17.27 7.04 c
0 -14.08 p
-5.75 -3.05 -11.62 -5.39 -17.71 -7.01 c
-6.09 -1.59 -12.18 -2.38 -18.37 -2.38 c
-15.61 0 -28.01 4.56 -37.09 13.67 c
-9.08 9.14 -13.62 21.5 -13.62 37.07 c
0 16.11 4.32 28.88 13.06 38.31 c
8.75 9.46 20.48 14.2 35.31 14.2 c
13.29 0 23.8 -4.19 31.55 -12.54 c
7.75 -8.36 11.52 -19.73 11.52 -34.1 c
14804.6 2943.89 m
-0.11 8.56 -2.66 15.39 -7.53 20.5 c
-4.87 5.1 -11.29 7.66 -19.26 7.66 c
-9.19 0 -16.38 -2.47 -21.92 -7.41 c
-5.43 -4.94 -8.52 -11.89 -9.41 -20.87 c
58.12 0.11 p f
14909.5 2979.09 0 -14.08 P
-4.43 2.35 -8.97 4.11 -13.73 5.28 c
-4.76 1.18 -9.63 1.76 -14.72 1.76 c
-7.75 0 -13.51 -1.21 -17.38 -3.63 c
-3.87 -2.41 -5.75 -6.05 -5.75 -10.89 c
0 -3.69 1.33 -6.59 3.98 -8.69 c
2.77 -2.1 8.19 -4.11 16.38 -6.01 c
5.2 -1.21 p
11.07 -2.45 19.04 -5.9 23.69 -10.38 c
4.65 -4.47 6.97 -10.71 6.97 -18.73 c
0 -9.12 -3.43 -16.34 -10.41 -21.68 c
-6.97 -5.3 -16.61 -7.95 -28.89 -7.95 c
-5.09 0 -10.41 0.59 -15.94 1.76 c
-5.54 1.17 -11.4 2.93 -17.49 5.28 c
0 16.43 p
5.76 -3.13 11.4 -5.48 17.05 -7.04 c
5.54 -1.57 11.07 -2.36 16.5 -2.36 c
7.3 0 12.95 1.29 16.94 3.86 c
3.88 2.58 5.87 6.21 5.87 10.88 c
0 4.35 -1.44 7.67 -4.21 9.97 c
-2.77 2.33 -8.86 4.56 -18.37 6.71 c
-5.32 1.29 p
-10.07 2.1 -17.27 5.32 -21.7 9.67 c
-4.54 4.36 -6.75 10.32 -6.75 17.9 c
0 9.21 3.21 16.33 9.74 21.33 c
6.42 5.04 15.61 7.56 27.45 7.56 c
5.87 0 11.4 -0.59 16.5 -1.76 c
5.2 -1.17 9.96 -2.93 14.39 -5.28 c
f
14959 3011.95 0 -28.16 32.88 0 0 -11.73 ^ 0 -53.76 P
0 -8.06 1.11 -13.24 3.21 -15.54 c
2.21 -2.3 6.53 -3.44 13.29 -3.44 c
16.38 0 0 -14.08 ^ p
-12.51 0 -21.04 2.37 -25.79 7.11 c
-4.76 4.77 -7.2 13.42 -7.2 25.96 c
0 53.76 -11.73 0 0 11.73 ^ 0 28.16 16.49 0 p f
15013.4 2983.79 16.38 0 0 -98.56 ^ ^ P
15013.4 3021.34 16.38 0 0 -21.12 ^ ^ f
15101.3 2972.05 m
-8.75 0 -15.61 -3.36 -20.7 -10.05 c
-4.98 -6.69 -7.53 -15.87 -7.53 -27.5 c
0 -11.64 2.43 -20.8 7.53 -27.5 c
4.98 -6.7 11.85 -10.05 20.7 -10.05 c
8.63 0 15.5 3.37 20.48 10.09 c
5.09 6.73 7.64 15.89 7.64 27.46 c
0 11.54 -2.55 20.68 -7.64 27.43 c
-4.98 6.74 -11.85 10.12 -20.48 10.12 c
15101.2 2986.13 m
13.95 0 24.8 -4.57 32.77 -13.72 c
7.86 -9.12 11.84 -21.75 11.84 -37.91 c
0 -16.11 -3.98 -28.75 -11.84 -37.91 c
-7.97 -9.14 -18.82 -13.71 -32.77 -13.71 c
-13.95 0 -24.8 4.57 -32.77 13.71 c
-7.86 9.16 -11.85 21.8 -11.85 37.91 c
0 16.16 3.99 28.79 11.85 37.91 c
7.97 9.14 18.82 13.72 32.77 13.72 c
f
15257 2945.58 0 -60.36 -16.38 0 0 59.84 P
0 9.02 -1.88 15.76 -5.43 20.25 c
-3.54 4.49 -8.96 6.74 -16.05 6.74 c
-8.63 0 -15.39 -2.71 -20.37 -8.14 c
-4.98 -5.4 -7.53 -12.79 -7.53 -22.15 c
0 -56.54 -16.38 0 0 98.56 ^ 0 -14.08 p
3.88 5.5 8.41 9.61 13.62 12.32 c
5.2 2.73 11.18 4.11 18.05 4.11 c
11.18 0 19.7 -3.45 25.46 -10.31 c
5.76 -6.84 8.63 -16.93 8.63 -30.24 c
f
15350.5 2979.09 0 -14.08 P
-4.32 2.35 -8.96 4.11 -13.73 5.28 c
-4.65 1.18 -9.63 1.76 -14.72 1.76 c
-7.75 0 -13.5 -1.21 -17.38 -3.63 c
-3.87 -2.41 -5.76 -6.05 -5.76 -10.89 c
0 -3.69 1.33 -6.59 3.98 -8.69 c
2.77 -2.1 8.2 -4.11 16.39 -6.01 c
5.2 -1.21 p
11.18 -2.45 19.04 -5.9 23.69 -10.38 c
4.65 -4.47 7.09 -10.71 7.09 -18.73 c
0 -9.12 -3.54 -16.34 -10.52 -21.68 c
-6.98 -5.3 -16.61 -7.95 -28.89 -7.95 c
-5.09 0 -10.41 0.59 -15.94 1.76 c
-5.54 1.17 -11.29 2.93 -17.38 5.28 c
0 16.43 p
5.64 -3.13 11.4 -5.48 16.94 -7.04 c
5.54 -1.57 11.07 -2.36 16.49 -2.36 c
7.31 0 12.95 1.29 16.94 3.86 c
3.99 2.58 5.87 6.21 5.87 10.88 c
0 4.35 -1.33 7.67 -4.09 9.97 c
-2.88 2.33 -8.97 4.56 -18.38 6.71 c
-5.31 1.29 p
-10.07 2.1 -17.38 5.32 -21.81 9.67 c
-4.43 4.36 -6.64 10.32 -6.64 17.9 c
0 9.21 3.21 16.33 9.63 21.33 c
6.42 5.04 15.61 7.56 27.45 7.56 c
5.87 0 11.41 -0.59 16.61 -1.76 c
5.2 -1.17 9.96 -2.93 14.28 -5.28 c
f
15364.9 2842.98 93.8594 11.7344 re
f
15490.8 2899.31 0 -51.63 -16.5 0 0 136.11 ^ 0 -14.08 P
3.32 5.55 7.53 9.66 12.62 12.36 c
5.09 2.71 11.07 4.07 18.16 4.07 c
11.73 0 21.25 -4.75 28.56 -14.23 c
7.3 -9.49 11.07 -21.95 11.07 -37.41 c
0 -15.44 -3.77 -27.91 -11.07 -37.39 c
-7.31 -9.49 -16.83 -14.23 -28.56 -14.23 c
-7.09 0 -13.06 1.34 -18.16 4.03 c
-5.09 2.71 -9.3 6.84 -12.62 12.4 c
15544.7 2934.5 m
0 11.71 -2.32 20.89 -7.2 27.54 c
-4.76 6.66 -11.4 10.01 -19.82 10.01 c
-8.3 0 -14.95 -3.34 -19.7 -10.01 c
-4.87 -6.65 -7.2 -15.83 -7.2 -27.54 c
0 -11.71 2.32 -20.9 7.2 -27.57 c
4.76 -6.65 11.4 -9.98 19.7 -9.98 c
8.41 0 15.05 3.33 19.82 9.98 c
4.87 6.66 7.2 15.86 7.2 27.57 c
f
15646.1 2969.7 m
-1.77 0.81 -3.76 1.39 -5.75 1.76 c
-2.11 0.39 -4.32 0.59 -6.86 0.59 c
-8.75 0 -15.5 -2.95 -20.26 -8.84 c
-4.76 -5.87 -7.08 -14.3 -7.08 -25.3 c
0 -52.68 -16.39 0 0 98.56 ^ 0 -14.08 p
3.32 5.55 7.53 9.66 12.84 12.36 c
5.2 2.71 11.63 4.07 19.15 4.07 c
1 0 2.21 0 3.54 0 c
1.21 0 2.66 0 4.32 0 c
0.11 -16.43 p f
15680.5 2899.31 0 -51.63 -16.5 0 0 136.11 ^ 0 -14.08 P
3.32 5.55 7.53 9.66 12.62 12.36 c
5.09 2.71 11.07 4.07 18.16 4.07 c
11.73 0 21.25 -4.75 28.56 -14.23 c
7.3 -9.49 11.07 -21.95 11.07 -37.41 c
0 -15.44 -3.77 -27.91 -11.07 -37.39 c
-7.3 -9.49 -16.83 -14.23 -28.56 -14.23 c
-7.09 0 -13.07 1.34 -18.16 4.03 c
-5.09 2.71 -9.3 6.84 -12.62 12.4 c
15734.4 2934.5 m
0 11.71 -2.43 20.89 -7.2 27.54 c
-4.76 6.66 -11.4 10.01 -19.81 10.01 c
-8.3 0 -14.95 -3.34 -19.71 -10.01 c
-4.87 -6.65 -7.2 -15.83 -7.2 -27.54 c
0 -11.71 2.32 -20.9 7.2 -27.57 c
4.76 -6.65 11.4 -9.98 19.71 -9.98 c
8.41 0 15.05 3.33 19.81 9.98 c
4.76 6.66 7.2 15.86 7.2 27.57 c
f
15784.1 2885.23 18.7773 21.1211 re
f
15919 2945.58 0 -60.36 -16.5 0 0 59.84 P
0 9.02 -1.77 15.76 -5.31 20.25 c
-3.65 4.49 -8.97 6.74 -16.16 6.74 c
-8.63 0 -15.39 -2.71 -20.37 -8.14 c
-4.87 -5.4 -7.42 -12.79 -7.42 -22.15 c
0 -56.54 -16.38 0 0 136.11 ^ 0 -51.63 p
3.88 5.5 8.41 9.61 13.62 12.32 c
5.2 2.73 11.18 4.11 17.93 4.11 c
11.29 0 19.82 -3.45 25.57 -10.31 c
5.76 -6.84 8.64 -16.93 8.64 -30.24 c
f
15967.9 3011.95 0 -28.16 32.88 0 0 -11.73 ^ 0 -53.76 P
0 -8.06 1.11 -13.24 3.21 -15.54 c
2.21 -2.3 6.64 -3.44 13.28 -3.44 c
16.39 0 0 -14.08 ^ p
-12.39 0 -21.03 2.37 -25.79 7.11 c
-4.76 4.77 -7.08 13.42 -7.08 25.96 c
0 53.76 -11.73 0 0 11.73 ^ 0 28.16 16.38 0 p f
16099.3 2966.04 m
4.1 6.86 8.86 11.92 14.39 15.18 c
5.65 3.28 12.29 4.92 19.82 4.92 c
10.18 0 18.04 -3.52 23.58 -10.56 c
5.54 -7.02 8.3 -17.02 8.3 -29.99 c
0 -60.36 -16.38 0 0 59.84 p
0 9.14 -1.66 15.93 -4.98 20.34 c
-3.21 4.43 -8.3 6.64 -15.05 6.64 c
-8.3 0 -14.95 -2.71 -19.7 -8.14 c
-4.76 -5.4 -7.2 -12.79 -7.2 -22.15 c
0 -56.54 -16.39 0 0 59.84 p
0 9.2 -1.66 15.98 -4.98 20.39 c
-3.32 4.39 -8.41 6.6 -15.28 6.6 c
-8.19 0 -14.72 -2.72 -19.48 -8.18 c
-4.87 -5.45 -7.2 -12.82 -7.2 -22.11 c
0 -56.54 -16.49 0 0 98.56 ^ 0 -14.08 p
3.66 5.63 7.97 9.77 13.18 12.43 c
5.09 2.67 11.18 4 18.27 4 c
7.09 0 13.06 -1.73 18.04 -5.17 c
4.98 -3.42 8.75 -8.4 11.07 -14.92 c
f
16198.6 2885.23 16.4258 136.105 re
f
255 G
15200.9 3686.42 340.07 0 113.47 -113.38 0 -453.54 -453.54 0 f*
K
15200.9 3686.42 340.07 0 113.47 -113.38 0 -453.54 -453.54 0 H
S
15541 3686.42 0 -113.38 113.47 0 0 0 S
15429.3 3694.78 -0.55 887.83 S
255 G
2730.51 846.18 340.14 0 113.39 -113.38 0 -453.54 -453.54 0 f*
K
2730.51 846.18 340.14 0 113.39 -113.38 0 -453.54 -453.54 0 H
S
3070.65 846.18 0 -113.38 113.39 0 0 0 S
2122.32 101.04 0 -7.34 -75.09 0 P
0.71 -11.46 4.05 -20.2 10.04 -26.21 c
5.99 -5.99 14.33 -8.98 25.01 -8.98 c
6.21 0 12.22 0.78 18.05 2.35 c
5.81 1.57 11.58 3.91 17.3 7.04 c
0 -14.08 p
-5.77 -3.06 -11.68 -5.39 -17.75 -7.01 c
-6.03 -1.59 -12.16 -2.38 -18.36 -2.38 c
-15.6 0 -27.95 4.56 -37.07 13.68 c
-9.09 9.14 -13.64 21.5 -13.64 37.07 c
0 16.11 4.36 28.88 13.09 38.32 c
8.72 9.46 20.5 14.19 35.31 14.19 c
13.3 0 23.8 -4.18 31.53 -12.54 c
7.73 -8.36 11.59 -19.73 11.59 -34.1 c
2105.89 105.43 m
-0.12 8.56 -2.62 15.39 -7.52 20.5 c
-4.87 5.11 -11.3 7.66 -19.32 7.66 c
-9.1 0 -16.39 -2.46 -21.86 -7.4 c
-5.45 -4.94 -8.59 -11.89 -9.42 -20.86 c
58.12 0.11 p f
2226.66 145.33 -35.12 -47.96 37.47 -50.6 -19.03 0 -28.61 38.72 -27.75 -38.72 -18.47 0 36.88 51.55 
-34.54 47.01 18.81 0 25.77 -35.13 25.78 35.13 18.81 0 f
2297.53 96.05 m
-12.66 0 -21.44 -1.46 -26.32 -4.36 c
-4.89 -2.91 -7.33 -7.88 -7.33 -14.92 c
0 -5.6 1.82 -10.05 5.49 -13.35 c
3.68 -3.27 8.66 -4.91 14.97 -4.91 c
8.7 0 15.68 3.08 20.93 9.24 c
5.26 6.18 7.88 14.39 7.88 24.64 c
0 3.67 -15.62 0 p
2329.58 102.25 0 -55.47 -16.43 0 0 14.08 P
-3.62 -5.62 -8.12 -9.77 -13.53 -12.43 c
-5.4 -2.66 -12.01 -4 -19.84 -4 c
-9.89 0 -17.77 2.77 -23.61 8.29 c
-5.82 5.55 -8.72 12.97 -8.72 22.26 c
0 10.86 3.65 19.03 10.96 24.53 c
7.3 5.52 18.22 8.29 32.75 8.29 c
22 0 0 1.76 p
0 7.65 -2.4 13.57 -7.23 17.75 c
-4.78 4.2 -11.52 6.3 -20.2 6.3 c
-5.51 0 -10.89 -0.58 -16.13 -1.76 c
-5.22 -1.17 -10.26 -2.93 -15.1 -5.28 c
0 14.08 p
5.83 2.35 11.51 4.11 17.01 5.28 c
5.52 1.18 10.88 1.76 16.1 1.76 c
14.07 0 24.59 -3.76 31.53 -11.29 c
6.96 -7.5 10.45 -18.88 10.45 -34.14 c
f
2442.67 127.59 m
4.04 6.86 8.85 11.93 14.41 15.18 c
5.6 3.28 12.2 4.91 19.79 4.91 c
10.2 0 18.05 -3.52 23.58 -10.56 c
5.54 -7.01 8.32 -17.01 8.32 -29.99 c
0 -60.35 -16.43 0 0 59.84 p
0 9.14 -1.65 15.93 -4.95 20.35 c
-3.3 4.43 -8.34 6.63 -15.14 6.63 c
-8.28 0 -14.83 -2.71 -19.65 -8.14 c
-4.79 -5.4 -7.18 -12.79 -7.18 -22.14 c
0 -56.54 -16.43 0 0 59.84 p
0 9.19 -1.65 15.99 -4.95 20.39 c
-3.3 4.4 -8.4 6.6 -15.3 6.6 c
-8.18 0 -14.69 -2.72 -19.5 -8.17 c
-4.79 -5.45 -7.19 -12.82 -7.19 -22.11 c
0 -56.54 -16.41 0 0 98.56 ^ 0 -14.08 p
3.66 5.63 8.06 9.77 13.16 12.43 c
5.14 2.66 11.23 4 18.27 4 c
7.11 0 13.15 -1.72 18.11 -5.17 c
4.99 -3.43 8.68 -8.4 11.07 -14.92 c
f
2523.15 4.53125 93.8633 11.7344 re
f
2693.56 140.63 0 -14.08 P
-4.4 2.35 -8.97 4.11 -13.71 5.28 c
-4.75 1.18 -9.66 1.76 -14.75 1.76 c
-7.73 0 -13.52 -1.21 -17.38 -3.63 c
-3.86 -2.42 -5.79 -6.05 -5.79 -10.89 c
0 -3.7 1.34 -6.59 4.03 -8.69 c
2.71 -2.1 8.17 -4.11 16.36 -6.01 c
5.23 -1.21 p
11.09 -2.44 18.98 -5.9 23.65 -10.38 c
4.69 -4.47 7.04 -10.72 7.04 -18.73 c
0 -9.12 -3.49 -16.34 -10.48 -21.67 c
-7 -5.3 -16.61 -7.96 -28.86 -7.96 c
-5.1 0 -10.42 0.59 -15.94 1.76 c
-5.54 1.18 -11.34 2.94 -17.46 5.28 c
0 16.43 p
5.75 -3.13 11.4 -5.47 16.97 -7.04 c
5.58 -1.57 11.09 -2.35 16.54 -2.35 c
7.34 0 12.97 1.29 16.9 3.85 c
3.94 2.59 5.9 6.22 5.9 10.89 c
0 4.35 -1.39 7.68 -4.18 9.97 c
-2.79 2.32 -8.91 4.55 -18.36 6.71 c
-5.33 1.28 p
-10.04 2.1 -17.3 5.33 -21.77 9.68 c
-4.45 4.35 -6.68 10.32 -6.68 17.89 c
0 9.21 3.23 16.33 9.68 21.34 c
6.45 5.03 15.61 7.55 27.46 7.55 c
5.87 0 11.39 -0.59 16.57 -1.76 c
5.18 -1.17 9.96 -2.93 14.34 -5.28 c
f
2743.14 173.49 0 -28.16 32.84 0 0 -11.74 ^ 0 -53.75 P
0 -8.07 1.07 -13.25 3.22 -15.55 c
2.17 -2.3 6.59 -3.45 13.24 -3.45 c
16.38 0 0 -14.08 ^ p
-12.44 0 -21.03 2.37 -25.78 7.11 c
-4.74 4.77 -7.11 13.42 -7.11 25.96 c
0 53.75 -11.73 0 0 11.74 ^ 0 28.16 16.43 0 p f
2840.56 96.05 m
-12.66 0 -21.44 -1.46 -26.34 -4.36 c
-4.88 -2.91 -7.33 -7.88 -7.33 -14.92 c
0 -5.6 1.84 -10.05 5.5 -13.35 c
3.66 -3.27 8.65 -4.91 14.96 -4.91 c
8.7 0 15.69 3.08 20.93 9.24 c
5.26 6.18 7.88 14.39 7.88 24.64 c
0 3.67 -15.61 0 p
2872.59 102.25 0 -55.47 -16.43 0 0 14.08 P
-3.61 -5.62 -8.12 -9.77 -13.52 -12.43 c
-5.41 -2.66 -12.02 -4 -19.85 -4 c
-9.89 0 -17.77 2.77 -23.6 8.29 c
-5.82 5.55 -8.73 12.97 -8.73 22.26 c
0 10.86 3.65 19.03 10.97 24.53 c
7.3 5.52 18.22 8.29 32.73 8.29 c
22 0 0 1.76 p
0 7.65 -2.4 13.57 -7.22 17.75 c
-4.79 4.2 -11.52 6.3 -20.2 6.3 c
-5.52 0 -10.9 -0.58 -16.13 -1.76 c
-5.24 -1.17 -10.27 -2.93 -15.11 -5.28 c
0 14.08 p
5.84 2.35 11.51 4.11 17.01 5.28 c
5.53 1.18 10.89 1.76 16.1 1.76 c
14.08 0 24.59 -3.76 31.53 -11.29 c
6.98 -7.5 10.45 -18.88 10.45 -34.14 c
f
2925.09 173.49 0 -28.16 32.84 0 0 -11.74 ^ 0 -53.75 P
0 -8.07 1.07 -13.25 3.22 -15.55 c
2.18 -2.3 6.59 -3.45 13.24 -3.45 c
16.38 0 0 -14.08 ^ p
-12.44 0 -21.03 2.37 -25.78 7.11 c
-4.74 4.77 -7.11 13.42 -7.11 25.96 c
0 53.75 -11.73 0 0 11.74 ^ 0 28.16 16.43 0 p f
2979.46 145.33 16.43 0 0 -98.56 ^ ^ P
2979.46 182.88 16.43 0 0 -21.12 ^ ^ f
3090.73 140.63 0 -14.08 P
-4.39 2.35 -8.97 4.11 -13.71 5.28 c
-4.74 1.18 -9.66 1.76 -14.74 1.76 c
-7.73 0 -13.52 -1.21 -17.38 -3.63 c
-3.86 -2.42 -5.79 -6.05 -5.79 -10.89 c
0 -3.7 1.34 -6.59 4.03 -8.69 c
2.71 -2.1 8.17 -4.11 16.35 -6.01 c
5.25 -1.21 p
11.09 -2.44 18.98 -5.9 23.64 -10.38 c
4.7 -4.47 7.04 -10.72 7.04 -18.73 c
0 -9.12 -3.5 -16.34 -10.48 -21.67 c
-7 -5.3 -16.61 -7.96 -28.86 -7.96 c
-5.1 0 -10.41 0.59 -15.95 1.76 c
-5.52 1.18 -11.34 2.94 -17.45 5.28 c
0 16.43 p
5.75 -3.13 11.4 -5.47 16.97 -7.04 c
5.58 -1.57 11.09 -2.35 16.54 -2.35 c
7.34 0 12.97 1.29 16.9 3.85 c
3.94 2.59 5.9 6.22 5.9 10.89 c
0 4.35 -1.38 7.68 -4.18 9.97 c
-2.79 2.32 -8.91 4.55 -18.37 6.71 c
-5.31 1.28 p
-10.04 2.1 -17.3 5.33 -21.78 9.68 c
-4.45 4.35 -6.68 10.32 -6.68 17.89 c
0 9.21 3.22 16.33 9.68 21.34 c
6.45 5.03 15.61 7.55 27.46 7.55 c
5.87 0 11.39 -0.59 16.57 -1.76 c
5.19 -1.17 9.96 -2.93 14.34 -5.28 c
f
3140.32 173.49 0 -28.16 32.85 0 0 -11.74 ^ 0 -53.75 P
0 -8.07 1.07 -13.25 3.22 -15.55 c
2.18 -2.3 6.59 -3.45 13.24 -3.45 c
16.39 0 0 -14.08 ^ p
-12.44 0 -21.03 2.37 -25.78 7.11 c
-4.74 4.77 -7.11 13.42 -7.11 25.96 c
0 53.75 -11.73 0 0 11.74 ^ 0 28.16 16.43 0 p f
3194.68 145.33 16.43 0 0 -98.56 ^ ^ P
3194.68 182.88 16.43 0 0 -21.12 ^ ^ f
3315.35 140.63 0 -14.08 P
-4.59 2.35 -9.2 4.11 -13.82 5.28 c
-4.61 1.18 -9.24 1.76 -13.94 1.76 c
-10.54 0 -18.72 -3.29 -24.53 -9.86 c
-5.81 -6.58 -8.72 -15.8 -8.72 -27.68 c
0 -11.88 2.91 -21.11 8.72 -27.68 c
5.81 -6.58 13.99 -9.86 24.53 -9.86 c
4.7 0 9.33 0.59 13.94 1.76 c
4.62 1.18 9.22 2.94 13.82 5.28 c
0 -14.08 p
-4.5 -2.34 -9.16 -4.11 -13.97 -5.28 c
-4.8 -1.17 -9.9 -1.76 -15.32 -1.76 c
-14.74 0 -26.46 4.64 -35.14 13.93 c
-8.67 9.32 -13.01 21.88 -13.01 37.7 c
0 16.04 4.39 28.65 13.16 37.84 c
8.78 9.2 20.79 13.79 36.04 13.79 c
4.96 0 9.8 -0.59 14.52 -1.76 c
4.71 -1.17 9.29 -2.93 13.71 -5.28 c
f
3405.79 140.63 0 -14.08 P
-4.41 2.35 -8.98 4.11 -13.72 5.28 c
-4.74 1.18 -9.65 1.76 -14.73 1.76 c
-7.73 0 -13.53 -1.21 -17.38 -3.63 c
-3.87 -2.42 -5.8 -6.05 -5.8 -10.89 c
0 -3.7 1.35 -6.59 4.04 -8.69 c
2.71 -2.1 8.16 -4.11 16.35 -6.01 c
5.24 -1.21 p
11.1 -2.44 18.98 -5.9 23.66 -10.38 c
4.69 -4.47 7.04 -10.72 7.04 -18.73 c
0 -9.12 -3.5 -16.34 -10.49 -21.67 c
-6.99 -5.3 -16.61 -7.96 -28.85 -7.96 c
-5.11 0 -10.43 0.59 -15.95 1.76 c
-5.53 1.18 -11.35 2.94 -17.46 5.28 c
0 16.43 p
5.75 -3.13 11.4 -5.47 16.98 -7.04 c
5.57 -1.57 11.08 -2.35 16.54 -2.35 c
7.33 0 12.96 1.29 16.9 3.85 c
3.93 2.59 5.9 6.22 5.9 10.89 c
0 4.35 -1.39 7.68 -4.19 9.97 c
-2.79 2.32 -8.91 4.55 -18.36 6.71 c
-5.31 1.28 p
-10.05 2.1 -17.32 5.33 -21.79 9.68 c
-4.45 4.35 -6.68 10.32 -6.68 17.89 c
0 9.21 3.23 16.33 9.69 21.34 c
6.45 5.03 15.61 7.55 27.46 7.55 c
5.86 0 11.39 -0.59 16.57 -1.76 c
5.18 -1.17 9.96 -2.93 14.34 -5.28 c
f
3443.63 46.7734 18.7773 21.1172 re
f
3578.42 107.13 0 -60.35 -16.43 0 0 59.84 P
0 9.02 -1.79 15.77 -5.39 20.24 c
-3.58 4.5 -8.93 6.75 -16.1 6.75 c
-8.61 0 -15.39 -2.71 -20.36 -8.14 c
-4.96 -5.4 -7.44 -12.79 -7.44 -22.14 c
0 -56.54 -16.43 0 0 136.1 ^ 0 -51.62 p
3.84 5.5 8.36 9.61 13.57 12.32 c
5.2 2.74 11.2 4.11 18 4.11 c
11.25 0 19.74 -3.43 25.48 -10.3 c
5.77 -6.85 8.66 -16.93 8.66 -30.25 c
f
3627.41 173.49 0 -28.16 32.84 0 0 -11.74 ^ 0 -53.75 P
0 -8.07 1.07 -13.25 3.22 -15.55 c
2.18 -2.3 6.59 -3.45 13.24 -3.45 c
16.38 0 0 -14.08 ^ p
-12.44 0 -21.04 2.37 -25.78 7.11 c
-4.74 4.77 -7.11 13.42 -7.11 25.96 c
0 53.75 -11.73 0 0 11.74 ^ 0 28.16 16.43 0 p f
3758.81 127.59 m
4.03 6.86 8.84 11.93 14.41 15.18 c
5.59 3.28 12.19 4.91 19.79 4.91 c
10.2 0 18.05 -3.52 23.58 -10.56 c
5.55 -7.01 8.33 -17.01 8.33 -29.99 c
0 -60.35 -16.43 0 0 59.84 p
0 9.14 -1.65 15.93 -4.95 20.35 c
-3.3 4.43 -8.35 6.63 -15.14 6.63 c
-8.29 0 -14.84 -2.71 -19.65 -8.14 c
-4.79 -5.4 -7.2 -12.79 -7.2 -22.14 c
0 -56.54 -16.43 0 0 59.84 p
0 9.19 -1.64 15.99 -4.94 20.39 c
-3.31 4.4 -8.4 6.6 -15.3 6.6 c
-8.19 0 -14.69 -2.72 -19.51 -8.17 c
-4.79 -5.45 -7.18 -12.82 -7.18 -22.11 c
0 -56.54 -16.43 0 0 98.56 ^ 0 -14.08 p
3.66 5.63 8.06 9.77 13.16 12.43 c
5.14 2.66 11.22 4 18.27 4 c
7.11 0 13.15 -1.72 18.11 -5.17 c
4.98 -3.43 8.68 -8.4 11.07 -14.92 c
f
3858.07 46.7734 16.4258 136.102 re
f
255 G
10142.8 842.64 340.15 0 113.39 -113.38 0 -453.54 -453.54 0 f*
K
10142.8 842.64 340.15 0 113.39 -113.38 0 -453.54 -453.54 0 H
S
10482.9 842.64 0 -113.38 113.39 0 0 0 S
9867.29 103.58 0 -60.35 -16.43 0 0 59.84 P
0 9.02 -1.8 15.77 -5.39 20.24 c
-3.57 4.5 -8.93 6.74 -16.11 6.74 c
-8.59 0 -15.37 -2.71 -20.34 -8.14 c
-4.97 -5.41 -7.45 -12.79 -7.45 -22.15 c
0 -56.54 -16.43 0 0 98.55 ^ 0 -14.08 p
3.84 5.5 8.36 9.61 13.57 12.32 c
5.2 2.74 11.2 4.11 18 4.11 c
11.25 0 19.74 -3.43 25.48 -10.3 c
5.77 -6.84 8.66 -16.93 8.66 -30.25 c
f
9937.42 130.05 m
-8.69 0 -15.58 -3.34 -20.64 -10.04 c
-5.04 -6.7 -7.55 -15.87 -7.55 -27.5 c
0 -11.63 2.5 -20.8 7.51 -27.5 c
5.04 -6.7 11.93 -10.05 20.68 -10.05 c
8.66 0 15.5 3.36 20.54 10.09 c
5.06 6.72 7.59 15.88 7.59 27.46 c
0 11.54 -2.52 20.68 -7.59 27.43 c
-5.05 6.75 -11.89 10.12 -20.54 10.12 c
9937.39 144.13 m
13.89 0 24.79 -4.57 32.71 -13.71 c
7.92 -9.12 11.88 -21.76 11.88 -37.92 c
0 -16.11 -3.96 -28.74 -11.88 -37.91 c
-7.93 -9.14 -18.82 -13.71 -32.71 -13.71 c
-13.93 0 -24.84 4.57 -32.75 13.71 c
-7.89 9.17 -11.83 21.8 -11.83 37.91 c
0 16.16 3.94 28.8 11.83 37.92 c
7.91 9.14 18.82 13.71 32.75 13.71 c
f
9992.22 0.992188 93.8672 11.7305 re
f
10111 92.5 m
0 -11.7 2.39 -20.9 7.18 -27.57 c
4.8 -6.64 11.37 -9.97 19.76 -9.97 c
8.38 0 14.98 3.33 19.8 9.97 c
4.8 6.67 7.22 15.87 7.22 27.57 c
0 11.71 -2.41 20.89 -7.22 27.54 c
-4.83 6.67 -11.43 10.01 -19.8 10.01 c
-8.39 0 -14.96 -3.34 -19.76 -10.01 c
-4.79 -6.64 -7.18 -15.83 -7.18 -27.54 c
10165 57.3 m
-3.32 -5.55 -7.53 -9.68 -12.62 -12.39 c
-5.08 -2.69 -11.19 -4.04 -18.32 -4.04 c
-11.67 0 -21.17 4.74 -28.5 14.23 c
-7.3 9.48 -10.96 21.95 -10.96 37.39 c
0 15.45 3.65 27.92 10.96 37.4 c
7.33 9.48 16.83 14.23 28.5 14.23 c
7.13 0 13.24 -1.36 18.32 -4.07 c
5.09 -2.69 9.3 -6.8 12.62 -12.36 c
0 14.08 16.43 0 0 -136.1 ^ 0 51.62 p f
10233.5 57.3 0 -51.62 -16.43 0 0 136.1 ^ 0 -14.08 P
3.32 5.55 7.53 9.67 12.62 12.36 c
5.07 2.71 11.14 4.07 18.22 4.07 c
11.72 0 21.26 -4.74 28.56 -14.23 c
7.33 -9.48 10.99 -21.95 10.99 -37.4 c
0 -15.45 -3.66 -27.91 -10.99 -37.39 c
-7.3 -9.49 -16.84 -14.23 -28.56 -14.23 c
-7.07 0 -13.15 1.34 -18.22 4.04 c
-5.09 2.71 -9.3 6.84 -12.62 12.39 c
10287.4 92.5 m
0 11.71 -2.4 20.89 -7.21 27.54 c
-4.79 6.67 -11.38 10.01 -19.76 10.01 c
-8.38 0 -14.99 -3.34 -19.8 -10.01 c
-4.79 -6.64 -7.18 -15.83 -7.18 -27.54 c
0 -11.7 2.39 -20.9 7.18 -27.57 c
4.82 -6.64 11.43 -9.97 19.8 -9.97 c
8.38 0 14.97 3.33 19.76 9.97 c
4.81 6.67 7.21 15.87 7.21 27.57 c
f
10388.7 127.7 m
-1.76 0.81 -3.66 1.4 -5.72 1.76 c
-2.05 0.39 -4.33 0.59 -6.82 0.59 c
-8.8 0 -15.55 -2.94 -20.27 -8.83 c
-4.72 -5.87 -7.09 -14.3 -7.09 -25.3 c
0 -52.69 -16.42 0 0 98.55 ^ 0 -14.08 p
3.28 5.55 7.55 9.67 12.81 12.36 c
5.25 2.71 11.63 4.07 19.13 4.07 c
1.07 0 2.27 0 3.57 0 c
1.29 0 2.73 0 4.33 0 c
0.07 -16.43 p f
10423.2 57.3 0 -51.62 -16.43 0 0 136.1 ^ 0 -14.08 P
3.32 5.55 7.53 9.67 12.61 12.36 c
5.08 2.71 11.16 4.07 18.22 4.07 c
11.73 0 21.25 -4.74 28.56 -14.23 c
7.34 -9.48 11 -21.95 11 -37.4 c
0 -15.45 -3.66 -27.91 -11 -37.39 c
-7.3 -9.49 -16.82 -14.23 -28.56 -14.23 c
-7.06 0 -13.14 1.34 -18.22 4.04 c
-5.08 2.71 -9.29 6.84 -12.61 12.39 c
10477.2 92.5 m
0 11.71 -2.41 20.89 -7.22 27.54 c
-4.79 6.67 -11.39 10.01 -19.77 10.01 c
-8.38 0 -14.98 -3.34 -19.8 -10.01 c
-4.79 -6.64 -7.18 -15.83 -7.18 -27.54 c
0 -11.7 2.39 -20.9 7.18 -27.57 c
4.82 -6.64 11.41 -9.97 19.8 -9.97 c
8.38 0 14.98 3.33 19.77 9.97 c
4.8 6.67 7.22 15.87 7.22 27.57 c
f
10526.9 43.2305 18.7773 21.1133 re
f
10661.6 103.58 0 -60.35 -16.43 0 0 59.84 P
0 9.02 -1.79 15.77 -5.39 20.24 c
-3.57 4.5 -8.93 6.74 -16.09 6.74 c
-8.61 0 -15.39 -2.71 -20.35 -8.14 c
-4.97 -5.41 -7.45 -12.79 -7.45 -22.15 c
0 -56.54 -16.41 0 0 136.1 ^ 0 -51.63 p
3.84 5.5 8.37 9.61 13.57 12.32 c
5.2 2.74 11.2 4.11 18 4.11 c
11.25 0 19.74 -3.43 25.48 -10.3 c
5.77 -6.84 8.66 -16.93 8.66 -30.25 c
f
10710.6 169.95 0 -28.16 32.85 0 0 -11.73 ^ 0 -53.75 P
0 -8.07 1.07 -13.25 3.22 -15.54 c
2.18 -2.3 6.59 -3.45 13.24 -3.45 c
16.39 0 0 -14.07 ^ p
-12.44 0 -21.03 2.37 -25.78 7.11 c
-4.74 4.77 -7.11 13.42 -7.11 25.96 c
0 53.75 -11.73 0 0 11.73 ^ 0 28.16 16.43 0 p f
10842 124.04 m
4.04 6.87 8.85 11.93 14.41 15.18 c
5.59 3.27 12.2 4.91 19.79 4.91 c
10.2 0 18.05 -3.52 23.58 -10.56 c
5.55 -7.02 8.32 -17.01 8.32 -30 c
0 -60.35 -16.43 0 0 59.84 p
0 9.14 -1.65 15.93 -4.95 20.35 c
-3.3 4.43 -8.34 6.64 -15.14 6.64 c
-8.28 0 -14.84 -2.71 -19.65 -8.14 c
-4.79 -5.41 -7.18 -12.79 -7.18 -22.15 c
0 -56.54 -16.43 0 0 59.84 p
0 9.19 -1.65 15.98 -4.95 20.39 c
-3.3 4.4 -8.4 6.6 -15.3 6.6 c
-8.18 0 -14.69 -2.72 -19.5 -8.18 c
-4.8 -5.45 -7.19 -12.82 -7.19 -22.11 c
0 -56.54 -16.43 0 0 98.55 ^ 0 -14.08 p
3.67 5.63 8.06 9.77 13.16 12.43 c
5.14 2.66 11.23 4 18.27 4 c
7.11 0 13.15 -1.72 18.11 -5.17 c
4.98 -3.42 8.68 -8.4 11.07 -14.92 c
f
10941.3 43.2305 16.4258 136.102 re
f
255 G
8326.54 842.64 340.16 0 113.38 -113.38 0 -453.54 -453.54 0 f*
K
8326.54 842.64 340.16 0 113.38 -113.38 0 -453.54 -453.54 0 H
S
8666.7 842.64 0 -113.38 113.38 0 0 0 S
8170.66 97.5 0 -7.34 -75.1 0 P
0.71 -11.46 4.06 -20.2 10.05 -26.21 c
5.99 -5.99 14.32 -8.98 25.01 -8.98 c
6.21 0 12.22 0.79 18.03 2.34 c
5.82 1.57 11.59 3.91 17.31 7.04 c
0 -14.08 p
-5.77 -3.05 -11.69 -5.39 -17.74 -7 c
-6.05 -1.59 -12.17 -2.38 -18.38 -2.38 c
-15.59 0 -27.95 4.56 -37.06 13.68 c
-9.1 9.14 -13.64 21.5 -13.64 37.07 c
0 16.11 4.36 28.88 13.08 38.32 c
8.72 9.46 20.5 14.19 35.32 14.19 c
13.29 0 23.8 -4.18 31.53 -12.54 c
7.73 -8.36 11.59 -19.73 11.59 -34.1 c
8154.23 101.89 m
-0.12 8.55 -2.63 15.39 -7.52 20.5 c
-4.86 5.11 -11.3 7.66 -19.33 7.66 c
-9.09 0 -16.37 -2.46 -21.84 -7.41 c
-5.46 -4.94 -8.6 -11.89 -9.43 -20.86 c
58.12 0.11 p f
8275 141.79 -35.12 -47.96 37.47 -50.6 -19.03 0 -28.61 38.71 -27.75 -38.71 -18.48 0 36.89 51.55 
-34.55 47 18.82 0 25.77 -35.12 25.78 35.13 18.81 0 f
8345.87 92.5 m
-12.66 0 -21.43 -1.45 -26.32 -4.36 c
-4.89 -2.91 -7.34 -7.88 -7.34 -14.92 c
0 -5.59 1.84 -10.05 5.5 -13.34 c
3.66 -3.27 8.66 -4.91 14.96 -4.91 c
8.7 0 15.68 3.08 20.93 9.24 c
5.26 6.18 7.88 14.39 7.88 24.64 c
0 3.66 -15.62 0 p
8377.92 98.7 0 -55.47 -16.43 0 0 14.07 P
-3.62 -5.62 -8.12 -9.76 -13.53 -12.43 c
-5.4 -2.66 -12.02 -4 -19.84 -4 c
-9.89 0 -17.77 2.76 -23.61 8.29 c
-5.82 5.55 -8.73 12.97 -8.73 22.26 c
0 10.85 3.66 19.03 10.96 24.53 c
7.3 5.52 18.22 8.29 32.75 8.29 c
22 0 0 1.76 p
0 7.65 -2.4 13.57 -7.23 17.75 c
-4.79 4.2 -11.53 6.3 -20.2 6.3 c
-5.54 0 -10.9 -0.59 -16.14 -1.76 c
-5.23 -1.17 -10.26 -2.93 -15.1 -5.28 c
0 14.08 p
5.83 2.35 11.5 4.11 17 5.28 c
5.54 1.18 10.89 1.76 16.09 1.76 c
14.08 0 24.6 -3.76 31.54 -11.29 c
6.96 -7.5 10.45 -18.88 10.45 -34.14 c
f
8491.01 124.04 m
4.03 6.87 8.83 11.93 14.41 15.18 c
5.59 3.27 12.2 4.91 19.8 4.91 c
10.2 0 18.05 -3.52 23.58 -10.56 c
5.55 -7.02 8.32 -17.01 8.32 -30 c
0 -60.35 -16.43 0 0 59.84 p
0 9.14 -1.65 15.93 -4.95 20.35 c
-3.3 4.43 -8.35 6.64 -15.14 6.64 c
-8.29 0 -14.84 -2.71 -19.65 -8.14 c
-4.79 -5.41 -7.18 -12.79 -7.18 -22.15 c
0 -56.54 -16.43 0 0 59.84 p
0 9.19 -1.66 15.98 -4.96 20.39 c
-3.3 4.4 -8.39 6.6 -15.29 6.6 c
-8.18 0 -14.69 -2.72 -19.5 -8.18 c
-4.78 -5.45 -7.18 -12.82 -7.18 -22.11 c
0 -56.54 -16.43 0 0 98.55 ^ 0 -14.08 p
3.66 5.63 8.06 9.77 13.16 12.43 c
5.14 2.66 11.23 4 18.27 4 c
7.11 0 13.14 -1.72 18.11 -5.17 c
4.98 -3.42 8.68 -8.4 11.07 -14.92 c
f
8651.27 137.09 0 -14.08 P
-4.39 2.35 -8.97 4.11 -13.7 5.28 c
-4.75 1.17 -9.67 1.76 -14.75 1.76 c
-7.73 0 -13.52 -1.21 -17.38 -3.62 c
-3.86 -2.42 -5.79 -6.05 -5.79 -10.89 c
0 -3.69 1.34 -6.59 4.03 -8.69 c
2.71 -2.1 8.16 -4.11 16.35 -6.02 c
5.25 -1.21 p
11.09 -2.44 18.97 -5.9 23.64 -10.37 c
4.7 -4.48 7.04 -10.72 7.04 -18.74 c
0 -9.12 -3.5 -16.34 -10.48 -21.67 c
-7 -5.31 -16.62 -7.96 -28.86 -7.96 c
-5.11 0 -10.43 0.59 -15.95 1.76 c
-5.52 1.17 -11.34 2.93 -17.45 5.28 c
0 16.42 p
5.74 -3.12 11.4 -5.47 16.97 -7.04 c
5.58 -1.56 11.09 -2.34 16.54 -2.34 c
7.33 0 12.96 1.29 16.91 3.85 c
3.93 2.59 5.9 6.22 5.9 10.89 c
0 4.36 -1.39 7.68 -4.17 9.98 c
-2.79 2.32 -8.91 4.56 -18.38 6.71 c
-5.31 1.29 p
-10.05 2.1 -17.3 5.33 -21.78 9.68 c
-4.45 4.35 -6.67 10.31 -6.67 17.89 c
0 9.21 3.22 16.33 9.67 21.34 c
6.46 5.04 15.61 7.55 27.47 7.55 c
5.86 0 11.39 -0.59 16.57 -1.76 c
5.18 -1.17 9.96 -2.93 14.34 -5.28 c
f
8689.12 43.2305 18.7734 21.1133 re
f
8823.9 103.58 0 -60.35 -16.43 0 0 59.84 P
0 9.02 -1.79 15.77 -5.39 20.24 c
-3.56 4.5 -8.93 6.74 -16.09 6.74 c
-8.6 0 -15.39 -2.71 -20.35 -8.14 c
-4.96 -5.41 -7.45 -12.79 -7.45 -22.15 c
0 -56.54 -16.41 0 0 136.1 ^ 0 -51.63 p
3.84 5.5 8.37 9.61 13.57 12.32 c
5.2 2.74 11.2 4.11 18 4.11 c
11.25 0 19.75 -3.43 25.48 -10.3 c
5.77 -6.84 8.66 -16.93 8.66 -30.25 c
f
8872.89 169.95 0 -28.16 32.86 0 0 -11.73 ^ 0 -53.75 P
0 -8.07 1.07 -13.25 3.22 -15.54 c
2.18 -2.3 6.6 -3.45 13.24 -3.45 c
16.39 0 0 -14.07 ^ p
-12.44 0 -21.03 2.37 -25.77 7.11 c
-4.75 4.77 -7.12 13.42 -7.12 25.96 c
0 53.75 -11.73 0 0 11.73 ^ 0 28.16 16.43 0 p f
9004.29 124.04 m
4.04 6.87 8.84 11.93 14.41 15.18 c
5.6 3.27 12.2 4.91 19.79 4.91 c
10.21 0 18.06 -3.52 23.59 -10.56 c
5.54 -7.02 8.31 -17.01 8.31 -30 c
0 -60.35 -16.42 0 0 59.84 p
0 9.14 -1.66 15.93 -4.96 20.35 c
-3.3 4.43 -8.35 6.64 -15.14 6.64 c
-8.28 0 -14.84 -2.71 -19.65 -8.14 c
-4.79 -5.41 -7.18 -12.79 -7.18 -22.15 c
0 -56.54 -16.43 0 0 59.84 p
0 9.19 -1.65 15.98 -4.95 20.39 c
-3.3 4.4 -8.4 6.6 -15.29 6.6 c
-8.19 0 -14.69 -2.72 -19.52 -8.18 c
-4.79 -5.45 -7.18 -12.82 -7.18 -22.11 c
0 -56.54 -16.42 0 0 98.55 ^ 0 -14.08 p
3.67 5.63 8.06 9.77 13.16 12.43 c
5.14 2.66 11.23 4 18.27 4 c
7.12 0 13.15 -1.72 18.11 -5.17 c
4.99 -3.42 8.68 -8.4 11.07 -14.92 c
f
9103.55 43.2305 16.4258 136.102 re
f
255 G
6490.71 842.64 340.15 0 113.38 -113.38 0 -453.54 -453.54 0 f*
K
6490.71 842.64 340.15 0 113.38 -113.38 0 -453.54 -453.54 0 H
S
6830.87 842.64 0 -113.38 113.38 0 0 0 S
6352.56 124.04 m
4.03 6.87 8.83 11.93 14.41 15.18 c
5.59 3.27 12.2 4.91 19.8 4.91 c
10.19 0 18.05 -3.52 23.57 -10.56 c
5.55 -7.02 8.32 -17.01 8.32 -30 c
0 -60.35 -16.43 0 0 59.84 p
0 9.14 -1.65 15.93 -4.95 20.35 c
-3.3 4.43 -8.35 6.64 -15.14 6.64 c
-8.28 0 -14.84 -2.71 -19.65 -8.14 c
-4.8 -5.41 -7.19 -12.79 -7.19 -22.15 c
0 -56.54 -16.43 0 0 59.84 p
0 9.19 -1.65 15.98 -4.95 20.39 c
-3.31 4.4 -8.4 6.6 -15.3 6.6 c
-8.18 0 -14.69 -2.72 -19.49 -8.18 c
-4.79 -5.45 -7.2 -12.82 -7.2 -22.11 c
0 -56.54 -16.43 0 0 98.55 ^ 0 -14.08 p
3.68 5.63 8.06 9.77 13.16 12.43 c
5.14 2.66 11.23 4 18.27 4 c
7.11 0 13.15 -1.72 18.11 -5.17 c
4.98 -3.42 8.68 -8.4 11.07 -14.92 c
f
6494.86 92.5 m
-12.66 0 -21.43 -1.45 -26.33 -4.36 c
-4.89 -2.91 -7.33 -7.88 -7.33 -14.92 c
0 -5.59 1.83 -10.05 5.5 -13.34 c
3.66 -3.27 8.64 -4.91 14.95 -4.91 c
8.7 0 15.68 3.08 20.93 9.24 c
5.26 6.18 7.88 14.39 7.88 24.64 c
0 3.66 -15.62 0 p
6526.9 98.7 0 -55.47 -16.43 0 0 14.07 P
-3.61 -5.62 -8.12 -9.76 -13.53 -12.43 c
-5.4 -2.66 -12.01 -4 -19.84 -4 c
-9.9 0 -17.77 2.76 -23.61 8.29 c
-5.81 5.55 -8.72 12.97 -8.72 22.26 c
0 10.85 3.65 19.03 10.96 24.53 c
7.31 5.52 18.22 8.29 32.75 8.29 c
22 0 0 1.76 p
0 7.65 -2.4 13.57 -7.22 17.75 c
-4.79 4.2 -11.53 6.3 -20.2 6.3 c
-5.52 0 -10.9 -0.59 -16.14 -1.76 c
-5.23 -1.17 -10.27 -2.93 -15.1 -5.28 c
0 14.08 p
5.84 2.35 11.51 4.11 17.02 5.28 c
5.52 1.18 10.88 1.76 16.09 1.76 c
14.07 0 24.59 -3.76 31.53 -11.29 c
6.96 -7.5 10.45 -18.88 10.45 -34.14 c
f
6562.97 141.79 16.42 0 0 -98.55 ^ ^ P
6562.97 179.33 16.42 0 0 -21.12 ^ ^ f
6695.36 103.58 0 -60.35 -16.43 0 0 59.84 P
0 9.02 -1.79 15.77 -5.38 20.24 c
-3.57 4.5 -8.93 6.74 -16.09 6.74 c
-8.61 0 -15.39 -2.71 -20.36 -8.14 c
-4.96 -5.41 -7.44 -12.79 -7.44 -22.15 c
0 -56.54 -16.43 0 0 98.55 ^ 0 -14.08 p
3.84 5.5 8.36 9.61 13.57 12.32 c
5.2 2.74 11.2 4.11 18 4.11 c
11.24 0 19.74 -3.43 25.48 -10.3 c
5.77 -6.84 8.64 -16.93 8.64 -30.25 c
f
6732.62 43.2305 18.7695 21.1133 re
f
6867.4 103.58 0 -60.35 -16.43 0 0 59.84 P
0 9.02 -1.8 15.77 -5.39 20.24 c
-3.56 4.5 -8.93 6.74 -16.09 6.74 c
-8.6 0 -15.39 -2.71 -20.35 -8.14 c
-4.96 -5.41 -7.45 -12.79 -7.45 -22.15 c
0 -56.54 -16.42 0 0 136.1 ^ 0 -51.63 p
3.84 5.5 8.37 9.61 13.57 12.32 c
5.21 2.74 11.2 4.11 18 4.11 c
11.25 0 19.75 -3.43 25.48 -10.3 c
5.77 -6.84 8.66 -16.93 8.66 -30.25 c
f
6916.38 169.95 0 -28.16 32.86 0 0 -11.73 ^ 0 -53.75 P
0 -8.07 1.07 -13.25 3.22 -15.54 c
2.18 -2.3 6.6 -3.45 13.24 -3.45 c
16.39 0 0 -14.07 ^ p
-12.45 0 -21.04 2.37 -25.77 7.11 c
-4.75 4.77 -7.12 13.42 -7.12 25.96 c
0 53.75 -11.73 0 0 11.73 ^ 0 28.16 16.43 0 p f
7047.79 124.04 m
4.04 6.87 8.84 11.93 14.41 15.18 c
5.6 3.27 12.2 4.91 19.8 4.91 c
10.2 0 18.05 -3.52 23.58 -10.56 c
5.55 -7.02 8.31 -17.01 8.31 -30 c
0 -60.35 -16.42 0 0 59.84 p
0 9.14 -1.66 15.93 -4.96 20.35 c
-3.3 4.43 -8.35 6.64 -15.14 6.64 c
-8.28 0 -14.84 -2.71 -19.65 -8.14 c
-4.79 -5.41 -7.19 -12.79 -7.19 -22.15 c
0 -56.54 -16.43 0 0 59.84 p
0 9.19 -1.65 15.98 -4.95 20.39 c
-3.3 4.4 -8.4 6.6 -15.29 6.6 c
-8.19 0 -14.69 -2.72 -19.5 -8.18 c
-4.79 -5.45 -7.2 -12.82 -7.2 -22.11 c
0 -56.54 -16.42 0 0 98.55 ^ 0 -14.08 p
3.68 5.63 8.06 9.77 13.16 12.43 c
5.14 2.66 11.23 4 18.27 4 c
7.12 0 13.15 -1.72 18.11 -5.17 c
4.99 -3.42 8.68 -8.4 11.07 -14.92 c
f
7147.04 43.2305 16.4297 136.102 re
f
255 G
4565.99 842.64 340.16 0 113.38 -113.38 0 -453.54 -453.54 0 f*
K
4565.99 842.64 340.16 0 113.38 -113.38 0 -453.54 -453.54 0 H
S
4906.15 842.64 0 -113.38 113.38 0 0 0 S
4321.8 141.79 16.43 0 0 -98.55 ^ ^ P
4321.8 179.33 16.43 0 0 -21.12 ^ ^ f
4454.21 103.58 0 -60.35 -16.43 0 0 59.84 P
0 9.02 -1.79 15.77 -5.39 20.24 c
-3.57 4.5 -8.93 6.74 -16.1 6.74 c
-8.6 0 -15.39 -2.71 -20.34 -8.14 c
-4.97 -5.41 -7.44 -12.79 -7.44 -22.15 c
0 -56.54 -16.43 0 0 98.55 ^ 0 -14.08 p
3.83 5.5 8.36 9.61 13.56 12.32 c
5.2 2.74 11.2 4.11 18 4.11 c
11.25 0 19.74 -3.43 25.48 -10.3 c
5.77 -6.84 8.66 -16.93 8.66 -30.25 c
f
4475.03 141.79 16.8 0 30.13 -82.72 30.14 82.72 16.8 0 -36.16 -98.55 -21.55 0 -36.16 98.55 f
4637.43 92.5 m
-12.66 0 -21.45 -1.45 -26.34 -4.36 c
-4.88 -2.91 -7.33 -7.88 -7.33 -14.92 c
0 -5.59 1.84 -10.05 5.5 -13.34 c
3.66 -3.27 8.64 -4.91 14.96 -4.91 c
8.7 0 15.69 3.08 20.93 9.24 c
5.26 6.18 7.88 14.39 7.88 24.64 c
0 3.66 -15.61 0 p
4669.46 98.7 0 -55.47 -16.43 0 0 14.07 P
-3.61 -5.62 -8.12 -9.76 -13.53 -12.43 c
-5.4 -2.66 -12.01 -4 -19.84 -4 c
-9.89 0 -17.77 2.76 -23.61 8.29 c
-5.81 5.55 -8.72 12.97 -8.72 22.26 c
0 10.85 3.65 19.03 10.97 24.53 c
7.3 5.52 18.22 8.29 32.73 8.29 c
22 0 0 1.76 p
0 7.65 -2.4 13.57 -7.22 17.75 c
-4.79 4.2 -11.52 6.3 -20.2 6.3 c
-5.52 0 -10.91 -0.59 -16.13 -1.76 c
-5.24 -1.17 -10.27 -2.93 -15.11 -5.28 c
0 14.08 p
5.84 2.35 11.51 4.11 17.01 5.28 c
5.52 1.18 10.89 1.76 16.1 1.76 c
14.08 0 24.59 -3.76 31.53 -11.29 c
6.97 -7.5 10.45 -18.88 10.45 -34.14 c
f
4705.53 43.2305 16.4258 136.102 re
f
4755.8 141.79 16.42 0 0 -98.55 ^ ^ P
4755.8 179.33 16.42 0 0 -21.12 ^ ^ f
4869.41 127.7 0 51.63 16.43 0 0 -136.1 ^ 0 14.07 P
-3.32 -5.55 -7.53 -9.68 -12.61 -12.39 c
-5.08 -2.69 -11.2 -4.04 -18.33 -4.04 c
-11.66 0 -21.16 4.74 -28.5 14.23 c
-7.31 9.48 -10.96 21.95 -10.96 37.39 c
0 15.45 3.65 27.92 10.96 37.4 c
7.34 9.48 16.84 14.23 28.5 14.23 c
7.14 0 13.25 -1.36 18.33 -4.07 c
5.08 -2.69 9.29 -6.8 12.61 -12.36 c
4815.45 92.5 m
0 -11.7 2.39 -20.9 7.18 -27.57 c
4.79 -6.64 11.38 -9.97 19.76 -9.97 c
8.39 0 14.99 3.33 19.8 9.97 c
4.82 6.67 7.21 15.87 7.21 27.57 c
0 11.71 -2.4 20.89 -7.21 27.54 c
-4.82 6.67 -11.41 10.01 -19.8 10.01 c
-8.38 0 -14.97 -3.34 -19.76 -10.01 c
-4.79 -6.64 -7.18 -15.83 -7.18 -27.54 c
f
4926.16 43.2305 18.7734 21.1133 re
f
5060.94 103.58 0 -60.35 -16.43 0 0 59.84 P
0 9.02 -1.79 15.77 -5.39 20.24 c
-3.56 4.5 -8.93 6.74 -16.09 6.74 c
-8.6 0 -15.39 -2.71 -20.35 -8.14 c
-4.96 -5.41 -7.45 -12.79 -7.45 -22.15 c
0 -56.54 -16.42 0 0 136.1 ^ 0 -51.63 p
3.84 5.5 8.37 9.61 13.57 12.32 c
5.21 2.74 11.2 4.11 18 4.11 c
11.25 0 19.75 -3.43 25.48 -10.3 c
5.77 -6.84 8.66 -16.93 8.66 -30.25 c
f
5109.93 169.95 0 -28.16 32.86 0 0 -11.73 ^ 0 -53.75 P
0 -8.07 1.07 -13.25 3.22 -15.54 c
2.18 -2.3 6.6 -3.45 13.24 -3.45 c
16.4 0 0 -14.07 ^ p
-12.44 0 -21.03 2.37 -25.77 7.11 c
-4.75 4.77 -7.12 13.42 -7.12 25.96 c
0 53.75 -11.73 0 0 11.73 ^ 0 28.16 16.43 0 p f
5241.33 124.04 m
4.04 6.87 8.84 11.93 14.41 15.18 c
5.6 3.27 12.2 4.91 19.8 4.91 c
10.2 0 18.05 -3.52 23.57 -10.56 c
5.56 -7.02 8.32 -17.01 8.32 -30 c
0 -60.35 -16.42 0 0 59.84 p
0 9.14 -1.66 15.93 -4.96 20.35 c
-3.3 4.43 -8.35 6.64 -15.14 6.64 c
-8.28 0 -14.84 -2.71 -19.65 -8.14 c
-4.79 -5.41 -7.18 -12.79 -7.18 -22.15 c
0 -56.54 -16.43 0 0 59.84 p
0 9.19 -1.65 15.98 -4.95 20.39 c
-3.3 4.4 -8.4 6.6 -15.29 6.6 c
-8.19 0 -14.69 -2.72 -19.5 -8.18 c
-4.79 -5.45 -7.2 -12.82 -7.2 -22.11 c
0 -56.54 -16.42 0 0 98.55 ^ 0 -14.08 p
3.68 5.63 8.06 9.77 13.16 12.43 c
5.14 2.66 11.23 4 18.27 4 c
7.12 0 13.15 -1.72 18.11 -5.17 c
4.99 -3.42 8.68 -8.4 11.07 -14.92 c
f
5340.59 43.2305 16.4258 136.102 re
f
12346.5 842.64 -2.77 894.39 S
255 G
12119.7 842.64 340.19 0 113.36 -113.38 0 -453.54 -453.55 0 f*
K
12119.7 842.64 340.19 0 113.36 -113.38 0 -453.54 -453.55 0 H
S
12459.8 842.64 0 -113.38 113.36 0 0 0 S
11506.1 137.09 0 -14.08 P
-4.43 2.35 -8.96 4.11 -13.73 5.28 c
-4.76 1.17 -9.63 1.76 -14.72 1.76 c
-7.75 0 -13.5 -1.21 -17.38 -3.62 c
-3.87 -2.42 -5.76 -6.05 -5.76 -10.89 c
0 -3.69 1.33 -6.59 3.98 -8.69 c
2.66 -2.1 8.19 -4.11 16.38 -6.02 c
5.2 -1.21 p
11.07 -2.44 19.04 -5.9 23.69 -10.37 c
4.65 -4.48 6.97 -10.72 6.97 -18.74 c
0 -9.12 -3.43 -16.34 -10.41 -21.67 c
-7.08 -5.31 -16.61 -7.96 -28.89 -7.96 c
-5.09 0 -10.41 0.59 -15.94 1.76 c
-5.54 1.17 -11.4 2.93 -17.49 5.28 c
0 16.42 p
5.76 -3.12 11.4 -5.47 16.94 -7.04 c
5.65 -1.56 11.18 -2.34 16.61 -2.34 c
7.31 0 12.95 1.29 16.94 3.85 c
3.88 2.59 5.87 6.22 5.87 10.89 c
0 4.36 -1.44 7.68 -4.21 9.98 c
-2.77 2.32 -8.86 4.56 -18.37 6.71 c
-5.31 1.29 p
-10.07 2.1 -17.27 5.33 -21.81 9.68 c
-4.43 4.35 -6.64 10.31 -6.64 17.89 c
0 9.21 3.21 16.33 9.74 21.34 c
6.42 5.04 15.61 7.55 27.45 7.55 c
5.87 0 11.4 -0.59 16.5 -1.76 c
5.2 -1.17 9.96 -2.93 14.39 -5.28 c
f
11621.4 103.58 0 -60.35 -16.39 0 0 59.84 P
0 9.02 -1.77 15.77 -5.42 20.24 c
-3.54 4.5 -8.97 6.74 -16.05 6.74 c
-8.64 0 -15.39 -2.71 -20.37 -8.14 c
-4.98 -5.41 -7.42 -12.79 -7.42 -22.15 c
0 -56.54 -16.49 0 0 136.1 ^ 0 -51.63 p
3.77 5.5 8.3 9.61 13.51 12.32 c
5.2 2.74 11.18 4.11 18.04 4.11 c
11.18 0 19.71 -3.43 25.46 -10.3 c
5.76 -6.84 8.64 -16.93 8.64 -30.25 c
f
11691.6 130.05 m
-8.75 0 -15.61 -3.34 -20.7 -10.04 c
-4.98 -6.7 -7.53 -15.87 -7.53 -27.5 c
0 -11.63 2.54 -20.8 7.53 -27.5 c
5.09 -6.7 11.95 -10.05 20.7 -10.05 c
8.64 0 15.5 3.36 20.48 10.09 c
5.09 6.72 7.64 15.88 7.64 27.46 c
0 11.54 -2.55 20.68 -7.64 27.43 c
-4.98 6.75 -11.84 10.12 -20.48 10.12 c
11691.6 144.13 m
13.84 0 24.69 -4.57 32.66 -13.71 c
7.97 -9.12 11.85 -21.76 11.85 -37.92 c
0 -16.11 -3.87 -28.74 -11.85 -37.91 c
-7.97 -9.14 -18.82 -13.71 -32.66 -13.71 c
-13.95 0 -24.91 4.57 -32.77 13.71 c
-7.97 9.17 -11.85 21.8 -11.85 37.91 c
0 16.16 3.88 28.8 11.85 37.92 c
7.86 9.14 18.82 13.71 32.77 13.71 c
f
11755.8 141.79 16.05 0 20.15 -76.93 19.93 76.93 19.04 0 20.04 -76.93 20.04 76.93 16.16 0 
-25.68 -98.55 -18.93 0 -21.04 80.77 -21.25 -80.77 -18.93 0 -25.57 98.55 f
11894.3 0.992188 93.8633 11.7305 re
f
12064.8 137.09 0 -14.08 P
-4.43 2.35 -8.96 4.11 -13.73 5.28 c
-4.76 1.17 -9.63 1.76 -14.72 1.76 c
-7.75 0 -13.5 -1.21 -17.38 -3.62 c
-3.87 -2.42 -5.87 -6.05 -5.87 -10.89 c
0 -3.69 1.44 -6.59 4.09 -8.69 c
2.66 -2.1 8.19 -4.11 16.39 -6.02 c
5.2 -1.21 p
11.07 -2.44 18.93 -5.9 23.69 -10.37 c
4.65 -4.48 6.98 -10.72 6.98 -18.74 c
0 -9.12 -3.43 -16.34 -10.52 -21.67 c
-6.97 -5.31 -16.61 -7.96 -28.78 -7.96 c
-5.09 0 -10.41 0.59 -15.94 1.76 c
-5.54 1.17 -11.4 2.93 -17.49 5.28 c
0 16.42 p
5.75 -3.12 11.4 -5.47 16.93 -7.04 c
5.65 -1.56 11.18 -2.34 16.61 -2.34 c
7.31 0 12.95 1.29 16.83 3.85 c
3.98 2.59 5.98 6.22 5.98 10.89 c
0 4.36 -1.44 7.68 -4.21 9.98 c
-2.77 2.32 -8.86 4.56 -18.37 6.71 c
-5.31 1.29 p
-10.07 2.1 -17.27 5.33 -21.81 9.68 c
-4.43 4.35 -6.64 10.31 -6.64 17.89 c
0 9.21 3.21 16.33 9.74 21.34 c
6.42 5.04 15.61 7.55 27.46 7.55 c
5.87 0 11.4 -0.59 16.49 -1.76 c
5.2 -1.17 9.96 -2.93 14.39 -5.28 c
f
12114.3 169.95 0 -28.16 32.77 0 0 -11.73 ^ 0 -53.75 P
0 -8.07 0.99 -13.25 3.21 -15.54 c
2.11 -2.3 6.53 -3.45 13.18 -3.45 c
16.38 0 0 -14.07 ^ p
-12.4 0 -21.04 2.37 -25.68 7.11 c
-4.76 4.77 -7.2 13.42 -7.2 25.96 c
0 53.75 -11.73 0 0 11.73 ^ 0 28.16 16.5 0 p f
12211.8 92.5 m
-12.73 0 -21.48 -1.45 -26.35 -4.36 c
-4.87 -2.91 -7.31 -7.88 -7.31 -14.92 c
0 -5.59 1.77 -10.05 5.43 -13.34 c
3.65 -3.27 8.63 -4.91 14.95 -4.91 c
8.74 0 15.72 3.08 21.03 9.24 c
5.2 6.18 7.86 14.39 7.86 24.64 c
0 3.66 -15.61 0 p
12243.8 98.7 0 -55.47 -16.39 0 0 14.07 P
-3.65 -5.62 -8.19 -9.76 -13.5 -12.43 c
-5.43 -2.66 -12.07 -4 -19.93 -4 c
-9.85 0 -17.71 2.76 -23.58 8.29 c
-5.87 5.55 -8.74 12.97 -8.74 22.26 c
0 10.85 3.65 19.03 10.96 24.53 c
7.31 5.52 18.27 8.29 32.77 8.29 c
22.03 0 0 1.76 p
0 7.65 -2.43 13.57 -7.2 17.75 c
-4.87 4.2 -11.62 6.3 -20.26 6.3 c
-5.54 0 -10.85 -0.59 -16.16 -1.76 c
-5.2 -1.17 -10.19 -2.93 -15.06 -5.28 c
0 14.08 p
5.87 2.35 11.52 4.11 16.94 5.28 c
5.54 1.18 10.96 1.76 16.16 1.76 c
14.06 0 24.57 -3.76 31.55 -11.29 c
6.97 -7.5 10.41 -18.88 10.41 -34.14 c
f
12296.2 169.95 0 -28.16 32.88 0 0 -11.73 ^ 0 -53.75 P
0 -8.07 1.11 -13.25 3.21 -15.54 c
2.21 -2.3 6.64 -3.45 13.28 -3.45 c
16.39 0 0 -14.07 ^ p
-12.4 0 -21.03 2.37 -25.79 7.11 c
-4.76 4.77 -7.09 13.42 -7.09 25.96 c
0 53.75 -11.73 0 0 11.73 ^ 0 28.16 16.39 0 p f
12350.6 141.79 16.5 0 0 -98.55 ^ ^ P
12350.6 179.33 16.5 0 0 -21.12 ^ ^ f
12462 137.09 0 -14.08 P
-4.43 2.35 -8.96 4.11 -13.73 5.28 c
-4.76 1.17 -9.63 1.76 -14.72 1.76 c
-7.75 0 -13.62 -1.21 -17.38 -3.62 c
-3.87 -2.42 -5.87 -6.05 -5.87 -10.89 c
0 -3.69 1.33 -6.59 4.09 -8.69 c
2.66 -2.1 8.08 -4.11 16.27 -6.02 c
5.31 -1.21 p
11.07 -2.44 18.93 -5.9 23.58 -10.37 c
4.76 -4.48 7.09 -10.72 7.09 -18.74 c
0 -9.12 -3.54 -16.34 -10.52 -21.67 c
-6.97 -5.31 -16.61 -7.96 -28.78 -7.96 c
-5.2 0 -10.52 0.59 -15.94 1.76 c
-5.54 1.17 -11.4 2.93 -17.49 5.28 c
0 16.42 p
5.76 -3.12 11.4 -5.47 16.94 -7.04 c
5.65 -1.56 11.07 -2.34 16.61 -2.34 c
7.31 0 12.95 1.29 16.83 3.85 c
3.98 2.59 5.98 6.22 5.98 10.89 c
0 4.36 -1.44 7.68 -4.21 9.98 c
-2.77 2.32 -8.96 4.56 -18.37 6.71 c
-5.31 1.29 p
-10.07 2.1 -17.27 5.33 -21.81 9.68 c
-4.43 4.35 -6.64 10.31 -6.64 17.89 c
0 9.21 3.21 16.33 9.63 21.34 c
6.53 5.04 15.61 7.55 27.45 7.55 c
5.87 0 11.4 -0.59 16.61 -1.76 c
5.2 -1.17 9.96 -2.93 14.39 -5.28 c
f
12511.4 169.95 0 -28.16 32.88 0 0 -11.73 ^ 0 -53.75 P
0 -8.07 1.11 -13.25 3.32 -15.54 c
2.11 -2.3 6.53 -3.45 13.18 -3.45 c
16.38 0 0 -14.07 ^ p
-12.4 0 -21.04 2.37 -25.79 7.11 c
-4.76 4.77 -7.09 13.42 -7.09 25.96 c
0 53.75 -11.73 0 0 11.73 ^ 0 28.16 16.38 0 p f
12565.9 141.79 16.39 0 0 -98.55 ^ ^ P
12565.9 179.33 16.39 0 0 -21.12 ^ ^ f
12686.6 137.09 0 -14.08 P
-4.65 2.35 -9.3 4.11 -13.84 5.28 c
-4.65 1.17 -9.3 1.76 -13.95 1.76 c
-10.52 0 -18.71 -3.29 -24.57 -9.86 c
-5.76 -6.57 -8.75 -15.8 -8.75 -27.68 c
0 -11.88 2.99 -21.11 8.75 -27.68 c
5.87 -6.57 14.06 -9.86 24.57 -9.86 c
4.65 0 9.3 0.59 13.95 1.76 c
4.54 1.17 9.19 2.93 13.84 5.28 c
0 -14.08 p
-4.54 -2.35 -9.19 -4.11 -14.06 -5.28 c
-4.76 -1.17 -9.85 -1.76 -15.28 -1.76 c
-14.72 0 -26.46 4.64 -35.09 13.93 c
-8.75 9.31 -13.06 21.88 -13.06 37.69 c
0 16.04 4.43 28.65 13.17 37.84 c
8.75 9.19 20.81 13.79 36.09 13.79 c
4.87 0 9.74 -0.59 14.5 -1.76 c
4.65 -1.17 9.3 -2.93 13.73 -5.28 c
f
12777 137.09 0 -14.08 P
-4.43 2.35 -8.96 4.11 -13.73 5.28 c
-4.76 1.17 -9.74 1.76 -14.72 1.76 c
-7.75 0 -13.62 -1.21 -17.38 -3.62 c
-3.87 -2.42 -5.87 -6.05 -5.87 -10.89 c
0 -3.69 1.33 -6.59 4.1 -8.69 c
2.66 -2.1 8.08 -4.11 16.27 -6.02 c
5.31 -1.21 p
11.07 -2.44 18.93 -5.9 23.58 -10.37 c
4.76 -4.48 7.09 -10.72 7.09 -18.74 c
0 -9.12 -3.54 -16.34 -10.52 -21.67 c
-6.97 -5.31 -16.61 -7.96 -28.78 -7.96 c
-5.2 0 -10.52 0.59 -15.94 1.76 c
-5.54 1.17 -11.4 2.93 -17.49 5.28 c
0 16.42 p
5.76 -3.12 11.4 -5.47 16.94 -7.04 c
5.64 -1.56 11.07 -2.34 16.61 -2.34 c
7.31 0 12.95 1.29 16.83 3.85 c
3.98 2.59 5.98 6.22 5.98 10.89 c
0 4.36 -1.44 7.68 -4.21 9.98 c
-2.77 2.32 -8.96 4.56 -18.37 6.71 c
-5.32 1.29 p
-10.07 2.1 -17.27 5.33 -21.81 9.68 c
-4.43 4.35 -6.64 10.31 -6.64 17.89 c
0 9.21 3.21 16.33 9.63 21.34 c
6.53 5.04 15.61 7.55 27.45 7.55 c
5.87 0 11.4 -0.59 16.61 -1.76 c
5.2 -1.17 9.96 -2.93 14.39 -5.28 c
f
12814.8 43.2305 18.7773 21.1133 re
f
12949.6 103.58 0 -60.35 -16.38 0 0 59.84 P
0 9.02 -1.88 15.77 -5.43 20.24 c
-3.54 4.5 -8.97 6.74 -16.16 6.74 c
-8.52 0 -15.39 -2.71 -20.26 -8.14 c
-4.98 -5.41 -7.53 -12.79 -7.53 -22.15 c
0 -56.54 -16.38 0 0 136.1 ^ 0 -51.63 p
3.88 5.5 8.41 9.61 13.62 12.32 c
5.2 2.74 11.18 4.11 18.04 4.11 c
11.18 0 19.71 -3.43 25.46 -10.3 c
5.76 -6.84 8.64 -16.93 8.64 -30.25 c
f
12998.5 169.95 0 -28.16 32.88 0 0 -11.73 ^ 0 -53.75 P
0 -8.07 1.11 -13.25 3.32 -15.54 c
2.1 -2.3 6.53 -3.45 13.17 -3.45 c
16.39 0 0 -14.07 ^ p
-12.4 0 -21.03 2.37 -25.79 7.11 c
-4.76 4.77 -7.09 13.42 -7.09 25.96 c
0 53.75 -11.73 0 0 11.73 ^ 0 28.16 16.39 0 p f
13129.9 124.04 m
4.1 6.87 8.86 11.93 14.5 15.18 c
5.54 3.27 12.18 4.91 19.81 4.91 c
10.19 0 18.05 -3.52 23.47 -10.56 c
5.65 -7.02 8.41 -17.01 8.41 -30 c
0 -60.35 -16.49 0 0 59.84 p
0 9.14 -1.66 15.93 -4.87 20.35 c
-3.32 4.43 -8.41 6.64 -15.17 6.64 c
-8.3 0 -14.83 -2.71 -19.7 -8.14 c
-4.76 -5.41 -7.2 -12.79 -7.2 -22.15 c
0 -56.54 -16.38 0 0 59.84 p
0 9.19 -1.66 15.98 -4.98 20.39 c
-3.32 4.4 -8.41 6.6 -15.28 6.6 c
-8.19 0 -14.72 -2.72 -19.48 -8.18 c
-4.76 -5.45 -7.2 -12.82 -7.2 -22.11 c
0 -56.54 -16.38 0 0 98.55 ^ 0 -14.08 p
3.66 5.63 8.08 9.77 13.18 12.43 c
5.09 2.66 11.18 4 18.27 4 c
7.09 0 13.17 -1.72 18.04 -5.17 c
5.09 -3.42 8.75 -8.4 11.07 -14.92 c
f
13229.2 43.2305 16.4258 136.102 re
f
10382.2 1734.38 1975.77 -0.76 S
cleartomark end end pagesave restore
 showpage
%%PageTrailer
%%Trailer
%%Pages: 1
%%Trailer
cleartomark
countdictstack
exch sub { end } repeat
restore
%%EOF
